{
    "_id": "su4TRBOoso4vjkoK",
    "data": {
        "attributes": {
            "ac": {
                "value": 10
            },
            "hardness": 0,
            "hasHealth": false,
            "hp": {
                "details": "",
                "max": 0,
                "temp": 0,
                "tempmax": 0,
                "value": 0
            },
            "stealth": {
                "details": "(trained)",
                "value": 21
            }
        },
        "creatureType": "",
        "details": {
            "description": "An object haunted by the echoes of a vicious mind attempts to kill someone who comes near.",
            "disable": "Religion DC 29 (master) to exorcise the spirit or Diplomacy DC 31 (expert) to talk it down",
            "isComplex": false,
            "level": 10,
            "reset": "",
            "routine": ""
        },
        "flavourText": "",
        "recallKnowledgeText": "",
        "saves": {
            "fortitude": {
                "rank": 0,
                "saveDetail": "",
                "value": 0
            },
            "reflex": {
                "rank": 0,
                "saveDetail": "",
                "value": 0
            },
            "will": {
                "rank": 0,
                "saveDetail": "",
                "value": 0
            }
        },
        "schema": {
            "version": {
                "value": ""
            }
        },
        "sidebarText": "",
        "source": {
            "value": ""
        },
        "statusEffects": [],
        "traits": {
            "ci": [],
            "di": {
                "custom": "",
                "selected": {},
                "value": []
            },
            "dr": [],
            "dv": [],
            "rarity": {
                "value": "common"
            },
            "size": {
                "value": "med"
            },
            "traits": {
                "custom": "",
                "value": [
                    "haunt"
                ]
            }
        }
    },
    "effects": [],
    "flags": {},
    "img": "systems/pf2e/icons/default-icons/hazard.svg",
    "items": [
        {
            "_id": "0FpzSygcs7G688GT",
            "data": {
                "actionCategory": {
                    "value": ""
                },
                "actionType": {
                    "value": "reaction"
                },
                "actions": {
                    "value": ""
                },
                "description": {
                    "chat": "",
                    "unidentified": "",
                    "value": "<p><strong>Trigger</strong> A creature moves within 10 feet of the haunted object. <br /><strong>Effect</strong> The haunt takes control of the triggering creature, forcing it to attack itself. The creature must attempt a <span data-pf2-saving-throw=\"will\" data-pf2-dc=\"29\" data-pf2-traits=\"death,emotion,fear,illusion,mental,occult\" data-pf2-label=\"Quietus DC\" data-pf2-show-dc=\"gm\">Will</span> save.<br /><br /><strong>Critical Success</strong> The target is unaffected.<br /><strong>Success</strong> The target makes a Strike against itself and automatically hits; the target also becomes frightened 1.<br /><strong>Failure</strong> The target makes a Strike against itself and automatically scores a critical hit; the target also becomes frightened 2.<br /><strong>Critical Failure</strong> The target attempts a Fortitude save. If the target succeeds, it is subject to the effects of a failure instead. If the target fails, it is reduced to 0 Hit Points and dies.</p>"
                },
                "requirements": {
                    "value": ""
                },
                "rules": [],
                "slug": null,
                "source": {
                    "value": ""
                },
                "traits": {
                    "custom": "",
                    "rarity": {
                        "value": "common"
                    },
                    "value": [
                        "death",
                        "emotion",
                        "fear",
                        "illusion",
                        "mental",
                        "occult"
                    ]
                },
                "trigger": {
                    "value": ""
                },
                "usage": {
                    "value": "held-in-one-hand"
                },
                "weapon": {
                    "value": ""
                }
            },
            "effects": [],
            "flags": {},
            "img": "systems/pf2e/icons/actions/Reaction.webp",
            "name": "Quietus",
            "sort": 100000,
            "type": "action"
        }
    ],
    "name": "Bloodthirsty Urge",
    "permission": {
        "default": 0
    },
    "token": {
        "actorId": "su4TRBOoso4vjkoK",
        "actorLink": false,
        "bar1": {
            "attribute": "attributes.hp"
        },
        "bar2": {},
        "brightLight": 0,
        "brightSight": 0,
        "dimLight": 0,
        "dimSight": 0,
        "displayBars": 20,
        "displayName": 20,
        "disposition": 0,
        "flags": {},
        "height": 1,
        "img": "systems/pf2e/icons/default-icons/hazard.svg",
        "lightAlpha": 1,
        "lightAngle": 360,
        "lightAnimation": {
            "intensity": 5,
            "speed": 5
        },
        "lockRotation": false,
        "name": "Bloodthirsty Urge",
        "randomImg": false,
        "rotation": 0,
        "scale": 1,
        "sightAngle": 360,
        "tint": null,
        "vision": false,
        "width": 1
    },
    "type": "hazard"
}
