{
    "_id": "g9HovYB4pfHgIML9",
    "data": {
        "attributes": {
            "ac": {
                "value": 33
            },
            "hardness": 0,
            "hasHealth": true,
            "hp": {
                "details": "",
                "max": 100,
                "temp": 0,
                "tempmax": 0,
                "value": 100
            },
            "stealth": {
                "details": "(expert)",
                "value": 25
            }
        },
        "creatureType": "",
        "details": {
            "description": "A whirling tornado of spectrally propelled glass and steel slices whatever it touches to ribbons.",
            "disable": "DC 35 Thievery (master) to precisely adjust the blades so that they destroy each other, or DC 38 Religion (expert) to weaken the haunt; four successes are required to disable it",
            "isComplex": true,
            "level": 12,
            "reset": "The haunt draws jagged shards back into its area over the course of an hour, after which it can trigger again.",
            "routine": "(3 actions) The tornado of blades uses 3 actions to move, traveling up to 30 feet with each action and dealing 2d10+10 slashing damage. Each creature in its path must attempt a DC 33 Reflex save.<br /><br /><b>Critical Success</b> The creature is unaffected.<br /><b>Success</b> The creature takes half damage.<br /><b>Failure</b> The creature takes full damage plus 1d10 persistent bleed damage.<br /><b>Critical Failure</b> The creature takes double damage and 1d10 persistent bleed damage. It also becomes wounded 1 (or increases its wounded value by 1, if it is already wounded).<br /><br />Each successful check to disable this hazard reduces the haunt's movement by 30 feet, and the fourth success disables it completely."
        },
        "flavourText": "",
        "recallKnowledgeText": "",
        "saves": {
            "fortitude": {
                "rank": 0,
                "saveDetail": "",
                "value": 27
            },
            "reflex": {
                "rank": 0,
                "saveDetail": "",
                "value": 25
            },
            "will": {
                "rank": 0,
                "saveDetail": "",
                "value": 22
            }
        },
        "schema": {
            "version": {
                "value": ""
            }
        },
        "sidebarText": "",
        "source": {
            "value": ""
        },
        "statusEffects": [],
        "traits": {
            "ci": [],
            "di": {
                "custom": "",
                "selected": {},
                "value": [
                    "critical-hits",
                    "object-immunities",
                    "precision"
                ]
            },
            "dr": [],
            "dv": [
                {
                    "exceptions": "",
                    "label": "Positive",
                    "type": "positive",
                    "value": "15"
                }
            ],
            "rarity": {
                "value": "common"
            },
            "size": {
                "value": "med"
            },
            "traits": {
                "custom": "",
                "value": [
                    "haunt"
                ]
            }
        }
    },
    "effects": [],
    "flags": {},
    "img": "systems/pf2e/icons/default-icons/hazard.svg",
    "items": [
        {
            "_id": "jSBfyDGUXAPbIJTT",
            "data": {
                "actionCategory": {
                    "value": ""
                },
                "actionType": {
                    "value": "reaction"
                },
                "actions": {
                    "value": ""
                },
                "description": {
                    "chat": "",
                    "unidentified": "",
                    "value": "<p><strong>Trigger</strong> Three or more creatures enter the area of the haunt. <br /><strong>Effect</strong> Sharp fragments lift up from the ground and begin to spin in rapid circles taking up one 5-foot square. The haunt rolls initiative.</p>"
                },
                "requirements": {
                    "value": ""
                },
                "rules": [],
                "slug": null,
                "source": {
                    "value": ""
                },
                "traits": {
                    "custom": "",
                    "rarity": {
                        "value": "common"
                    },
                    "value": []
                },
                "trigger": {
                    "value": ""
                },
                "usage": {
                    "value": "held-in-one-hand"
                },
                "weapon": {
                    "value": ""
                }
            },
            "effects": [],
            "flags": {},
            "img": "systems/pf2e/icons/actions/Reaction.webp",
            "name": "Whirling Blades",
            "sort": 100000,
            "type": "action"
        }
    ],
    "name": "Flensing Blades",
    "permission": {
        "default": 0
    },
    "token": {
        "actorId": "g9HovYB4pfHgIML9",
        "actorLink": false,
        "bar1": {
            "attribute": "attributes.hp"
        },
        "bar2": {},
        "brightLight": 0,
        "brightSight": 0,
        "dimLight": 0,
        "dimSight": 0,
        "displayBars": 20,
        "displayName": 20,
        "disposition": 0,
        "flags": {},
        "height": 1,
        "img": "systems/pf2e/icons/default-icons/hazard.svg",
        "lightAlpha": 1,
        "lightAngle": 360,
        "lightAnimation": {
            "intensity": 5,
            "speed": 5
        },
        "lockRotation": false,
        "name": "Flensing Blades",
        "randomImg": false,
        "rotation": 0,
        "scale": 1,
        "sightAngle": 360,
        "tint": null,
        "vision": false,
        "width": 1
    },
    "type": "hazard"
}
