{
    "_id": "uEZ4Jv2wNyukJTRL",
    "data": {
        "attributes": {
            "ac": {
                "value": 24
            },
            "hardness": 0,
            "hasHealth": true,
            "hp": {
                "details": "",
                "max": 1,
                "temp": 0,
                "tempmax": 0,
                "value": 1
            },
            "stealth": {
                "details": "(expert)",
                "value": 14
            }
        },
        "creatureType": "",
        "details": {
            "description": "A tube of hallucinogenic powder armed with a miniature explosive is connected to a doorknob or similar latch.",
            "disable": "Thievery DC 26 (expert) to disable the hammer that strikes the percussion cap",
            "isComplex": false,
            "level": 6,
            "reset": "",
            "routine": ""
        },
        "flavourText": "",
        "recallKnowledgeText": "",
        "saves": {
            "fortitude": {
                "rank": 0,
                "saveDetail": "",
                "value": 0
            },
            "reflex": {
                "rank": 0,
                "saveDetail": "",
                "value": 0
            },
            "will": {
                "rank": 0,
                "saveDetail": "",
                "value": 0
            }
        },
        "schema": {
            "version": {
                "value": ""
            }
        },
        "sidebarText": "",
        "source": {
            "value": ""
        },
        "statusEffects": [],
        "traits": {
            "ci": [],
            "di": {
                "custom": "",
                "selected": {},
                "value": [
                    "critical-hits",
                    "object-immunities",
                    "precision"
                ]
            },
            "dr": [],
            "dv": [],
            "rarity": {
                "value": "common"
            },
            "size": {
                "value": "med"
            },
            "traits": {
                "custom": "",
                "value": [
                    "mechanical"
                ]
            }
        }
    },
    "effects": [],
    "flags": {},
    "img": "systems/pf2e/icons/default-icons/hazard.svg",
    "items": [
        {
            "_id": "NjmHPcx6IEA14Yul",
            "data": {
                "actionCategory": {
                    "value": ""
                },
                "actionType": {
                    "value": "reaction"
                },
                "actions": {
                    "value": ""
                },
                "description": {
                    "chat": "",
                    "unidentified": "",
                    "value": "<p><strong>Trigger</strong> The latch is opened or the tube is broken. <br /><strong>Effect</strong> The tube explodes, spraying hallucinogenic powder in a 30-foot cone. Any creature in the cone must succeed at a <span data-pf2-saving-throw=\"will\" data-pf2-dc=\"24\" data-pf2-traits=\"mental,poison\" data-pf2-label=\"Powder Burst DC\" data-pf2-show-dc=\"gm\">Will</span> save or be confused for 1 round and take a -2 status penalty to Perception checks and saves against mental effects for 1d4 hours. On a critical failure, the penalty is instead -4.</p>"
                },
                "requirements": {
                    "value": ""
                },
                "rules": [],
                "slug": null,
                "source": {
                    "value": ""
                },
                "traits": {
                    "custom": "",
                    "rarity": {
                        "value": "common"
                    },
                    "value": [
                        "mental",
                        "poison"
                    ]
                },
                "trigger": {
                    "value": ""
                },
                "usage": {
                    "value": "held-in-one-hand"
                },
                "weapon": {
                    "value": ""
                }
            },
            "effects": [],
            "flags": {},
            "img": "systems/pf2e/icons/actions/Reaction.webp",
            "name": "Powder Burst",
            "sort": 100000,
            "type": "action"
        }
    ],
    "name": "Hallucination Powder Trap",
    "permission": {
        "default": 0
    },
    "token": {
        "actorId": "uEZ4Jv2wNyukJTRL",
        "actorLink": false,
        "bar1": {
            "attribute": "attributes.hp"
        },
        "bar2": {},
        "brightLight": 0,
        "brightSight": 0,
        "dimLight": 0,
        "dimSight": 0,
        "displayBars": 20,
        "displayName": 20,
        "disposition": 0,
        "flags": {},
        "height": 1,
        "img": "systems/pf2e/icons/default-icons/hazard.svg",
        "lightAlpha": 1,
        "lightAngle": 360,
        "lightAnimation": {
            "intensity": 5,
            "speed": 5
        },
        "lockRotation": false,
        "name": "Hallucination Powder Trap",
        "randomImg": false,
        "rotation": 0,
        "scale": 1,
        "sightAngle": 360,
        "tint": null,
        "vision": false,
        "width": 1
    },
    "type": "hazard"
}
