{
    "_id": "z5yvyY2HfIRgwGnO",
    "content": "<h1>Eldritch Archer</h1>\n<p>While many archers see their craft as an art form as much as a means of battle, a small number of archers seek to perfect their skills through magic, and you are among their number. Bolstering your athletic and martial abilities with mystical talents, you achieve rare heights with the bow or crossbow-transforming arrows or bolts into eldritch ammunition, sending arrows zig-zagging nearly unerringly to their target, and manifesting arrows that can deliver spells or even instant death.</p>\n<p>While having some spellcasting ability increases your potential flexibility and power as an eldritch archer, you might learn the secrets of these arts without being independently skilled in spellcasting, instead learning the magic of the bow for its own sake.</p>\n<p>Additional Feats: 20th @Compendium[pf2e.feats-srd.Impossible Volley]{Impossible Volley}</p>\n<p><strong>ELVEN ARROWS</strong></p>\n<p>The ability to infuse eldritch energy into bow shots is often seen as a kind of elven magic. While it may be true that elves first developed eldritch archery as a martial art, and many eldritch archers are elves and half-elves, other peoples have learned and developed their own forms of eldritch archery.</p>\n<p>Some whisper that remote regions to the south have their own dedications that rely on elemental archery, while the strange and shadowy hunters of the Uskwood use a form that relies on tenebrous shadow magic. Disturbing rumors circulate claiming that devils have developed a diabolical form of magical archery that can trap the soul and bind it to Hell, albeit for a short time. Like any form of magic, the discipline of eldritch archery will continue to develop among its practitioners across the multiverse.</p>\n<h2>@Compendium[pf2e.feats-srd.Eldritch Archer Dedication]{Eldritch Archer Dedication} Feat 2</h2>\n<p><strong>Prerequisites</strong> expert in at least one type of bow</p>\n<hr />\n<p>You blend magic with your archery, leading to powerful results.</p>\n<p>If you don't already cast spells from spell slots, you learn to cast spontaneous spells and gain the Cast a Spell activity. You gain a spell repertoire with one cantrip of your choice, from a spell list of your choice. You choose this cantrip from the common spells on your chosen spell list or from other spells to which you have access on that list. This cantrip must require a spell attack roll. You're trained in spell attack rolls and spell DCs for that tradition. Your key spellcasting ability for these spells is Charisma.</p>\n<p>If you already cast spells from spell slots, you learn one additional cantrip from that tradition. If you're a prepared caster, you can prepare this spell in addition to your usual cantrips per day; if you're a spontaneous caster, you add this cantrip to your spell repertoire. You also gain Eldritch Shot.</p>\n<p><strong>Special</strong> You can't select another dedication feat until you have gained two other feats from the eldritch archer archetype.</p>\n<h2>@Compendium[pf2e.feats-srd.Basic Eldritch Archer Spellcasting]{Basic Eldritch Archer Spellcasting} Feat 8</h2>\n<p><strong>Prerequisites</strong> Eldritch Archer Dedication</p>\n<hr />\n<p>You gain the basic spellcasting benefits. Each time you gain a spell slot of a new level from this archetype, add a spell of the appropriate spell level to your repertoire, either a common spell of your chosen tradition or another spell of that tradition you have learned or discovered.</p>\n<h2>@Compendium[pf2e.feats-srd.Enchanting Arrow]{Enchanting Arrow} Feat 8</h2>\n<p><strong>Prerequisites</strong> Eldritch Archer Dedication</p>\n<hr />\n<p>With a single whisper carried on the wind, you enchant your ammunition to make a foe more vulnerable to your attacks. Make a bow Strike. On a hit, the target takes an additional 2d6 mental damage. On a critical hit, the target also becomes stunned 1. The mental damage increases to 3d6 if your bow has a greater striking rune, or to 4d6 if your bow has a major striking rune.</p>\n<h2>@Compendium[pf2e.feats-srd.Magic Arrow]{Magic Arrow} Feat 8</h2>\n<p><strong>Prerequisites</strong> Eldritch Archer Dedication</p>\n<p><strong>Frequency</strong> once per round</p>\n<hr />\n<p>You imbue your ammunition with eldritch power. When you select this feat, choose three types of common magical ammunition of 4th level or lower. Your GM might allow you to choose from other types of magical ammunition, such as uncommon ammunition, or ammunition from other books.</p>\n<p>When using Magic Arrow, you transform a non-magical arrow or bolt into a piece of ammunition of one type you chose. You must shoot the ammunition before the end of your turn or the magic dissipates. If the ammunition has an Activate entry, you still need to spend the required actions to activate the ammunition before shooting it. When you use Magic Arrow, you can choose a type of magical ammunition that is typically not available to the type of ammunition you're using-for example, you can use climbing bolt on an arrow, even though that magical ammunition is normally only found on bolts.</p>\n<p><strong>Special</strong> You can select this feat multiple times. Each time you do, select three additional types of ammunition as described above.</p>\n<h2>@Compendium[pf2e.feats-srd.Precious Arrow]{Precious Arrow} Feat 8</h2>\n<p><strong>Prerequisites</strong> Eldritch Archer Dedication</p>\n<hr />\n<p>You enchant a piece of ammunition with the magical essence of a precious material, allowing you to leverage certain creatures' weaknesses. Choose cold iron or silver; if you shoot the arrow before the end of your turn, it counts as that material. At 14th level, add adamantine to the list of materials you can choose from.</p>\n<h2>@Compendium[pf2e.feats-srd.Expert Eldritch Archer Spellcasting]{Expert Eldritch Archer Spellcasting} Feat 12</h2>\n<p><strong>Prerequisites</strong> Basic Eldritch Archer Spellcasting</p>\n<hr />\n<p>You gain the expert spellcasting benefits.</p>\n<h2>@Compendium[pf2e.feats-srd.Seeker Arrow]{Seeker Arrow} Feat 14</h2>\n<p><strong>Prerequisites</strong> Eldritch Archer Dedication</p>\n<hr />\n<p>Your shots zip around corners and fly at impossible angles to reach your target. Make a bow Strike against a foe you can see; the ammunition travels to your target, even around corners. You ignore the target's concealed condition and all cover.</p>\n<h2>@Compendium[pf2e.feats-srd.Phase Arrow]{Phase Arrow} Feat 16</h2>\n<p><strong>Prerequisites</strong> Eldritch Archer Dedication</p>\n<p><strong>Frequency</strong> Once per day</p>\n<hr />\n<p>You can concentrate an immense amount of magic to create a piece of ammunition that phases through everything but your target. Make a bow Strike against a foe who is observed or hidden to you (but not undetected). The ammunition travels to your target in a straight line, passing through any non-magical barriers or walls in its way, though magical barriers stop the arrow. The shot ignores all cover, the concealed condition, the hidden condition, and circumstance bonuses to AC from shields. It has a +4 status bonus to hit creatures wearing any type of armor. The Strike's damage can't be reduced with a Shield Block reaction using a non-magical shield.</p>\n<h2>@Compendium[pf2e.feats-srd.Arrow of Death]{Arrow of Death} Feat 18</h2>\n<p><strong>Prerequisites</strong> Eldritch Archer Dedication</p>\n<p><strong>Frequency</strong> Once per day</p>\n<hr />\n<p>You modify an arrow or bolt to bring death to your target in a single potent hit. Make a bow Strike. On a hit, you deal an additional 10d10 precision damage. On a critical hit, the target must also succeed at a Fortitude saving throw against your class DC or spell DC, whichever is higher, or be immediately slain; this save has the death and incapacitation traits.</p>\n<h2>@Compendium[pf2e.feats-srd.Master Eldritch Archer Spellcasting]{Master Eldritch Archer Spellcasting} Feat 18</h2>\n<p><strong>Prerequisites</strong> Expert Eldritch Archer Spellcasting</p>\n<hr />\n<p>You gain the master spellcasting benefits.</p>\n",
    "flags": {},
    "name": "Eldritch Archer",
    "permission": {
        "default": 0
    }
}
