{
    "_id": "mTQYkgy9lfrv2yGG",
    "data": {
        "attributes": {
            "ac": {
                "value": 30
            },
            "hardness": 18,
            "hasHealth": true,
            "hp": {
                "details": "",
                "max": 48,
                "temp": 0,
                "tempmax": 0,
                "value": 48
            },
            "stealth": {
                "details": "(expert)",
                "value": 20
            }
        },
        "creatureType": "",
        "details": {
            "description": "Ten masks adorn twelve stone statues.",
            "disable": "DC 29 Religion (expert) or Occultism or DC 31 Thievery (expert) to dismiss the magic on a single statue. Replacing the two missing masks (a mask made of or incorporating coins on the merchant statue and a mask made of any valuable fabric on the tailor statue) and succeeding at a DC 27 Religion check disarms the trap.",
            "isComplex": true,
            "level": 10,
            "reset": "The trap deactivates and resets 1 minute after it has no target creatures",
            "routine": "[[3-actions]] An unmasked statue casts phantasmal killer(DC 27) against a target in the room for each of the trap's actions, creating an image of the statue lunging forth. It doesn't affect the same creature more than once; if there are fewer targets than it has actions, the trap doesn't use its  remaining  actions. Unmasking an additional statue increases  the hazard's actions by 1, and replacing a mask reduces its actions by 1."
        },
        "flavourText": "",
        "recallKnowledgeText": "",
        "saves": {
            "fortitude": {
                "rank": 0,
                "saveDetail": "",
                "value": 20
            },
            "reflex": {
                "rank": 0,
                "saveDetail": "",
                "value": 16
            },
            "will": {
                "rank": 0,
                "saveDetail": "",
                "value": null
            }
        },
        "schema": {
            "version": {
                "value": ""
            }
        },
        "sidebarText": "",
        "source": {
            "value": ""
        },
        "statusEffects": [],
        "traits": {
            "ci": [],
            "di": {
                "custom": "",
                "selected": {},
                "value": [
                    "critical-hits",
                    "object-immunities",
                    "precision"
                ]
            },
            "dr": [],
            "dv": [],
            "rarity": {
                "value": "rare"
            },
            "size": {
                "value": "med"
            },
            "traits": {
                "custom": "",
                "value": [
                    "magical"
                ]
            }
        }
    },
    "effects": [],
    "flags": {},
    "img": "systems/pf2e/icons/default-icons/hazard.svg",
    "items": [
        {
            "_id": "wcALGN4qxbG1E6A4",
            "data": {
                "actionCategory": {
                    "value": ""
                },
                "actionType": {
                    "value": "reaction"
                },
                "actions": {
                    "value": ""
                },
                "description": {
                    "chat": "",
                    "unidentified": "",
                    "value": "<p><strong>Trigger</strong> A creature removes the mask from a statue;</p>\n<p><strong>Effect</strong> The trap casts @Compendium[pf2e.spells-srd.Phantasmal Killer]{Phantasmal Killer} (DC 27) against the creature, creating an image of the statue lunging forth. The trap then rolls initiative.</p>"
                },
                "requirements": {
                    "value": ""
                },
                "rules": [],
                "slug": null,
                "source": {
                    "value": ""
                },
                "traits": {
                    "custom": "",
                    "rarity": {
                        "value": "common"
                    },
                    "value": [
                        "occult"
                    ]
                },
                "trigger": {
                    "value": ""
                },
                "usage": {
                    "value": "held-in-one-hand"
                },
                "weapon": {
                    "value": ""
                }
            },
            "effects": [],
            "flags": {},
            "img": "systems/pf2e/icons/actions/Reaction.webp",
            "name": "Unmasked Statues",
            "sort": 100000,
            "type": "action"
        }
    ],
    "name": "Mask of Aroden's Guises",
    "permission": {
        "default": 0
    },
    "token": {
        "actorId": "mTQYkgy9lfrv2yGG",
        "actorLink": false,
        "bar1": {
            "attribute": "attributes.hp"
        },
        "bar2": {},
        "brightLight": 0,
        "brightSight": 0,
        "dimLight": 0,
        "dimSight": 0,
        "displayBars": 20,
        "displayName": 20,
        "disposition": 0,
        "flags": {},
        "height": 1,
        "img": "systems/pf2e/icons/default-icons/hazard.svg",
        "lightAlpha": 1,
        "lightAngle": 360,
        "lightAnimation": {
            "intensity": 5,
            "speed": 5
        },
        "lockRotation": false,
        "name": "Mask of Aroden's Guises",
        "randomImg": false,
        "rotation": 0,
        "scale": 1,
        "sightAngle": 360,
        "tint": null,
        "vision": false,
        "width": 1
    },
    "type": "hazard"
}
