{
    "_id": "4fBIXtSVSRYn2ZGi",
    "data": {
        "boosts": {
            "0": {
                "value": [
                    "con",
                    "dex"
                ]
            },
            "1": {
                "value": [
                    "cha",
                    "con",
                    "dex",
                    "int",
                    "str",
                    "wis"
                ]
            }
        },
        "description": {
            "chat": "",
            "unidentified": "",
            "value": "<p><strong>Prerequisite</strong>: Region - Old Cheliax</p>\n<hr />\n<p>Your family, whether goblin, hobgoblin, or human, died in the Goblinblood Wars. Though you were marked by these losses, you managed to survive through your own resilience and resourcefulness.</p>\n<p>Choose two ability boosts. One must be to <strong>Dexterity</strong> or <strong>Constitution</strong>, and one is a free ability boost.</p>\n<p>You're trained in the Survival skill and the Goblin Lore skill. You gain the @Compendium[pf2e.feats-srd.Assurance]{Assurance} skill feat with Survival.</p>"
        },
        "items": {
            "v252w": {
                "id": "W6Gl9ePmItfDHji0",
                "img": "systems/pf2e/icons/features/feats/feats.webp",
                "level": "1",
                "name": "Assurance",
                "pack": "pf2e.feats-srd"
            }
        },
        "rules": [],
        "source": {
            "value": ""
        },
        "trainedLore": "Goblin Lore",
        "trainedSkills": {
            "value": [
                "sur"
            ]
        },
        "traits": {
            "custom": "",
            "rarity": {
                "value": "common"
            },
            "value": []
        }
    },
    "effects": [],
    "flags": {},
    "img": "systems/pf2e/icons/default-icons/mystery-man.svg",
    "name": "Goblinblood Orphan",
    "permission": {
        "default": 0
    },
    "type": "background"
}
