{
    "_id": "ZdhPKEY9FfaOS8Wy",
    "data": {
        "boosts": {
            "0": {
                "value": [
                    "con",
                    "wis"
                ]
            },
            "1": {
                "value": [
                    "cha",
                    "con",
                    "dex",
                    "int",
                    "str",
                    "wis"
                ]
            }
        },
        "description": {
            "chat": "",
            "unidentified": "",
            "value": "<p>As a formally trained apothecary or a rural practitioner of folk medicine, you learned the healing properties of various herbs. You're adept at collecting the right natural cures in all sorts of environments and preparing them properly.</p>\n<p>Choose two ability boosts. One must be to <strong>Constitution</strong> or <strong>Wisdom</strong>, and one is a free ability boost.</p>\n<p>You're trained in the Nature skill and the Herbalism Lore skill. You gain the @Compendium[pf2e.feats-srd.Natural Medicine]{Natural Medicine} skill feat.</p>"
        },
        "items": {
            "i5m1o": {
                "id": "WC4xLBGmBsdOdHWu",
                "img": "systems/pf2e/icons/features/feats/feats.webp",
                "level": "1",
                "name": "Natural Medicine",
                "pack": "pf2e.feats-srd"
            }
        },
        "rules": [],
        "source": {
            "value": ""
        },
        "trainedLore": "Herbalism Lore",
        "trainedSkills": {
            "value": [
                "nat"
            ]
        },
        "traits": {
            "custom": "",
            "rarity": {
                "value": "common"
            },
            "value": []
        },
        "usage": {
            "value": "held-in-one-hand"
        }
    },
    "effects": [],
    "flags": {},
    "img": "systems/pf2e/icons/default-icons/mystery-man.svg",
    "name": "Herbalist",
    "permission": {
        "default": 0
    },
    "type": "background"
}
