{
    "_id": "GNidqGnSABx1rQUQ",
    "data": {
        "boosts": {
            "0": {
                "value": [
                    "con",
                    "wis"
                ]
            },
            "1": {
                "value": [
                    "cha",
                    "con",
                    "dex",
                    "int",
                    "str",
                    "wis"
                ]
            }
        },
        "description": {
            "chat": "",
            "unidentified": "",
            "value": "<p>You received training from clergy in a faraway temple, who sent you out into the world to spread the faith. Although you are relatively new at this, you are always on the lookout for new places in need of your deity's teachings and guidance. When play begins, you are riding along in a caravan making your way through sparsely populated regions of Isger, spreading the news of your faith to those who will listen.</p>\n<p>Choose two ability boosts. One must be to <strong>Constitution</strong> or <strong>Wisdom</strong>, and one is a free ability boost.</p>\n<p>You're trained in the Diplomacy skill and the Scribing Lore skill. You gain the @Compendium[pf2e.feats-srd.Group Impression]{Group Impression} skill feat.</p>"
        },
        "items": {
            "f4hap": {
                "id": "KpFetnUqTiweypZk",
                "img": "systems/pf2e/icons/features/feats/feats.webp",
                "level": "1",
                "name": "Group Impression",
                "pack": "pf2e.feats-srd"
            }
        },
        "rules": [],
        "source": {
            "value": ""
        },
        "trainedLore": "Scribing Lore",
        "trainedSkills": {
            "value": [
                "dip"
            ]
        },
        "traits": {
            "custom": "",
            "rarity": {
                "value": "common"
            },
            "value": []
        }
    },
    "effects": [],
    "flags": {},
    "img": "systems/pf2e/icons/default-icons/mystery-man.svg",
    "name": "Missionary",
    "permission": {
        "default": 0
    },
    "type": "background"
}
