{
    "_id": "AfBCrHsw1xbRFejN",
    "data": {
        "boosts": {
            "0": {
                "value": [
                    "cha",
                    "wis"
                ]
            },
            "1": {
                "value": [
                    "cha",
                    "con",
                    "dex",
                    "int",
                    "str",
                    "wis"
                ]
            }
        },
        "description": {
            "chat": "",
            "unidentified": "",
            "value": "<p>Among your fellow guards who patrol the Foreign Quarter, you're something of a big deal. Your good work and big personality have made a big enough splash that word has gotten out about your status as a rising star among the watchdogs of Absalom. Your popularity has also earned you the trust of many citizens of the Foreign Quarter.</p>\n<p>Your laudable performance has earned you a transfer to the newly formed Edgewatch in the Precipice Quarter, where you'll put your formidable reputation to good use by patrolling the Radiant Festival and ensuring the safety of Absalom's most vulnerable visitors.</p>\n<p>Choose two ability boosts. One must be to <strong>Wisdom</strong> or <strong>Charisma</strong>, and one is a free ability boost.</p>\n<p>You're trained in the Society, plus either Gladiatorial Lore or Genealogy Lore. You gain a +1 circumstance bonus to Deception, Diplomacy, and Intimidation checks to @Compendium[pf2e.actionspf2e.Interact]{Interact} with members of the Sleepless Suns and residents of the Foreign Quarter. You gain the @Compendium[pf2e.feats-srd.Multilingual]{Multilingual} skill feat.</p>"
        },
        "items": {
            "j7rys": {
                "id": "P9HCz0uR6xPHuw72",
                "img": "systems/pf2e/icons/features/feats/feats.webp",
                "level": "1",
                "name": "Multilingual",
                "pack": "pf2e.feats-srd"
            }
        },
        "rules": [],
        "source": {
            "value": ""
        },
        "trainedLore": "Gladatorial Lore or Genealogy Lore",
        "trainedSkills": {
            "value": [
                "soc"
            ]
        },
        "traits": {
            "custom": "",
            "rarity": {
                "value": "common"
            },
            "value": []
        }
    },
    "effects": [],
    "flags": {},
    "img": "systems/pf2e/icons/default-icons/mystery-man.svg",
    "name": "Sleepless Suns Star",
    "permission": {
        "default": 0
    },
    "type": "background"
}
