{
    "_id": "IXxdCzBS0xP20ckw",
    "data": {
        "boosts": {
            "0": {
                "value": [
                    "cha",
                    "con"
                ]
            },
            "1": {
                "value": [
                    "cha",
                    "con",
                    "dex",
                    "int",
                    "str",
                    "wis"
                ]
            }
        },
        "description": {
            "chat": "",
            "unidentified": "",
            "value": "<p>When you were young, you became the ward of another house-boarded, fed, and educated, but never quite a part of the family. Perhaps you had to tend to their needs in return for feeding and raising you, or perhaps you were provided for but disregarded. Now, adventuring is your chance to grow and roam free.</p>\n<p>Choose two ability boosts. One must be to <strong>Constitution</strong> or <strong>Charisma</strong>, and one is a free ability boost.</p>\n<p>You're trained in the Performance skill and the Genealogy Lore skill. You gain the @Compendium[pf2e.feats-srd.Fascinating Performance]{Fascinating Performance} skill feat.</p>"
        },
        "items": {
            "rdv0j": {
                "id": "7LB00jkh6JaJr3vS",
                "img": "systems/pf2e/icons/features/feats/feats.webp",
                "level": "1",
                "name": "Fascinating Performance",
                "pack": "pf2e.feats-srd"
            }
        },
        "rules": [],
        "source": {
            "value": ""
        },
        "trainedLore": "Genealogy Lore",
        "trainedSkills": {
            "value": [
                "prf"
            ]
        },
        "traits": {
            "custom": "",
            "rarity": {
                "value": "common"
            },
            "value": []
        },
        "usage": {
            "value": "held-in-one-hand"
        }
    },
    "effects": [],
    "flags": {},
    "img": "systems/pf2e/icons/default-icons/mystery-man.svg",
    "name": "Ward",
    "permission": {
        "default": 0
    },
    "type": "background"
}
