{
    "_id": "bU731I8njNmSAQhQ",
    "data": {
        "baseItem": null,
        "brokenThreshold": {
            "value": 0
        },
        "bulkCapacity": {
            "value": ""
        },
        "collapsed": {
            "value": false
        },
        "containerId": {
            "value": ""
        },
        "description": {
            "chat": "",
            "unidentified": "",
            "value": "<p>This ornate pendant of brass is adorned with a vibrant blue gemstone. An <em>aluum charm</em> grants control over a particular aluum and lesser influence over other such constructs. As long as you wear an aluum's linked <em>aluum charm</em>, that aluum follows your verbal commands, including somewhat nuanced orders like \"subdue this target\" or \"strike anyone wearing a blue robe.\"</p>\n<hr />\n<p><strong>Activate</strong> <span class=\"pf2-icon\">D</span> command</p>\n<p><strong>Frequency</strong> once per round</p>\n<p><strong>Effect</strong> The charm grants you control over an aluum you can see within 60 feet, with a level equal to or lower than the charm. This has the effect of @Compendium[pf2e.spells-srd.Dominate]{Dominate} and allows a DC 28 Will save. If the aluum is currently under the control of someone wearing its linked charm, it gets a result on its saving throw one degree higher than what it rolled.</p>\n<p>You can control only one aluum at a time using this activation, and controlling a new aluum ends the effect for one you had previously affected.</p>"
        },
        "equipped": {
            "value": false
        },
        "equippedBulk": {
            "value": ""
        },
        "hardness": {
            "value": 0
        },
        "hp": {
            "value": 0
        },
        "identification": {
            "misidentified": {},
            "status": "identified",
            "unidentified": {
                "data": {
                    "description": {
                        "value": ""
                    }
                },
                "img": "",
                "name": ""
            }
        },
        "invested": {
            "value": false
        },
        "level": {
            "value": "10"
        },
        "maxHp": {
            "value": 0
        },
        "negateBulk": {
            "value": ""
        },
        "preciousMaterial": {
            "value": ""
        },
        "preciousMaterialGrade": {
            "value": ""
        },
        "price": {
            "value": ""
        },
        "quantity": {
            "value": "1"
        },
        "rules": [],
        "size": {
            "value": "med"
        },
        "source": {
            "value": ""
        },
        "stackGroup": {
            "value": ""
        },
        "traits": {
            "custom": "",
            "rarity": {
                "value": "uncommon"
            },
            "value": [
                "enchantment",
                "invested",
                "magical"
            ]
        },
        "usage": {
            "value": "worn"
        },
        "weight": {
            "value": "-"
        }
    },
    "effects": [],
    "flags": {},
    "img": "systems/pf2e/icons/equipment/worn-items/other-worn-items/aluum-charm.webp",
    "name": "Aluum Charm",
    "permission": {
        "default": 0
    },
    "type": "equipment"
}
