{
    "_id": "BKdzb8hu3kZtKH3Z",
    "data": {
        "baseItem": null,
        "brokenThreshold": {
            "value": 0
        },
        "bulkCapacity": {
            "value": ""
        },
        "collapsed": {
            "value": false
        },
        "containerId": {
            "value": ""
        },
        "description": {
            "chat": "",
            "unidentified": "",
            "value": "<p>This jangling, silvery bracelet makes you lighter on your feet, giving you a +1 item bonus to Acrobatics checks.</p>\n<p><strong>Activate</strong> <span class=\"pf2-icon\">A</span> command</p>\n<p><strong>Frequency</strong> once per day</p>\n<p><strong>Effect</strong> You gain a +10-foot status bonus to Speed for 1 minute.</p>\n<p>@Compendium[pf2e.equipment-effects.Effect: Bracelet of Dashing]{Effect: Bracelet of Dashing}</p>\n<hr />\n<p>Automatically applied effects:</p>\n<ul>\n<li>+1 item bonus to Acrobatics checks.</li>\n</ul>"
        },
        "equipped": {
            "value": false
        },
        "equippedBulk": {
            "value": ""
        },
        "hardness": {
            "value": 0
        },
        "hp": {
            "value": 0
        },
        "identification": {
            "misidentified": {},
            "status": "identified",
            "unidentified": {
                "data": {
                    "description": {
                        "value": ""
                    }
                },
                "img": "",
                "name": ""
            }
        },
        "invested": {
            "value": false
        },
        "level": {
            "value": "3"
        },
        "maxHp": {
            "value": 0
        },
        "negateBulk": {
            "value": "0"
        },
        "preciousMaterial": {
            "value": ""
        },
        "preciousMaterialGrade": {
            "value": ""
        },
        "price": {
            "value": "58 gp"
        },
        "quantity": {
            "value": "1"
        },
        "rules": [
            {
                "key": "PF2E.RuleElement.FlatModifier",
                "selector": "acrobatics",
                "type": "item",
                "value": 1
            }
        ],
        "size": {
            "value": "med"
        },
        "source": {
            "value": ""
        },
        "stackGroup": {
            "value": ""
        },
        "traits": {
            "custom": "",
            "rarity": {
                "value": "common"
            },
            "value": [
                "invested",
                "magical",
                "transmutation"
            ]
        },
        "usage": {
            "value": "worn"
        },
        "weight": {
            "value": "L"
        }
    },
    "effects": [],
    "flags": {},
    "img": "systems/pf2e/icons/equipment/worn-items/other-worn-items/bracelet-of-dashing.webp",
    "name": "Bracelet of Dashing",
    "permission": {
        "default": 0
    },
    "type": "equipment"
}
