{
    "_id": "XWWosdDg34KZhrEi",
    "data": {
        "baseItem": null,
        "brokenThreshold": {
            "value": 0
        },
        "bulkCapacity": {
            "value": ""
        },
        "collapsed": {
            "value": false
        },
        "containerId": {
            "value": ""
        },
        "description": {
            "chat": "",
            "unidentified": "",
            "value": "<p><span>This black-and-gray thurible is decorated with a skeleton motif; the jaw of one of the decorative skulls unhinges, allowing you to load it with incense as an action. A long, thin chain is connected to the top of the thurible.<br /></span></p>\n<p><span><strong>Activate</strong> <span class=\"pf2-icon\">D</span> Interact; <strong>Cost</strong> incense worth at least 5 gp; <strong>Effect</strong> You swing the thurible around you, spreading inky black smoke in a 20-foot emanation that has the effect of @Compendium[pf2e.spells-srd.Obscuring Mist]{Obscuring Mist}. Undead creatures can see through the smoke as if it didn't exist. Negative energy also disrupts the magic of the smoke; anyone who uses a negative effect, along with creatures affected by a negative effect, can see through the smoke for 1 round.</span></p>"
        },
        "equipped": {
            "value": false
        },
        "equippedBulk": {
            "value": ""
        },
        "hardness": {
            "value": 0
        },
        "hp": {
            "value": 0
        },
        "identification": {
            "misidentified": {},
            "status": "identified",
            "unidentified": {
                "data": {
                    "description": {
                        "value": ""
                    }
                },
                "img": "",
                "name": ""
            }
        },
        "invested": {
            "value": false
        },
        "level": {
            "value": "9"
        },
        "maxHp": {
            "value": 0
        },
        "negateBulk": {
            "value": ""
        },
        "preciousMaterial": {
            "value": ""
        },
        "preciousMaterialGrade": {
            "value": ""
        },
        "price": {
            "value": "600 gp"
        },
        "quantity": {
            "value": "1"
        },
        "rules": [],
        "size": {
            "value": "med"
        },
        "source": {
            "value": ""
        },
        "stackGroup": {
            "value": ""
        },
        "traits": {
            "custom": "",
            "rarity": {
                "value": "uncommon"
            },
            "usage": {
                "value": "held-in-one-hand"
            },
            "value": [
                "magical",
                "necromancy"
            ]
        },
        "usage": {
            "value": "held-in-one-hand"
        },
        "weight": {
            "value": "1"
        }
    },
    "effects": [],
    "flags": {},
    "img": "systems/pf2e/icons/equipment/held-items/dreadsmoke-thurible.webp",
    "name": "Dreadsmoke Thurible",
    "permission": {
        "default": 0
    },
    "type": "equipment"
}
