{
    "_id": "pvxRcuBexbFawjCg",
    "data": {
        "MAP": {
            "value": ""
        },
        "ability": {
            "value": "str"
        },
        "baseItem": "longsword",
        "bonus": {
            "value": 3
        },
        "bonusDamage": {
            "value": 0
        },
        "brokenThreshold": {
            "value": 0
        },
        "bulkCapacity": {
            "value": ""
        },
        "collapsed": {
            "value": false
        },
        "containerId": {
            "value": ""
        },
        "damage": {
            "damageType": "slashing",
            "dice": 1,
            "die": "d8",
            "value": ""
        },
        "description": {
            "chat": "",
            "unidentified": "",
            "value": "<p>This +3 greater striking @Compendium[pf2e.equipment-srd.Flaming]{Flaming} longsword has an ornate brass hilt and a blade shaped like stylized flames. When wielded, the blade projects illumination resembling shimmering firelight, emitting dim light in a 10-foot radius.</p>\n<hr />\n<p><strong>Activate</strong> <span class=\"pf2-icon\">D</span> command, Interact</p>\n<p><strong>Effect</strong> You cast the @Compendium[pf2e.spells-srd.Produce Flame]{Produce Flame} cantrip from the sword as a 9th-level arcane spell, using your melee attack modifier with <em>flametongue</em> as your spell attack modifier.</p>\n<hr />\n<p><strong>Activate</strong> <span class=\"pf2-icon\">A</span> command</p>\n<p><strong>Frequency</strong> once per day</p>\n<p><strong>Effect</strong> A 10-foot emanation of flame radiates from the <em>greater flame tongue</em> for 1 minute. All weapon and unarmed attacks by you and your allies within the area gain the effect of the <em>flaming</em> property rune.</p>"
        },
        "equipped": {
            "value": false
        },
        "equippedBulk": {
            "value": ""
        },
        "group": {
            "value": "sword"
        },
        "hands": {
            "value": ""
        },
        "hardness": {
            "value": 0
        },
        "hp": {
            "value": 0
        },
        "identification": {
            "misidentified": {},
            "status": "identified",
            "unidentified": {
                "data": {
                    "description": {
                        "value": ""
                    }
                },
                "img": "",
                "name": ""
            }
        },
        "invested": {
            "value": false
        },
        "level": {
            "value": 17
        },
        "maxHp": {
            "value": 0
        },
        "negateBulk": {
            "value": "0"
        },
        "potencyRune": {
            "value": 3
        },
        "preciousMaterial": {
            "value": ""
        },
        "preciousMaterialGrade": {
            "value": ""
        },
        "price": {
            "value": "13,800 gp"
        },
        "property1": {
            "critDamage": "",
            "critDamageType": "",
            "critDice": null,
            "critDie": "",
            "criticalConditionType": "",
            "criticalConditionValue": null,
            "damageType": "",
            "dice": null,
            "die": "",
            "strikeConditionType": "",
            "strikeConditionValue": null,
            "value": ""
        },
        "propertyRune1": {
            "value": "flaming"
        },
        "propertyRune2": {
            "value": ""
        },
        "propertyRune3": {
            "value": ""
        },
        "propertyRune4": {
            "value": ""
        },
        "quantity": {
            "value": 1
        },
        "range": {
            "value": "melee"
        },
        "reload": {
            "value": ""
        },
        "rules": [],
        "size": {
            "value": "med"
        },
        "source": {
            "value": ""
        },
        "splashDamage": {
            "value": 0
        },
        "stackGroup": {
            "value": ""
        },
        "strikingRune": {
            "value": "greaterStriking"
        },
        "traits": {
            "custom": "",
            "rarity": {
                "value": "common"
            },
            "value": [
                "evocation",
                "fire",
                "magical",
                "versatile-p"
            ]
        },
        "usage": {
            "value": "held-in-one-hand"
        },
        "weaponType": {
            "value": "martial"
        },
        "weight": {
            "value": "1"
        }
    },
    "effects": [],
    "flags": {},
    "img": "systems/pf2e/icons/equipment/weapons/specific-magic-weapons/flame-tongue.webp",
    "name": "Flame Tongue (Greater)",
    "permission": {
        "default": 0
    },
    "type": "weapon"
}
