{
    "_id": "V9iVPhIk980GT6A2",
    "data": {
        "baseItem": null,
        "brokenThreshold": {
            "value": 0
        },
        "bulkCapacity": {
            "value": ""
        },
        "collapsed": {
            "value": false
        },
        "containerId": {
            "value": ""
        },
        "description": {
            "chat": "",
            "unidentified": "",
            "value": "<p>This strange and intricate harness fits snugly to the torso. Once you invest the apparatus, numerous artificial limbs with various tools, clamps, and lenses whirl into action, following your mental commands effortlessly.</p>\n<p>When using this apparatus, you gain a +3 item bonus to Crafting checks to Craft, Earn Income, and Repair, and you reduce the minimum time required to Craft an item to 1 day.</p>\n<p>If you succeed at your Crafting check and spend more downtime to continue work on the item after the minimum number of days, each day you spend reduces the remaining raw material cost by an amount based on your level + 1 and your proficiency rank in Crafting; on a critical success, each day reduces the remaining raw material cost by an amount based on your level + 2 and your proficiency rank. If you are 20th level, on a critical success your progress is 50 gp, 100 gp, 200 gp, or 350 gp for trained, expert, master, or legendary proficiency, respectively.</p>\n<hr />\n<p><strong>Activate</strong> <span class=\"pf2-icon\">D</span> command, Interact</p>\n<p><strong>Frequency</strong> once per day</p>\n<p><strong>Effect</strong> You command the apparatus to magically jury-rig an item you hold or that's within 5 feet of you. The item is repaired, as a 3rd-level @Compendium[pf2e.spells-srd.Mending]{Mending} spell. This lasts for 10 minutes, after which the item returns to its previous state of disrepair unless you've Repaired it before then.</p>\n<hr />\n<p>Automatically applied effects:</p>\n<ul>\n<li>+3 item bonus to Crafting checks to Craft, Earn Income, and Repair</li>\n</ul>"
        },
        "equipped": {
            "value": false
        },
        "equippedBulk": {
            "value": ""
        },
        "hardness": {
            "value": 0
        },
        "hp": {
            "value": 0
        },
        "identification": {
            "misidentified": {},
            "status": "identified",
            "unidentified": {
                "data": {
                    "description": {
                        "value": ""
                    }
                },
                "img": "",
                "name": ""
            }
        },
        "invested": {
            "value": false
        },
        "level": {
            "value": "18"
        },
        "maxHp": {
            "value": 0
        },
        "negateBulk": {
            "value": "0"
        },
        "preciousMaterial": {
            "value": ""
        },
        "preciousMaterialGrade": {
            "value": ""
        },
        "price": {
            "value": "19,000 gp"
        },
        "quantity": {
            "value": "1"
        },
        "rules": [
            {
                "key": "PF2E.RuleElement.FlatModifier",
                "label": "Inexplicable Apparatus (craft, earn income, repair",
                "predicate": {
                    "any": [
                        "action:craft",
                        "action:earn-income",
                        "action:repair"
                    ]
                },
                "selector": "crafting",
                "type": "item",
                "value": 3
            }
        ],
        "size": {
            "value": "med"
        },
        "source": {
            "value": ""
        },
        "stackGroup": {
            "value": ""
        },
        "traits": {
            "custom": "",
            "rarity": {
                "value": "common"
            },
            "value": [
                "invested",
                "magical",
                "transmutation"
            ]
        },
        "usage": {
            "value": "worngarment"
        },
        "weight": {
            "value": "2"
        }
    },
    "effects": [],
    "flags": {},
    "img": "systems/pf2e/icons/equipment/worn-items/other-worn-items/inexplicable-apparatus.webp",
    "name": "Inexplicable Apparatus",
    "permission": {
        "default": 0
    },
    "type": "equipment"
}
