{
    "_id": "lL50lfx5tBosb1s3",
    "data": {
        "baseItem": "staff",
        "brokenThreshold": {
            "value": 0
        },
        "bulkCapacity": {
            "value": ""
        },
        "collapsed": {
            "value": false
        },
        "containerId": {
            "value": ""
        },
        "description": {
            "chat": "",
            "unidentified": "",
            "value": "<p>This gnarled staff is covered with thorns and coated with a glistening lacquer that acts as a minor irritant. While holding the staff, you aren't affected by its coating or thorns, and you reduce the DC of your flat checks to overcome persistent poison damage from 15 to 5.</p>\n<hr />\n<p><strong>Activate</strong> @Compendium[pf2e.actionspf2e.Cast a Spell]{Cast a Spell};</p>\n<p><strong>Effect</strong> You expend a number of charges from the staff to cast a spell from its list.</p>\n<p><strong>Craft Requirements</strong> Supply one casting of all listed levels of all listed spells.</p>\n<hr />\n<ul>\n<li><strong>4th</strong> @Compendium[pf2e.spells-srd.Swarming Wasp Stings]{Swarming Wasp Stings}</li>\n<li><strong>5th</strong> @Compendium[pf2e.spells-srd.Cloudkill]{Cloudkill}</li>\n<li><strong>6th</strong> @Compendium[pf2e.spells-srd.Purple Worm Sting]{Purple Worm Sting}</li>\n</ul>"
        },
        "equipped": {
            "value": false
        },
        "equippedBulk": {
            "value": ""
        },
        "hardness": {
            "value": 0
        },
        "hp": {
            "value": 0
        },
        "identification": {
            "misidentified": {},
            "status": "identified",
            "unidentified": {
                "data": {
                    "description": {
                        "value": ""
                    }
                },
                "img": "",
                "name": ""
            }
        },
        "invested": {
            "value": false
        },
        "level": {
            "value": "8"
        },
        "maxHp": {
            "value": 0
        },
        "negateBulk": {
            "value": "0"
        },
        "preciousMaterial": {
            "value": ""
        },
        "preciousMaterialGrade": {
            "value": ""
        },
        "price": {
            "value": "4,000 gp"
        },
        "quantity": {
            "value": "1"
        },
        "rules": [],
        "size": {
            "value": "med"
        },
        "source": {
            "value": ""
        },
        "stackGroup": {
            "value": ""
        },
        "traits": {
            "custom": "",
            "rarity": {
                "value": "uncommon"
            },
            "usage": {
                "value": "held-in-one-hand"
            },
            "value": [
                "conjuration",
                "magical",
                "necromancy",
                "staff"
            ]
        },
        "usage": {
            "value": "held-in-one-hand"
        },
        "weight": {
            "value": "1"
        }
    },
    "effects": [],
    "flags": {},
    "img": "systems/pf2e/icons/equipment/staves/poisoners-staff.webp",
    "name": "Poisoner's Staff (Major)",
    "permission": {
        "default": 0
    },
    "type": "equipment"
}
