{
    "_id": "6HOQwVUQNplJsrhq",
    "data": {
        "MAP": {
            "value": ""
        },
        "ability": {
            "value": "str"
        },
        "baseItem": "sword-cane",
        "bonus": {
            "value": 0
        },
        "bonusDamage": {
            "value": 0
        },
        "brokenThreshold": {
            "value": 0
        },
        "bulkCapacity": {
            "value": ""
        },
        "collapsed": {
            "value": false
        },
        "containerId": {
            "value": ""
        },
        "damage": {
            "damageType": "piercing",
            "dice": 1,
            "die": "d6",
            "value": ""
        },
        "description": {
            "chat": "",
            "unidentified": "",
            "value": "<p>Hendrid Pratchett himself designed this custom skull-topped +1 striking exquisite sword cane and had it gilded in high-quality gold. Its first victim was the very smith whom Pratchett commissioned to craft the weapon, so the means of its construction are a secret known only to Pratchett. The magic of the <em>Reaper's Lancet</em> applies to both the blade and the sheath, making them each effectively a +1 striking weapon, but only if both are wielded by the same creature-if the two components are shared between creatures, only the blade retains the rune's magic.</p>\n<p><em>Reaper's Lancet </em>has a hidden reservoir inside the skull that automatically applies a new dose of poison to the blade after the previous dose was expended with a successful Strike. The reservoir must be filled manually (a process requiring 1 minute) and is large enough to hold only 3 doses at a time. Any sort of injury-delivered poison can be placed in it, though all doses must be of the same poison. The Price of the poison is not reflected in this weapon's listed Price.</p>\n<p><strong>Activate</strong> <span class=\"pf2-icon\">R</span> Interact;</p>\n<p><strong>Trigger</strong> You damage a creature with Reaper's Lancet;</p>\n<p><strong>Effect</strong> You poison the creature you hit with the poison currently in the reservoir.</p>"
        },
        "equipped": {
            "value": false
        },
        "equippedBulk": {
            "value": ""
        },
        "group": {
            "value": "sword"
        },
        "hands": {
            "value": ""
        },
        "hardness": {
            "value": 0
        },
        "hp": {
            "value": 0
        },
        "identification": {
            "misidentified": {},
            "status": "identified",
            "unidentified": {
                "data": {
                    "description": {
                        "value": ""
                    }
                },
                "img": "",
                "name": ""
            }
        },
        "invested": {
            "value": false
        },
        "level": {
            "value": "5"
        },
        "maxHp": {
            "value": 0
        },
        "negateBulk": {
            "value": "0"
        },
        "potencyRune": {
            "value": 1
        },
        "preciousMaterial": {
            "value": ""
        },
        "preciousMaterialGrade": {
            "value": ""
        },
        "price": {
            "value": "200 gp"
        },
        "property1": {
            "critDamage": "",
            "critDamageType": "",
            "critDice": 0,
            "critDie": "",
            "criticalConditionType": "",
            "criticalConditionValue": null,
            "damageType": "",
            "dice": 0,
            "die": "",
            "strikeConditionType": "",
            "strikeConditionValue": null,
            "value": ""
        },
        "propertyRune1": {
            "value": ""
        },
        "propertyRune2": {
            "value": ""
        },
        "propertyRune3": {
            "value": ""
        },
        "propertyRune4": {
            "value": ""
        },
        "quantity": {
            "value": "1"
        },
        "range": {
            "value": ""
        },
        "reload": {
            "value": ""
        },
        "rules": [],
        "size": {
            "value": "med"
        },
        "source": {
            "value": ""
        },
        "splashDamage": {
            "value": 0
        },
        "stackGroup": {
            "value": ""
        },
        "strikingRune": {
            "value": "striking"
        },
        "traits": {
            "custom": "",
            "rarity": {
                "value": "unique"
            },
            "value": [
                "agile",
                "concealable",
                "finesse",
                "magical",
                "necromancy",
                "parry",
                "poison",
                "twin"
            ]
        },
        "usage": {
            "value": "held-in-one-hand"
        },
        "weaponType": {
            "value": "martial"
        },
        "weight": {
            "value": "1"
        }
    },
    "effects": [],
    "flags": {},
    "img": "systems/pf2e/icons/equipment/weapons/specific-magic-weapons/reapers-lancet.webp",
    "name": "Reaper's Lancet",
    "permission": {
        "default": 0
    },
    "type": "weapon"
}
