{
    "_id": "C4XKMcHZoGzrAZBl",
    "data": {
        "armor": {
            "value": 3
        },
        "armorType": {
            "value": "medium"
        },
        "baseItem": "hide-armor",
        "brokenThreshold": {
            "value": null
        },
        "bulkCapacity": {
            "value": ""
        },
        "check": {
            "value": -1
        },
        "collapsed": {
            "value": false
        },
        "containerId": {
            "value": ""
        },
        "description": {
            "chat": "",
            "unidentified": "",
            "value": "<p>This <em>+1 resilient </em>hide armor is made from rhinoceros hide. It has an armor check penalty of -1 instead of -3.</p>\n<p>When you use the Sudden Charge class feat while wearing this armor, your Strike deals an additional 1d8 damage. <br /><br /><strong>Craft Requirements</strong> The initial raw materials must include 320 gp of rhinoceros hide (a common material).</p>\n<hr />\n<p>Automaticlly applied effects:</p>\n<ul>\n<li>+1d8 damage to your Strike when using Sudden Charge</li>\n</ul>"
        },
        "dex": {
            "value": 2
        },
        "equipped": {
            "value": false
        },
        "equippedBulk": {
            "value": "2"
        },
        "group": {
            "value": "leather"
        },
        "hardness": {
            "value": null
        },
        "hp": {
            "value": null
        },
        "identification": {
            "misidentified": {},
            "status": "identified",
            "unidentified": {
                "data": {
                    "description": {
                        "value": ""
                    }
                },
                "img": "",
                "name": ""
            }
        },
        "invested": {
            "value": false
        },
        "level": {
            "value": 9
        },
        "maxHp": {
            "value": null
        },
        "negateBulk": {
            "value": "0"
        },
        "potency": {},
        "potencyRune": {
            "value": 1
        },
        "preciousMaterial": {
            "value": ""
        },
        "preciousMaterialGrade": {
            "value": ""
        },
        "price": {
            "value": "700 gp"
        },
        "propertyRune1": {
            "value": ""
        },
        "propertyRune2": {
            "value": ""
        },
        "propertyRune3": {
            "value": ""
        },
        "propertyRune4": {
            "value": ""
        },
        "quantity": {
            "value": 1
        },
        "resiliencyRune": {
            "value": "resilient"
        },
        "resilient": {},
        "rules": [
            {
                "key": "PF2E.RuleElement.ToggleProperty",
                "label": "Sudden Charge",
                "predicate": {
                    "all": [
                        "sudden-charge"
                    ]
                },
                "property": "flags.pf2e.rollOptions.damage-roll.action:sudden-charge"
            },
            {
                "diceNumber": 1,
                "dieSize": "d8",
                "key": "PF2E.RuleElement.DamageDice",
                "label": "Rhino Hide",
                "predicate": {
                    "all": [
                        "action:sudden-charge"
                    ]
                },
                "selector": "damage"
            }
        ],
        "size": {
            "value": "med"
        },
        "source": {
            "value": ""
        },
        "speed": {
            "value": ""
        },
        "stackGroup": {
            "value": ""
        },
        "strength": {
            "value": 14
        },
        "traits": {
            "custom": "",
            "rarity": {
                "value": "common"
            },
            "value": [
                "invested",
                "magical",
                "transmutation"
            ]
        },
        "usage": {
            "value": "wornarmor"
        },
        "weight": {
            "value": "3"
        }
    },
    "effects": [],
    "flags": {},
    "img": "systems/pf2e/icons/equipment/armor/specific-magic-armor/rhino-hide.webp",
    "name": "Rhino Hide",
    "permission": {
        "default": 0
    },
    "type": "armor"
}
