{
    "_id": "ewQZ0VeL38v3qFnN",
    "data": {
        "armor": {
            "value": 2
        },
        "armorType": {
            "value": "light"
        },
        "baseItem": "studded-leather-armor",
        "brokenThreshold": {
            "value": null
        },
        "bulkCapacity": {
            "value": ""
        },
        "check": {
            "value": "-1"
        },
        "collapsed": {
            "value": false
        },
        "containerId": {
            "value": ""
        },
        "description": {
            "chat": "",
            "unidentified": "",
            "value": "<p>This leather armor is reinforced with metal studs and sometimes small metal plates, providing most of the flexibility of leather armor with more robust protection.</p>"
        },
        "dex": {
            "value": "3"
        },
        "equipped": {
            "value": false
        },
        "equippedBulk": {
            "value": "1"
        },
        "group": {
            "value": "leather"
        },
        "hardness": {
            "value": null
        },
        "hp": {
            "value": null
        },
        "identification": {
            "misidentified": {},
            "status": "identified",
            "unidentified": {
                "data": {
                    "description": {
                        "value": ""
                    }
                },
                "img": "",
                "name": ""
            }
        },
        "invested": {
            "value": false
        },
        "level": {
            "value": 0
        },
        "maxHp": {
            "value": null
        },
        "negateBulk": {
            "value": "0"
        },
        "potency": {},
        "potencyRune": {
            "value": 0
        },
        "preciousMaterial": {
            "value": ""
        },
        "preciousMaterialGrade": {
            "value": ""
        },
        "price": {
            "value": "3 gp"
        },
        "propertyRune1": {
            "value": ""
        },
        "propertyRune2": {
            "value": ""
        },
        "propertyRune3": {
            "value": ""
        },
        "propertyRune4": {
            "value": ""
        },
        "quantity": {
            "value": 1
        },
        "resiliencyRune": {
            "value": ""
        },
        "resilient": {},
        "rules": [],
        "size": {
            "value": "med"
        },
        "source": {
            "value": ""
        },
        "speed": {
            "value": ""
        },
        "stackGroup": {
            "value": ""
        },
        "strength": {
            "value": "12"
        },
        "traits": {
            "custom": "",
            "rarity": {
                "value": "common"
            },
            "value": []
        },
        "usage": {
            "value": "wornarmor"
        },
        "weight": {
            "value": "2"
        }
    },
    "effects": [],
    "flags": {},
    "img": "systems/pf2e/icons/equipment/armor/studded-leather-armor.webp",
    "name": "Studded Leather Armor",
    "permission": {
        "default": 0
    },
    "type": "armor"
}
