{
    "_id": "QT1jTPlf3ATYUh4I",
    "data": {
        "baseItem": null,
        "brokenThreshold": {
            "value": 0
        },
        "bulkCapacity": {
            "value": ""
        },
        "collapsed": {
            "value": false
        },
        "containerId": {
            "value": ""
        },
        "description": {
            "chat": "",
            "unidentified": "",
            "value": "<p>This hefty tome was compiled centuries ago by an anonymous author who sought to collect all parables, myths, stories, and encounters with the Outer Goddess Nhimbaloth. According to the introduction, the author’s original intent was to create a work that foes of the Empty Death could use to fight against her influence, but as one reads through the book, it becomes apparent that the opposite effect has been achieved—by compiling these stories, the author inadvertently generated a work that made it easier for Nhimbaloth to influence the world. Those who venerate the Empty Death seek copies of this book to use as a guide and religious text, while those who don’t know better and peruse the book as though it were merely an anthology of stories find themselves unwittingly falling prey to Nhimbaloth’s cult or agents of the entity herself. Those who study from The Whispering Reeds for too long are often cursed to rise as ghosts after death— though their existence never lasts for long, as they are inevitably consumed by Nhimbaloth.</p>\n<p>If a character understands the dangers of this book, however, moderated use can stall or even prevent such a fate from befalling them. If a character takes special care, they can even potentially use The Whispering Reeds for its original purpose—as a weapon against the cult of Nhimbaloth. Using the text too often or leveraging some of its more powerful effects, however, causes the user to feel an ominous chill. In these cases, the user is exposed to the tome’s curse, Empty Death.</p>\n<p>The anonymous compiler wanted to produce an enormous print run of The Whispering Reeds, but after the initial run they realized the danger and scuttled those plans, instead attempting to destroy those copies already created. This crusade caught the attention of Nhimbaloth’s cult, who swiftly assassinated the compiler. Fewer than two dozen copies of this rare tome are believed to still exist. The book’s sinister nature causes all attempts to transcribe it to fail, resulting in bodies of gibberish, nonsense text.</p>\n<p>The Whispering Reeds provides several abilities, but you can’t activate any of them while you are @Compendium[pf2e.conditionitems.Stupefied]{Stupefied} unless you are a follower of Nhimbaloth.</p>\n<hr />\n<p><strong>Activate</strong> 10 minutes (Investigate);</p>\n<p><strong>Effect</strong> You gain a +2 item bonus to skill checks to Recall Knowledge about Nhimbaloth, her faith, or creatures associated with her (such as incorporeal undead, vampiric mists, wisps, and other incorporeal creatures associated with death). Each time you use this ability after the first in a 24-hour period, you are exposed to the Empty Death.</p>\n<hr />\n<p><strong>Activate</strong> <span class=\"pf2-icon\">2</span> command, Interact;</p>\n<p><strong>Frequency</strong> once per hour;</p>\n<p><strong>Effect</strong> You read aloud a phrase from the book and target a single incorporeal undead creature within 30 feet. That undead creature takes 5d6 positive damage (DC 27 basic Will save) as portions of their incorporeal being are consumed in patches of seven equally spaced holes. Each time you use this ability after the first in a 24-hour period, you are exposed to the Empty Death.</p>\n<hr />\n<p><strong>Activate</strong> <span class=\"pf2-icon\">1</span> command,</p>\n<p><strong>Interact</strong>; Frequency once per day;</p>\n<p><strong>Effect</strong> You invoke a tale from The Whispering Reeds that parallels the situation, environment, or creatures nearby. Eerie mists and indistinct whispers rise in a 20-foot emanation around you, and clusters of seven perfectly spaced divots manifest in the ground, vegetation, and flesh of creatures in the emanation other than yourself and up to three creatures you designate at the time of activation. Creatures afflicted with these divots suffer from agonizing mental anguish in the form of crippling despair and take 4d6 mental damage (DC 27 basic Will save). The mists, whispers, and strange divots fade away at the end of the round, but any creature that takes mental damage from the effect also takes a –1 penalty to saving throws against effects with the emotion trait for 1 minute. You are exposed to the Empty Death each time you use this ability.</p>\n<hr />\n<p><strong>Activate</strong> Cast a Spell;</p>\n<p><strong>Frequency</strong> three times per day;</p>\n<p><strong>Effect</strong> You cast one of the following spells at the lowest level possible (unless otherwise specified): @Compendium[pf2e.spells-srd.Crushing Despair]{Crushing Despair} (one target within 30 feet only), @Compendium[pf2e.spells-srd.Fear]{Fear} (3rd), @Compendium[pf2e.spells-srd.Paranoia]{Paranoia}, or @Compendium[pf2e.spells-srd.Phantasmal Killer]{Phantasmal Killer}. You are exposed to the Empty Death each time you use this ability.</p>\n<hr />\n<p><strong>Empty Death (curse, necromancy, occult)</strong></p>\n<p><strong>Saving Throw</strong> DC 27 Will;</p>\n<p><strong>Effect</strong> If you activate The Whispering Reeds and are not a worshipper of Nhimbaloth, you become stupefied 2 for 24 hours as your thoughts fill with paranoia that something is watching you from the other side of death. If you die while affected by the Empty Death, you immediately become a chaotic evil ghost. Every 7 days that pass after you become a ghost, you must succeed at a DC 2 flat check— failure indicates that you are consumed by Nhimbaloth. A creature whose ghost is consumed in this way does not travel to the River of Souls and is utterly annihilated; this creature can only be restored to life via a 10th-level spell effect or ritual like @Compendium[pf2e.spells-srd.Wish]{Wish}.</p>\n<hr />\n<p><strong>Destruction</strong> Copies of The Whispering Reeds have no special protections and can be destroyed like any regular book, but doing so exposes the one who destroyed the book to the Empty Death.</p>"
        },
        "equipped": {
            "value": false
        },
        "equippedBulk": {
            "value": ""
        },
        "hardness": {
            "value": 0
        },
        "hp": {
            "value": 0
        },
        "identification": {
            "misidentified": {},
            "status": "identified",
            "unidentified": {
                "data": {
                    "description": {
                        "value": ""
                    }
                },
                "img": "",
                "name": ""
            }
        },
        "invested": {
            "value": false
        },
        "level": {
            "value": "10"
        },
        "maxHp": {
            "value": 0
        },
        "negateBulk": {
            "value": "0"
        },
        "preciousMaterial": {
            "value": ""
        },
        "preciousMaterialGrade": {
            "value": ""
        },
        "price": {
            "value": "0"
        },
        "quantity": {
            "value": "1"
        },
        "rules": [],
        "size": {
            "value": "med"
        },
        "source": {
            "value": ""
        },
        "stackGroup": {
            "value": ""
        },
        "traits": {
            "custom": "",
            "rarity": {
                "value": "rare"
            },
            "usage": {
                "value": "held-in-two-hands"
            },
            "value": [
                "artifact",
                "divination",
                "occult"
            ]
        },
        "usage": {
            "value": ""
        },
        "weight": {
            "value": "2"
        }
    },
    "effects": [],
    "flags": {},
    "img": "systems/pf2e/icons/equipment/artifacts/the-whispering-reeds.webp",
    "name": "The Whispering Reeds",
    "permission": {
        "default": 0
    },
    "type": "equipment"
}
