{
    "_id": "knoWZfTiLY7xGwhB",
    "data": {
        "attributes": {
            "ac": {
                "value": 0
            },
            "hardness": 0,
            "hasHealth": true,
            "hp": {
                "details": "",
                "max": 0,
                "temp": 0,
                "tempmax": 0,
                "value": 0
            },
            "stealth": {
                "details": "<p>(expert)</p>",
                "value": 26
            }
        },
        "creatureType": "",
        "details": {
            "description": "<p>A hidden rune on the floor under the filth, just past the threshold, triggers an ersatz ghost.</p>",
            "disable": "<p>DC 28 Thievery (expert) to remove the rune without triggering it, or dispel magic (4th level; counteract DC 26) to dispel the rune</p>",
            "isComplex": false,
            "level": 8,
            "reset": "<p>The trap automatically resets after 1 hour.</p>",
            "routine": ""
        },
        "flavourText": "",
        "recallKnowledgeText": "",
        "saves": {
            "fortitude": {
                "rank": 0,
                "saveDetail": "",
                "value": null
            },
            "reflex": {
                "rank": 0,
                "saveDetail": "",
                "value": null
            },
            "will": {
                "rank": 0,
                "saveDetail": "",
                "value": null
            }
        },
        "schema": {
            "version": {
                "value": ""
            }
        },
        "sidebarText": "",
        "source": {
            "value": ""
        },
        "statusEffects": [],
        "traits": {
            "ci": [],
            "di": {
                "custom": "",
                "selected": {},
                "value": []
            },
            "dr": [],
            "dv": [],
            "rarity": {
                "value": "common"
            },
            "size": {
                "value": "med"
            },
            "traits": {
                "custom": "",
                "value": [
                    "magical"
                ]
            }
        }
    },
    "effects": [],
    "flags": {},
    "img": "systems/pf2e/icons/default-icons/hazard.svg",
    "items": [
        {
            "_id": "x2mDaJtGWiO1eS56",
            "data": {
                "actionCategory": {
                    "value": ""
                },
                "actionType": {
                    "value": "reaction"
                },
                "actions": {
                    "value": ""
                },
                "description": {
                    "value": "<p><strong>Trigger</strong> A living creature moves over the rune; <strong>Effect</strong> A frightful moan echoes through the room, and a hoarse telepathic voice shouts, “Get out!” This shout deals [[/roll 6d12 # mental]] mental damage to creatures in the room (<span data-pf2-saving-throw=\"will\" data-pf2-dc=\"26\" data-pf2-traits=\"auditory,enchantment,incapacitation,linguistic,mental,damaging-effect\" data-pf2-label=\"Counterfeit Haunting DC\" data-pf2-show-dc=\"gm\">basic Will</span> save). Creatures who fail this saving throw must immediately leave the room and can't willingly reenter it for 1 minute (1 hour on a critical failure).</p>"
                },
                "requirements": {
                    "value": ""
                },
                "rules": [],
                "slug": null,
                "source": {
                    "value": ""
                },
                "traits": {
                    "custom": "",
                    "rarity": {
                        "value": "common"
                    },
                    "value": [
                        "auditory",
                        "enchantment",
                        "incapacitation",
                        "linguistic",
                        "mental"
                    ]
                },
                "trigger": {
                    "value": ""
                },
                "weapon": {
                    "value": ""
                }
            },
            "effects": [],
            "flags": {},
            "img": "systems/pf2e/icons/actions/Reaction.webp",
            "name": "Counterfeit Haunting",
            "sort": 100000,
            "type": "action"
        }
    ],
    "name": "Painful Suggestion Trap",
    "permission": {
        "default": 0
    },
    "token": {
        "actorId": "knoWZfTiLY7xGwhB",
        "actorLink": false,
        "bar1": {
            "attribute": "attributes.hp"
        },
        "bar2": {},
        "brightLight": 0,
        "brightSight": 0,
        "dimLight": 0,
        "dimSight": 0,
        "displayBars": 20,
        "displayName": 20,
        "disposition": 0,
        "flags": {},
        "height": 1,
        "img": "systems/pf2e/icons/default-icons/hazard.svg",
        "lightAlpha": 1,
        "lightAngle": 360,
        "lightAnimation": {
            "intensity": 5,
            "speed": 5
        },
        "lockRotation": false,
        "name": "Painful Suggestion Trap",
        "randomImg": false,
        "rotation": 0,
        "scale": 1,
        "sightAngle": 360,
        "tint": null,
        "vision": false,
        "width": 1
    },
    "type": "hazard"
}
