{
    "_id": "E0FMRiGNCv5n7AVH",
    "data": {
        "attributes": {
            "ac": {
                "value": 0
            },
            "hardness": 0,
            "hasHealth": true,
            "hp": {
                "details": "",
                "max": 0,
                "temp": 0,
                "tempmax": 0,
                "value": 0
            },
            "stealth": {
                "details": "<p>&nbsp;(expert)</p>",
                "value": 18
            }
        },
        "creatureType": "",
        "details": {
            "description": "<p>When any creature other than a devil enters the light, the magic interwoven in the light holds the creature in place and rings an alarm.</p>",
            "disable": "<p>DC 26 Thievery (master) to distort or diffuse the light, keeping the light cone intact but preventing the trap from triggering, or dispel magic (4th level; counteract DC 26) to dispel the light, leaving the room in darkness</p>",
            "isComplex": true,
            "level": 8,
            "reset": "<p>The stasis magic in the light builds up over the course of an hour, after which the trap can trigger again.</p>",
            "routine": "<p>(1 action) All stunned and paralyzed creatures in the room take [[/roll 1d10]] mental damage (DC 26 basic Will save). Creatures who fail also become paralyzed for 1 round but can use a reaction to mentally fight off this stasis; creatures who do so take [[/roll 5d10]] mental damage but are no longer paralyzed.</p>"
        },
        "flavourText": "",
        "recallKnowledgeText": "",
        "saves": {
            "fortitude": {
                "rank": 0,
                "saveDetail": "",
                "value": null
            },
            "reflex": {
                "rank": 0,
                "saveDetail": "",
                "value": null
            },
            "will": {
                "rank": 0,
                "saveDetail": "",
                "value": null
            }
        },
        "schema": {
            "version": {
                "value": ""
            }
        },
        "sidebarText": "",
        "source": {
            "value": ""
        },
        "statusEffects": [],
        "traits": {
            "ci": [],
            "di": {
                "custom": "",
                "selected": {},
                "value": []
            },
            "dr": [],
            "dv": [],
            "rarity": {
                "value": "common"
            },
            "size": {
                "value": "med"
            },
            "traits": {
                "custom": "",
                "value": [
                    "magical"
                ]
            }
        }
    },
    "effects": [],
    "flags": {},
    "img": "systems/pf2e/icons/default-icons/hazard.svg",
    "items": [
        {
            "_id": "wyQSk60Np0UavJiY",
            "data": {
                "actionCategory": {
                    "value": ""
                },
                "actionType": {
                    "value": "reaction"
                },
                "actions": {
                    "value": ""
                },
                "description": {
                    "value": "<p><strong>Trigger</strong> A non-devil creature moves into the light; <strong>Effect</strong> The light expands to fill the room, and each nondevil creature within the room must attempt a <span data-pf2-saving-throw=\"will\" data-pf2-dc=\"26\" data-pf2-traits=\"enchantment,incapacitation,mental,occult\" data-pf2-label=\"Stasis Field DC\" data-pf2-show-dc=\"gm\">Will</span> save. A high-pitched chime sounds in the barracks (area <strong>D15</strong>), audible in this room as well. The trap then rolls initiative.</p>\n<p><strong>Critical Success</strong> The target is unaffected.</p>\n<p><strong>Success</strong> The target is stunned 2.</p>\n<p><strong>Failure</strong> The target is paralyzed for 1 round.</p>\n<p><strong>Critical Failure</strong> The target is stupefied 2 for 1d4 rounds and paralyzed for 1 round.</p>"
                },
                "requirements": {
                    "value": ""
                },
                "rules": [],
                "slug": null,
                "source": {
                    "value": ""
                },
                "traits": {
                    "custom": "",
                    "rarity": {
                        "value": "common"
                    },
                    "value": [
                        "enchantment",
                        "incapacitation",
                        "mental",
                        "occult"
                    ]
                },
                "trigger": {
                    "value": ""
                },
                "weapon": {
                    "value": ""
                }
            },
            "effects": [],
            "flags": {},
            "img": "systems/pf2e/icons/actions/Reaction.webp",
            "name": "Stasis Field",
            "sort": 100000,
            "type": "action"
        }
    ],
    "name": "Paralyzing Light Trap",
    "permission": {
        "default": 0
    },
    "token": {
        "actorId": "E0FMRiGNCv5n7AVH",
        "actorLink": false,
        "bar1": {
            "attribute": "attributes.hp"
        },
        "bar2": {},
        "brightLight": 0,
        "brightSight": 0,
        "dimLight": 0,
        "dimSight": 0,
        "displayBars": 20,
        "displayName": 20,
        "disposition": 0,
        "flags": {},
        "height": 1,
        "img": "systems/pf2e/icons/default-icons/hazard.svg",
        "lightAlpha": 1,
        "lightAngle": 360,
        "lightAnimation": {
            "intensity": 5,
            "speed": 5
        },
        "lockRotation": false,
        "name": "Paralyzing Light Trap",
        "randomImg": false,
        "rotation": 0,
        "scale": 1,
        "sightAngle": 360,
        "tint": null,
        "vision": false,
        "width": 1
    },
    "type": "hazard"
}
