{
    "_id": "v61oEQaDdcRpaZ9X",
    "data": {
        "actionCategory": {
            "value": "defensive"
        },
        "actionType": {
            "value": "passive"
        },
        "actions": {
            "value": ""
        },
        "description": {
            "chat": "",
            "unidentified": "",
            "value": "<p>A monster's aura automatically affects everything within a specified emanation around that monster. The monster doesn't need to spend actions on the aura; rather, the aura's effects are applied at specific times, such as when a creature ends its turn in the aura or when creatures enter the aura.</p>\n<p>If an aura does nothing but deal damage, its entry lists only the radius, damage, and saving throw. Such auras deal this damage to a creature when the creature enters the aura and when a creature starts its turn in the aura. A creature can take damage from the aura only once per round.</p>\n<p>The GM might determine that a monster's aura doesn't affect its own allies. For example, a creature might be immune to a monster's frightful presence if they have been around each other for a long time.</p>"
        },
        "requirements": {
            "value": ""
        },
        "rules": [],
        "source": {
            "value": ""
        },
        "traits": {
            "custom": "",
            "rarity": {
                "value": "common"
            },
            "value": []
        },
        "trigger": {
            "value": ""
        },
        "weapon": {
            "value": ""
        }
    },
    "effects": [],
    "flags": {},
    "img": "systems/pf2e/icons/default-icons/action.svg",
    "name": "Aura",
    "permission": {
        "default": 0
    },
    "type": "action"
}
