{
    "_id": "sebk9XseMCRkDqRg",
    "data": {
        "actionCategory": {
            "value": "interaction"
        },
        "actionType": {
            "value": "passive"
        },
        "actions": {
            "value": ""
        },
        "description": {
            "chat": "",
            "unidentified": "",
            "value": "<p>Lifesense allows a monster to sense the vital essence of living and undead creatures within the listed range. The sense can distinguish between the positive energy animating living creatures and the negative energy animating undead creatures, much as sight distinguishes colors.</p>"
        },
        "requirements": {
            "value": ""
        },
        "rules": [],
        "source": {
            "value": ""
        },
        "traits": {
            "custom": "",
            "rarity": {
                "value": "common"
            },
            "value": []
        },
        "trigger": {
            "value": ""
        },
        "weapon": {
            "value": ""
        }
    },
    "effects": [],
    "flags": {},
    "img": "systems/pf2e/icons/default-icons/action.svg",
    "name": "Lifesense",
    "permission": {
        "default": 0
    },
    "type": "action"
}
