{
    "_id": "VQiBBu6D2srK6Fmj",
    "data": {
        "attributes": {
            "ac": {
                "value": 30
            },
            "hardness": 18,
            "hasHealth": true,
            "hp": {
                "details": "",
                "max": 72,
                "temp": 0,
                "tempmax": 0,
                "value": 72
            },
            "stealth": {
                "details": "(Expert) to notice subtle vapors of magical energy seething across the doors.",
                "value": 22
            }
        },
        "creatureType": "",
        "details": {
            "description": "These heavy doors, carved with an image of Dahak, echo with a hatred so powerful that it can kill anyone who comes nearby, manifesting a vision of Dahak's head emerging from the doors to strike at a foe.",
            "disable": "Thievery DC 29 to disrupt the divine magic, Religion DC 29 to placate the wrathful energies, or dispel magic (5th level; counteract DC 26).",
            "isComplex": true,
            "level": 10,
            "reset": "The trap deactivates and resets if 1 minute passes without any creature being in range.",
            "routine": "On its initiative, the wrath of the destroyer targets the closest target in area C6 with Face of the Fatal Divine."
        },
        "flavourText": "",
        "recallKnowledgeText": "",
        "saves": {
            "fortitude": {
                "rank": 0,
                "saveDetail": "",
                "value": 22
            },
            "reflex": {
                "rank": 0,
                "saveDetail": "",
                "value": 14
            },
            "will": {
                "rank": 0,
                "saveDetail": "",
                "value": null
            }
        },
        "schema": {
            "version": {
                "value": ""
            }
        },
        "sidebarText": "",
        "source": {
            "value": ""
        },
        "statusEffects": [],
        "traits": {
            "ci": [],
            "di": {
                "custom": "",
                "selected": {},
                "value": [
                    "critical-hits",
                    "fire",
                    "object-immunities",
                    "precision"
                ]
            },
            "dr": [],
            "dv": [],
            "rarity": {
                "value": "common"
            },
            "size": {
                "value": "med"
            },
            "traits": {
                "custom": "",
                "value": [
                    "magical"
                ]
            }
        }
    },
    "effects": [],
    "flags": {},
    "img": "systems/pf2e/icons/default-icons/hazard.svg",
    "items": [
        {
            "_id": "fINveZMkSiZN9kMX",
            "data": {
                "actionCategory": {
                    "value": ""
                },
                "actionType": {
                    "value": "reaction"
                },
                "actions": {
                    "value": ""
                },
                "description": {
                    "chat": "",
                    "unidentified": "",
                    "value": "<p><strong>Trigger</strong> A non-worshipper of Dahak touches either door leading to C7<br /><br /><strong>Effect</strong> The hazard targets the creature with Face of the Fatal Divine, then rolls initiative.</p>"
                },
                "requirements": {
                    "value": ""
                },
                "rules": [],
                "slug": null,
                "source": {
                    "value": ""
                },
                "traits": {
                    "custom": "",
                    "rarity": {
                        "value": "common"
                    },
                    "selected": {},
                    "value": []
                },
                "trigger": {
                    "value": ""
                },
                "usage": {
                    "value": "held-in-one-hand"
                },
                "weapon": {
                    "value": ""
                }
            },
            "effects": [],
            "flags": {},
            "img": "systems/pf2e/icons/actions/Reaction.webp",
            "name": "Expunge",
            "sort": 100000,
            "type": "action"
        },
        {
            "_id": "LnwQpnNyyd6h5Xx0",
            "data": {
                "actionCategory": {
                    "value": "offensive"
                },
                "actionType": {
                    "value": "action"
                },
                "actions": {
                    "value": "1"
                },
                "description": {
                    "chat": "",
                    "unidentified": "",
                    "value": "<p>The creature beholds the face of Dahak as it emerges to bite with its burning jaws, targeting the creature with @Compendium[pf2e.spells-srd.Phantasmal Killer]{Phantasmal Killer} (5th level, <span data-pf2-saving-throw=\"will\" data-pf2-dc=\"29\" data-pf2-traits=\"death,divine,emotion,fear,illusion,mental\" data-pf2-label=\"Face of the Fatal Divine DC\" data-pf2-show-dc=\"gm\">Will</span>).</p>"
                },
                "requirements": {
                    "value": ""
                },
                "rules": [],
                "slug": null,
                "source": {
                    "value": ""
                },
                "traits": {
                    "custom": "",
                    "rarity": {
                        "value": "common"
                    },
                    "selected": {
                        "death": "Death",
                        "divine": "Divine",
                        "emotion": "Emotion",
                        "fear": "Fear",
                        "illusion": "Illusion",
                        "mental": "Mental"
                    },
                    "value": [
                        "death",
                        "divine",
                        "emotion",
                        "fear",
                        "illusion",
                        "mental"
                    ]
                },
                "trigger": {
                    "value": ""
                },
                "usage": {
                    "value": "held-in-one-hand"
                },
                "weapon": {
                    "value": ""
                }
            },
            "effects": [],
            "flags": {},
            "img": "systems/pf2e/icons/actions/OneAction.webp",
            "name": "Face of the Fatal Divine",
            "sort": 200000,
            "type": "action"
        }
    ],
    "name": "Wrath of the Destroyer",
    "permission": {
        "default": 0
    },
    "token": {
        "actorId": "VQiBBu6D2srK6Fmj",
        "actorLink": false,
        "bar1": {
            "attribute": "attributes.hp"
        },
        "bar2": {},
        "brightLight": 0,
        "brightSight": 0,
        "dimLight": 0,
        "dimSight": 0,
        "displayBars": 20,
        "displayName": 20,
        "disposition": 0,
        "flags": {},
        "height": 1,
        "img": "systems/pf2e/icons/default-icons/hazard.svg",
        "lightAlpha": 1,
        "lightAngle": 360,
        "lightAnimation": {
            "intensity": 5,
            "speed": 5
        },
        "lockRotation": false,
        "name": "Wrath of the Destroyer",
        "randomImg": false,
        "rotation": 0,
        "scale": 1,
        "sightAngle": 360,
        "tint": null,
        "vision": false,
        "width": 1
    },
    "type": "hazard"
}
