{
    "_id": "EHa0owz6mccnmSBf",
    "data": {
        "actionCategory": {
            "value": ""
        },
        "actionType": {
            "value": "action"
        },
        "actions": {
            "value": ""
        },
        "description": {
            "chat": "",
            "unidentified": "",
            "value": "<p>You @Compendium[pf2e.actionspf2e.Stride]{Stride} twice. The @Compendium[pf2e.equipment-srd.Drakeheart Mutagen (Lesser)]{Drakeheart Mutagen}'s duration ends.</p>"
        },
        "requirements": {
            "value": ""
        },
        "rules": [],
        "source": {
            "value": ""
        },
        "traits": {
            "custom": "",
            "rarity": {
                "value": "common"
            },
            "selected": {},
            "value": []
        },
        "trigger": {
            "value": ""
        },
        "weapon": {
            "value": ""
        }
    },
    "effects": [],
    "flags": {},
    "img": "systems/pf2e/icons/actions/OneAction.webp",
    "name": "Final Surge",
    "permission": {
        "default": 0
    },
    "type": "action"
}
