{
    "_id": "XSGlLjI80LDCimAP",
    "data": {
        "actionCategory": {
            "value": ""
        },
        "actionType": {
            "value": "action"
        },
        "actions": {
            "value": "1"
        },
        "description": {
            "chat": "",
            "unidentified": "",
            "value": "<p><strong>Requirements</strong> You have at least one magic item activation that you can sustain and you are not @Compendium[pf2e.conditionitems.Fatigued]{Fatigued}</p>\n<hr />\n<p>Choose one magic item activation with a sustained duration you have in effect. The duration of that activation continues until the end of your next turn. Some activations may have slightly different or expanded effects if you sustain them. Sustaining an Activation for more than 10 minutes (100 rounds) ends the activation and makes you fatigued unless the item's description states a different maximum duration (such as \"up to 1 minute\" or \"up to 1 hour\").<br /><br />If your Sustain an Activation action is disrupted, the item's effect immediately ends.</p>"
        },
        "requirements": {
            "value": ""
        },
        "rules": [],
        "source": {
            "value": ""
        },
        "traits": {
            "custom": "",
            "rarity": {
                "value": "common"
            },
            "value": [
                "general"
            ]
        },
        "trigger": {
            "value": ""
        },
        "weapon": {
            "value": ""
        }
    },
    "effects": [],
    "flags": {},
    "img": "systems/pf2e/icons/actions/OneAction.webp",
    "name": "Sustain an Activation",
    "permission": {
        "default": 0
    },
    "type": "action"
}
