{
    "_id": "XCqYnlVbLGqEGPeX",
    "data": {
        "description": {
            "chat": "",
            "unidentified": "",
            "value": "<p>Your familiar can telepathically communicate with you via touch. If it also has the speech ability, it can telepathically communicate via touch with any creature if they share a language.</p>"
        },
        "level": {
            "value": 1
        },
        "rules": [],
        "source": {
            "value": ""
        },
        "traits": {
            "custom": "",
            "rarity": {
                "value": "common"
            },
            "value": []
        }
    },
    "effects": [],
    "flags": {},
    "img": "systems/pf2e/icons/default-icons/mystery-man.svg",
    "name": "Touch Telepathy",
    "permission": {
        "default": 0
    },
    "type": "effect"
}
