{
    "_id": "Cxa7MdgMCUoMqbKm",
    "data": {
        "description": {
            "chat": "",
            "unidentified": "",
            "value": "<p>Granted by @Compendium[pf2e.equipment-srd.Bronze Bull Pendant]{Bronze Bull Pendant}</p>\n<p>Automatically applied effects:</p>\n<ul>\n<li>+2 status bonus to Athletics check to Shove</li>\n</ul>"
        },
        "duration": {
            "expiry": "turn-start",
            "sustained": false,
            "unit": "unlimited",
            "value": -1
        },
        "level": {
            "value": 2
        },
        "rules": [
            {
                "key": "PF2E.RuleElement.FlatModifier",
                "label": "Bronze Bull Pendant (Shove)",
                "predicate": {
                    "all": [
                        "action:shove"
                    ]
                },
                "selector": "athletics",
                "type": "status",
                "value": 2
            },
            {
                "key": "PF2E.RuleElement.TokenEffectIcon"
            }
        ],
        "source": {
            "value": ""
        },
        "start": {
            "initiative": null,
            "value": 0
        },
        "target": null,
        "traits": {
            "custom": "",
            "rarity": {
                "value": "common"
            },
            "value": []
        }
    },
    "effects": [],
    "flags": {},
    "img": "systems/pf2e/icons/equipment/consumables/talismans/bronze-bull-pendant.webp",
    "name": "Effect: Bronze Bull Pendant",
    "permission": {
        "default": 0
    },
    "type": "effect"
}
