{
    "_id": "KsFrWhIPVLOqxV07",
    "data": {
        "actionCategory": {
            "value": ""
        },
        "actionType": {
            "value": "passive"
        },
        "actions": {
            "value": ""
        },
        "description": {
            "chat": "",
            "unidentified": "",
            "value": "<p>Your claws carry your mother's hag magic. When you critically hit with a claw Strike, the target takes an additional [[/r 1d4 #persistent mental]] persistent mental damage.</p>"
        },
        "featType": {
            "value": "ancestry"
        },
        "level": {
            "value": "9"
        },
        "prerequisites": {
            "value": [
                {
                    "value": "claw unarmed attack"
                }
            ]
        },
        "rules": [],
        "source": {
            "value": ""
        },
        "traits": {
            "custom": "",
            "rarity": {
                "value": "common"
            },
            "value": [
                "changeling"
            ]
        }
    },
    "effects": [],
    "flags": {},
    "img": "systems/pf2e/icons/features/feats/feats.webp",
    "name": "Accursed Claws",
    "permission": {
        "default": 0
    },
    "type": "feat"
}
