{
    "_id": "jEJ6AWCctirMT7p0",
    "data": {
        "actionCategory": {
            "value": ""
        },
        "actionType": {
            "value": "passive"
        },
        "actions": {
            "value": ""
        },
        "description": {
            "chat": "",
            "unidentified": "",
            "value": "<p>Your mother was a sea hag, granting you one sea-green or blue eye. You find comfort both in the sea and on the shore.</p>\n<p>Whenever you roll a success on an Athletics check to @Compendium[pf2e.actionspf2e.Swim]{Swim}, you get a critical success instead. If you end your turn in water without having succeeded at a Swim action that round, you don't sink (but you might still be moved by the current).</p>"
        },
        "featType": {
            "value": "ancestry"
        },
        "level": {
            "value": "1"
        },
        "prerequisites": {
            "value": []
        },
        "rules": [],
        "source": {
            "value": ""
        },
        "traits": {
            "custom": "",
            "rarity": {
                "value": "common"
            },
            "value": [
                "changeling",
                "lineage"
            ]
        }
    },
    "effects": [],
    "flags": {},
    "img": "systems/pf2e/icons/features/feats/feats.webp",
    "name": "Brine May",
    "permission": {
        "default": 0
    },
    "type": "feat"
}
