{
    "_id": "264KzmKMK4zqi6AR",
    "data": {
        "actionCategory": {
            "value": ""
        },
        "actionType": {
            "value": "passive"
        },
        "actions": {
            "value": ""
        },
        "description": {
            "chat": "",
            "unidentified": "",
            "value": "<p>You can clue in all your allies at once. When you use the @Compendium[pf2e.actionspf2e.Clue In]{Clue In} reaction, any of your allies who are attempting the same check to investigate a lead receive the circumstance bonus from Clue In. If you use this ability during an encounter, they must attempt their check within 1 round of when you Clued them In.</p>"
        },
        "featType": {
            "value": "class"
        },
        "level": {
            "value": 8
        },
        "location": "",
        "prerequisites": {
            "value": []
        },
        "rules": [],
        "source": {
            "value": ""
        },
        "traits": {
            "custom": "",
            "rarity": {
                "value": "common"
            },
            "value": [
                "investigator"
            ]
        }
    },
    "effects": [],
    "flags": {},
    "img": "systems/pf2e/icons/features/feats/feats.webp",
    "name": "Clue Them All In",
    "permission": {
        "default": 0
    },
    "type": "feat"
}
