{
    "_id": "uH3ZRkXPsXi1ChO2",
    "data": {
        "actionCategory": {
            "value": ""
        },
        "actionType": {
            "value": "passive"
        },
        "actions": {
            "value": ""
        },
        "description": {
            "chat": "",
            "unidentified": "",
            "value": "<p>Your shield ally is more than just a spirit of protection-it's a conduit for deadly divine magic.</p>\n<p>When you use your shield ally to @Compendium[pf2e.feats-srd.Shield Block]{Shield Block} a melee unarmed attack or a melee weapon Strike from an adjacent creature, the attacker takes [[/r 1d6 #evil]] evil or negative damage (your choice).</p>\n<p>If the attack or Strike breaks or destroys your shield, double this additional damage.</p>\n<p>The damage the attacker takes increases to [[/r 2d6 #evil]] at 11th level and [[/r 3d6 #evil]] at 16th level.</p>"
        },
        "featType": {
            "value": "class"
        },
        "level": {
            "value": 6
        },
        "location": "",
        "prerequisites": {
            "value": [
                {
                    "value": "divine ally (shield)"
                },
                {
                    "value": "tenets of evil"
                }
            ]
        },
        "rules": [],
        "source": {
            "value": ""
        },
        "traits": {
            "custom": "",
            "rarity": {
                "value": "uncommon"
            },
            "value": [
                "champion",
                "divine",
                "necromancy",
                "negative"
            ]
        }
    },
    "effects": [],
    "flags": {},
    "img": "systems/pf2e/icons/features/feats/feats.webp",
    "name": "Corrupted Shield",
    "permission": {
        "default": 0
    },
    "type": "feat"
}
