{
    "_id": "Xhphe5Lsa4kuU4RG",
    "data": {
        "actionCategory": {
            "value": ""
        },
        "actionType": {
            "value": "passive"
        },
        "actions": {
            "value": ""
        },
        "description": {
            "chat": "",
            "unidentified": "",
            "value": "<p>You are a dynamo with the crossbow.</p>\n<p>You gain a +2 circumstance bonus to damage with @Compendium[pf2e.equipment-srd.Crossbow]{Crossbows}.</p>\n<p>If the crossbow is a simple weapon, also increase the damage die size for your attacks made with that crossbow by one step .As normal, this damage die increase can't be combined with other abilities that alter the weapon damage die (such as the ranger feat @Compendium[pf2e.feats-srd.Crossbow Ace]{Crossbow Ace}).</p>"
        },
        "featType": {
            "value": "archetype"
        },
        "level": {
            "value": "6"
        },
        "prerequisites": {
            "value": [
                {
                    "value": "Archer Dedication"
                }
            ]
        },
        "rules": [],
        "source": {
            "value": ""
        },
        "traits": {
            "custom": "",
            "rarity": {
                "value": "common"
            },
            "value": [
                "archetype"
            ]
        }
    },
    "effects": [],
    "flags": {},
    "img": "systems/pf2e/icons/features/feats/feats.webp",
    "name": "Crossbow Terror",
    "permission": {
        "default": 0
    },
    "type": "feat"
}
