{
    "_id": "NwMiszlcqNZWtezq",
    "data": {
        "actionCategory": {
            "value": ""
        },
        "actionType": {
            "value": "passive"
        },
        "actions": {
            "value": ""
        },
        "description": {
            "value": "<p>Every chance you get, you practice with the hand crossbow to increase your draw speed and accuracy. Whenever you gain a class feature that grants you expert or greater proficiency in a given weapon or weapons, you also gain that proficiency in the hand crossbow. If you’re at least an expert in a hand crossbow you’re using, you gain access to its critical specialization effect. You also gain the Shootist’s Draw action.</p>\n<hr />\n<p><strong>@Compendium[pf2e.actionspf2e.Shootist's Draw]{Shootist's Draw}</strong> <span class=\"pf2-icon\">1 </span></p>\n<p><strong>Frequency</strong> once per round;</p>\n<p><strong>Effect</strong> You Interact to draw a @Compendium[pf2e.equipment-srd.Hand Crossbow]{Hand Crossbow} and Strike with it, or you Strike with a loaded hand crossbow you’re already holding and then Interact to stow it.</p>\n<hr />\n<p><strong>Special</strong> You can’t select another dedication feat until you’ve gained two other feats from the drow shootist archetype.</p>"
        },
        "featType": {
            "value": "archetype"
        },
        "level": {
            "value": 2
        },
        "location": "",
        "prerequisites": {
            "value": [
                {
                    "value": "trained in hand crossbow"
                }
            ]
        },
        "rules": [],
        "source": {
            "value": ""
        },
        "traits": {
            "custom": "",
            "rarity": {
                "value": "uncommon"
            },
            "value": [
                "archetype",
                "dedication"
            ]
        }
    },
    "effects": [],
    "flags": {},
    "img": "systems/pf2e/icons/default-icons/feats.webp",
    "name": "Drow Shootist Dedication",
    "permission": {
        "default": 0
    },
    "type": "feat"
}
