{
    "_id": "I9cJYC7anz7HmpcJ",
    "data": {
        "actionCategory": {
            "value": ""
        },
        "actionType": {
            "value": "passive"
        },
        "actions": {
            "value": ""
        },
        "description": {
            "chat": "",
            "unidentified": "",
            "value": "<p>Your magic rivals that of lesser dragons. Choose one 3rd-level spell and one 4th-level spell from those listed for a dragon spellcaster of your draconic exemplar's type, as on pages 104-126 of the <em>Bestiary</em> (such as @Compendium[pf2e.spells-srd.Paralyze]{Paralyze} and @Compendium[pf2e.spells-srd.Stinking Cloud]{Stinking Cloud} for a black dragon exemplar).</p>\n<p>You can cast each of these spells once per day as arcane innate spells.</p>"
        },
        "featType": {
            "value": "ancestry"
        },
        "level": {
            "value": "13"
        },
        "prerequisites": {
            "value": [
                {
                    "value": "Dracomancer"
                }
            ]
        },
        "rules": [],
        "source": {
            "value": ""
        },
        "traits": {
            "custom": "",
            "rarity": {
                "value": "common"
            },
            "value": [
                "kobold"
            ]
        }
    },
    "effects": [],
    "flags": {},
    "img": "systems/pf2e/icons/features/feats/feats.webp",
    "name": "Elite Dracomancer",
    "permission": {
        "default": 0
    },
    "type": "feat"
}
