{
    "_id": "EaIczkGVI5DUo3c9",
    "data": {
        "actionCategory": {
            "value": ""
        },
        "actionType": {
            "value": "passive"
        },
        "actions": {
            "value": ""
        },
        "description": {
            "chat": "",
            "unidentified": "",
            "value": "<p>Something about your presence causes creatures of your bloodline to, consciously or not, recognize you as one of their own, and you become inured to their tricks.</p>\n<p>You gain a +1 circumstance bonus to Diplomacy, Deception, and Intimidation checks when interacting with creatures that have the trait corresponding to your bloodline, and you gain a +1 circumstance bonus to Perception and saving throws against such creatures.</p>\n<p>For example, an aberrant bloodline sorcerer would gain this benefit against creatures with the aberration trait. The GM is the final arbiter of which creatures match your bloodline.</p>"
        },
        "featType": {
            "value": "class"
        },
        "level": {
            "value": "2"
        },
        "prerequisites": {
            "value": [
                {
                    "value": "a bloodline that corresponds with a creature trait"
                }
            ]
        },
        "rules": [],
        "source": {
            "value": ""
        },
        "traits": {
            "custom": "",
            "rarity": {
                "value": "common"
            },
            "value": [
                "sorcerer"
            ]
        }
    },
    "effects": [],
    "flags": {},
    "img": "systems/pf2e/icons/features/feats/feats.webp",
    "name": "Entreat With Forebears",
    "permission": {
        "default": 0
    },
    "type": "feat"
}
