{
    "_id": "wz2edbLFnDKDNWWZ",
    "data": {
        "actionCategory": {
            "value": ""
        },
        "actionType": {
            "value": "passive"
        },
        "actions": {
            "value": ""
        },
        "description": {
            "chat": "",
            "unidentified": "",
            "value": "<p>You flurry is a combination of maneuvers. You can replace one or both of your attacks during a Flurry of Blows with @Compendium[pf2e.actionspf2e.Grapple]{Grapples}, @Compendium[pf2e.actionspf2e.Shove]{Shoves}, or @Compendium[pf2e.actionspf2e.Trip]{Trips}.</p>"
        },
        "featType": {
            "value": "class"
        },
        "level": {
            "value": 4
        },
        "location": "",
        "prerequisites": {
            "value": [
                {
                    "value": "expert in Athletics"
                }
            ]
        },
        "rules": [],
        "source": {
            "value": ""
        },
        "traits": {
            "custom": "",
            "rarity": {
                "value": "common"
            },
            "value": [
                "monk"
            ]
        }
    },
    "effects": [],
    "flags": {},
    "img": "systems/pf2e/icons/features/feats/feats.webp",
    "name": "Flurry of Maneuvers",
    "permission": {
        "default": 0
    },
    "type": "feat"
}
