{
    "_id": "vwBD55BRDOatp4ZV",
    "data": {
        "actionCategory": {
            "value": ""
        },
        "actionType": {
            "value": "passive"
        },
        "actions": {
            "value": ""
        },
        "description": {
            "chat": "",
            "unidentified": "",
            "value": "<p>You share a special kinship with all things green and living. You (and your leshy familiar, if you have one) are constantly under the effects of @Compendium[pf2e.spells-srd.Speak with Plants]{Speak with Plants}. Most non-creature plants recognize you as a druid of the leaf order and are friendly to you.</p>"
        },
        "featType": {
            "value": "class"
        },
        "level": {
            "value": 12
        },
        "location": "",
        "prerequisites": {
            "value": [
                {
                    "value": "Green Empathy"
                }
            ]
        },
        "rules": [],
        "source": {
            "value": ""
        },
        "traits": {
            "custom": "",
            "rarity": {
                "value": "common"
            },
            "value": [
                "druid"
            ]
        }
    },
    "effects": [],
    "flags": {},
    "img": "systems/pf2e/icons/features/feats/feats.webp",
    "name": "Green Tongue",
    "permission": {
        "default": 0
    },
    "type": "feat"
}
