{
    "_id": "fO1vRDEfl9pysfLU",
    "data": {
        "actionCategory": {
            "value": ""
        },
        "actionType": {
            "value": "passive"
        },
        "actions": {
            "value": ""
        },
        "description": {
            "chat": "",
            "unidentified": "",
            "value": "<p>Your guard is up, even while moving. You gain a +4 circumstance bonus to AC against reactions triggered by your movement.</p>"
        },
        "featType": {
            "value": "class"
        },
        "level": {
            "value": 4
        },
        "location": "",
        "prerequisites": {
            "value": []
        },
        "rules": [
            {
                "key": "PF2E.RuleElement.FlatModifier",
                "label": "Guarded Movement (against reactions triggered by movement)",
                "predicate": {
                    "all": [
                        "guarded-movement"
                    ]
                },
                "roll-options": [
                    "all"
                ],
                "selector": "ac",
                "type": "circumstance",
                "value": 4
            },
            {
                "key": "PF2E.RuleElement.ToggleProperty",
                "label": "Guarded Movement (your movement triggers a reaction)",
                "property": "flags.pf2e.rollOptions.all.guarded-movement"
            }
        ],
        "source": {
            "value": ""
        },
        "traits": {
            "custom": "",
            "rarity": {
                "value": "common"
            },
            "value": [
                "monk"
            ]
        }
    },
    "effects": [],
    "flags": {},
    "img": "systems/pf2e/icons/features/feats/feats.webp",
    "name": "Guarded Movement",
    "permission": {
        "default": 0
    },
    "type": "feat"
}
