{
    "_id": "t6GBBIwX7hvvxYyV",
    "data": {
        "actionCategory": {
            "value": ""
        },
        "actionType": {
            "value": "passive"
        },
        "actions": {
            "value": ""
        },
        "description": {
            "chat": "",
            "unidentified": "",
            "value": "<p>Through your heritage, you can replicate some of a hag's magic. Choose one common spell of 4th level or lower from those available to a coven, including the spells contributed to a coven by a hag of your mother's type. You can cast this spell once per day as a 4th-level occult innate spell.</p>\n<p>Spells available to all covens are @Compendium[pf2e.spells-srd.Augury]{Augury}, @Compendium[pf2e.spells-srd.Charm]{Charm}, @Compendium[pf2e.spells-srd.Clairaudience]{Clairaudience}, @Compendium[pf2e.spells-srd.Clairvoyance]{Clairvoyance}, @Compendium[pf2e.spells-srd.Dream Message]{Dream Message}, and @Compendium[pf2e.spells-srd.Illusory Disguise]{Illusory Disguise}.</p>\n<p>The eligible spells granted by the most prominent types of hag are:</p>\n<ul>\n<li><strong>Sea Hag</strong> @Compendium[pf2e.spells-srd.Acid Arrow]{Acid Arrow}, @Compendium[pf2e.spells-srd.Water Walk]{Water Walk}</li>\n<li><strong>Green Hag</strong> @Compendium[pf2e.spells-srd.Entangle]{Entangle}, @Compendium[pf2e.spells-srd.Outcast's Curse]{Outcast's Curse}, @Compendium[pf2e.spells-srd.Wall of Thorns]{Wall of Thorns}</li>\n<li><strong>Annis Hag</strong> @Compendium[pf2e.spells-srd.Earthbind]{Earthbind}</li>\n<li><strong>Night Hag</strong> @Compendium[pf2e.spells-srd.Nightmare]{Nightmare}</li>\n</ul>"
        },
        "featType": {
            "value": "ancestry"
        },
        "level": {
            "value": "13"
        },
        "prerequisites": {
            "value": []
        },
        "rules": [],
        "source": {
            "value": ""
        },
        "traits": {
            "custom": "",
            "rarity": {
                "value": "common"
            },
            "value": [
                "changeling"
            ]
        }
    },
    "effects": [],
    "flags": {},
    "img": "systems/pf2e/icons/features/feats/feats.webp",
    "name": "Hag Magic",
    "permission": {
        "default": 0
    },
    "type": "feat"
}
