{
    "_id": "rp3mjgFXBVZYCleU",
    "data": {
        "actionCategory": {
            "value": ""
        },
        "actionType": {
            "value": "passive"
        },
        "actions": {
            "value": ""
        },
        "description": {
            "chat": "",
            "unidentified": "",
            "value": "<p>Your nanites reject diseases with ease. Each time you succeed at a Fortitude save against an ongoing disease, you reduce its stage by 2, or by 1 against a virulent disease. Each critical success you achieve against an ongoing disease reduces its stage by 3, or by 2 against a virulent disease.</p>"
        },
        "featType": {
            "value": "ancestry"
        },
        "level": {
            "value": 5
        },
        "location": "",
        "prerequisites": {
            "value": []
        },
        "rules": [],
        "source": {
            "value": ""
        },
        "traits": {
            "custom": "",
            "rarity": {
                "value": "common"
            },
            "value": [
                "android"
            ]
        },
        "usage": {
            "value": ""
        }
    },
    "effects": [],
    "flags": {},
    "img": "systems/pf2e/icons/features/feats/feats.webp",
    "name": "Inoculation Subroutine",
    "permission": {
        "default": 0
    },
    "type": "feat"
}
