{
    "_id": "uAh31Hnp1EZSjd40",
    "data": {
        "actionCategory": {
            "value": ""
        },
        "actionType": {
            "value": "passive"
        },
        "actions": {
            "value": ""
        },
        "description": {
            "chat": "",
            "unidentified": "",
            "value": "<p>Repeated exposure to fortifying additives in mutagens makes your juggernaut form impervious. Whenever you're affected by a juggernaut mutagen, you gain resistance to all physical damage equal to your Intelligence modifier (minimum 0).</p>"
        },
        "featType": {
            "value": "class"
        },
        "level": {
            "value": 12
        },
        "prerequisites": {
            "value": []
        },
        "rules": [],
        "source": {
            "value": ""
        },
        "traits": {
            "custom": "",
            "rarity": {
                "value": "common"
            },
            "value": [
                "alchemist"
            ]
        }
    },
    "effects": [],
    "flags": {},
    "img": "systems/pf2e/icons/features/feats/feats.webp",
    "name": "Invincible Mutagen",
    "permission": {
        "default": 0
    },
    "type": "feat"
}
