{
    "_id": "xDCtfNtbnaG166cy",
    "data": {
        "actionCategory": {
            "value": ""
        },
        "actionType": {
            "value": "passive"
        },
        "actions": {
            "value": ""
        },
        "description": {
            "chat": "",
            "unidentified": "",
            "value": "<p>The magic of jann runs through your blood. You can cast @Compendium[pf2e.spells-srd.Enlarge]{Enlarge} and @Compendium[pf2e.spells-srd.Speak with Animals]{Speak with Animals} once per day each as 2nd-level arcane innate spells.</p>"
        },
        "featType": {
            "value": "ancestry"
        },
        "level": {
            "value": 9
        },
        "location": "",
        "prerequisites": {
            "value": []
        },
        "rules": [],
        "source": {
            "value": ""
        },
        "traits": {
            "custom": "",
            "rarity": {
                "value": "common"
            },
            "value": [
                "suli"
            ]
        },
        "usage": {
            "value": ""
        }
    },
    "effects": [],
    "flags": {},
    "img": "systems/pf2e/icons/features/feats/feats.webp",
    "name": "Janni Magic",
    "permission": {
        "default": 0
    },
    "type": "feat"
}
