{
    "_id": "jIMeialR9CBo1bx9",
    "data": {
        "actionCategory": {
            "value": ""
        },
        "actionType": {
            "value": "action"
        },
        "actions": {
            "value": "2"
        },
        "description": {
            "chat": "",
            "unidentified": "",
            "value": "<p><strong>Archetype</strong> @Compendium[pf2e.archetypes.Staff Acrobat]{Staff Acrobat}<br /><strong>Requirements</strong> You are wielding your staff.</p>\n<hr />\n<p>Make a Strike with your staff. As long as you don't critically fail, the target becomes @Compendium[pf2e.conditionitems.Flat-Footed]{Flat-Footed} and takes a -2 circumstance penalty to its DC against @Compendium[pf2e.actionspf2e.Shove]{Shove}, @Compendium[pf2e.actionspf2e.Trip]{Trip}, and @Compendium[pf2e.actionspf2e.Tumble Through]{Tumble Through} attempts until the start of your next turn.</p>"
        },
        "featType": {
            "value": "archetype"
        },
        "level": {
            "value": "8"
        },
        "prerequisites": {
            "value": [
                {
                    "value": "Staff Acrobat Dedication"
                }
            ]
        },
        "rules": [],
        "source": {
            "value": ""
        },
        "traits": {
            "custom": "",
            "rarity": {
                "value": "uncommon"
            },
            "value": [
                "archetype",
                "press"
            ]
        }
    },
    "effects": [],
    "flags": {},
    "img": "systems/pf2e/icons/features/feats/feats.webp",
    "name": "Levering Strike",
    "permission": {
        "default": 0
    },
    "type": "feat"
}
