{
    "_id": "lKeJruYQutWlNXyZ",
    "data": {
        "actionCategory": {
            "value": ""
        },
        "actionType": {
            "value": "passive"
        },
        "actions": {
            "value": null
        },
        "description": {
            "chat": "",
            "unidentified": "",
            "value": "<p>You've become comfortable in using weapons that you might not have picked up before training with the Swords. Choose one weapon group, such as hammer or sword. Whenever your proficiency rank in any weapon increases to expert or beyond, you also gain that new proficiency rank with both simple and martial weapons of your chosen weapon group.</p>"
        },
        "featType": {
            "value": "archetype"
        },
        "level": {
            "value": "10"
        },
        "prerequisites": {
            "value": [
                {
                    "value": "Swordmaster Dedication"
                }
            ]
        },
        "rules": [],
        "source": {
            "value": ""
        },
        "traits": {
            "custom": "",
            "rarity": {
                "value": "common"
            },
            "value": [
                "archetype"
            ]
        }
    },
    "effects": [],
    "flags": {},
    "img": "systems/pf2e/icons/features/feats/feats.webp",
    "name": "Martial Exercise",
    "permission": {
        "default": 0
    },
    "type": "feat"
}
