{
    "_id": "RrtqD8WmoUumauJD",
    "data": {
        "actionCategory": {
            "value": ""
        },
        "actionType": {
            "value": "passive"
        },
        "actions": {
            "value": ""
        },
        "description": {
            "chat": "",
            "unidentified": "",
            "value": "<p>Your <em>warmask</em> sharpens your connection to the source of your mask’s power. During your daily preparations, choose @Compendium[pf2e.spells-srd.Fear]{Fear}, @Compendium[pf2e.spells-srd.Phantom Pain]{Phantom Pain}, or @Compendium[pf2e.spells-srd.True Strike]{True Strike}.</p>\n<p>Until your next daily preparations, you can cast this spell as a 1st-level innate spell once per day; the spell’s tradition is determined by the tradition tied to your <em>warmask</em>. You must be wearing your <em>warmask</em> to Cast the Spell.</p>"
        },
        "featType": {
            "value": "ancestry"
        },
        "level": {
            "value": 5
        },
        "location": "",
        "prerequisites": {
            "value": [
                {
                    "value": "Orc Warmask"
                }
            ]
        },
        "rules": [],
        "source": {
            "value": ""
        },
        "traits": {
            "custom": "",
            "rarity": {
                "value": "common"
            },
            "value": [
                "orc"
            ]
        },
        "usage": {
            "value": ""
        }
    },
    "effects": [],
    "flags": {},
    "img": "systems/pf2e/icons/features/feats/feats.webp",
    "name": "Mask Of Power",
    "permission": {
        "default": 0
    },
    "type": "feat"
}
