{
    "_id": "Px1QZY0NdO9WAQQS",
    "data": {
        "actionCategory": {
            "value": ""
        },
        "actionType": {
            "value": "action"
        },
        "actions": {
            "value": "1"
        },
        "description": {
            "chat": "",
            "unidentified": "",
            "value": "<p>You attack in motion. @Compendium[pf2e.actionspf2e.Stride]{Stride} and then @Compendium[pf2e.actionspf2e.Strike]{Strike}. You can use Mobile Finisher while @Compendium[pf2e.actionspf2e.Burrow]{Burrowing}, @Compendium[pf2e.actionspf2e.Climb]{Climbing}, @Compendium[pf2e.actionspf2e.Fly]{Flying}, or @Compendium[pf2e.actionspf2e.Swim]{Swimming} instead of Striding if you have the corresponding movement type.</p>"
        },
        "featType": {
            "value": "class"
        },
        "level": {
            "value": "12"
        },
        "prerequisites": {
            "value": []
        },
        "rules": [],
        "source": {
            "value": ""
        },
        "traits": {
            "custom": "",
            "rarity": {
                "value": "common"
            },
            "value": [
                "finisher",
                "swashbuckler"
            ]
        }
    },
    "effects": [],
    "flags": {},
    "img": "systems/pf2e/icons/features/feats/feats.webp",
    "name": "Mobile Finisher",
    "permission": {
        "default": 0
    },
    "type": "feat"
}
