{
    "_id": "k0NNa5Ko4XhDdBYB",
    "data": {
        "actionCategory": {
            "value": ""
        },
        "actionType": {
            "value": "passive"
        },
        "actions": {
            "value": ""
        },
        "description": {
            "chat": "",
            "unidentified": "",
            "value": "<p>Your senses gain even greater clarity. While raging, you gain @Compendium[pf2e.ancestryfeatures.Darkvision]{Darkvision} if you don't already have it, and the range of your imprecise scent increases to 60 feet.</p>"
        },
        "featType": {
            "value": "class"
        },
        "level": {
            "value": "6"
        },
        "prerequisites": {
            "value": [
                {
                    "value": "Acute Scent, or precise or imprecise scent and low-light vision"
                }
            ]
        },
        "rules": [],
        "source": {
            "value": ""
        },
        "traits": {
            "custom": "",
            "rarity": {
                "value": "common"
            },
            "value": [
                "barbarian",
                "rage"
            ]
        }
    },
    "effects": [],
    "flags": {},
    "img": "systems/pf2e/icons/features/feats/feats.webp",
    "name": "Nocturnal Sense",
    "permission": {
        "default": 0
    },
    "type": "feat"
}
