{
    "_id": "KgiYiDz1lWoBMRlF",
    "data": {
        "actionCategory": {
            "value": ""
        },
        "actionType": {
            "value": "passive"
        },
        "actions": {
            "value": ""
        },
        "description": {
            "chat": "",
            "unidentified": "",
            "value": "<p>The arcane magic you possess grows in power and complexity. Choose one common 2nd-level spell from the same tradition as an innate spell you previously gained from another elf ancestry feat (from the arcane list if you have Otherworldly Magic, for example). You can cast that spell as an innate spell once per day, using the same tradition as the list you chose the spell from.</p>\n<p>Your magic is adaptable. By spending 1 day of downtime, you can change the spell you chose to adifferent common 2nd-level spell from the same tradition.</p>"
        },
        "featType": {
            "value": "ancestry"
        },
        "level": {
            "value": "9"
        },
        "prerequisites": {
            "value": [
                {
                    "value": "at least one innate spell gained from an elf ancestry feat"
                }
            ]
        },
        "rules": [],
        "source": {
            "value": ""
        },
        "traits": {
            "custom": "",
            "rarity": {
                "value": "common"
            },
            "value": [
                "elf"
            ]
        }
    },
    "effects": [],
    "flags": {},
    "img": "systems/pf2e/icons/features/feats/feats.webp",
    "name": "Otherworldly Acumen",
    "permission": {
        "default": 0
    },
    "type": "feat"
}
