{
    "_id": "C3MgEkPNaIhTddbr",
    "data": {
        "actionCategory": {
            "value": ""
        },
        "actionType": {
            "value": "action"
        },
        "actions": {
            "value": "1"
        },
        "description": {
            "chat": "",
            "unidentified": "",
            "value": "<p><strong>Requirements</strong> You are wielding a sword that has the monk <br />trait in one hand.</p>\n<hr />\n<p>You enter a tall and proud stance while remaining mobile, with all the grace and composure of a peafowl.</p>\n<p>While in this stance, the only Strikes you can make are melee Strikes with the required sword. Once per round, after you hit with a monk sword Strike, you can Step as a free action as your next action.</p>\n<p>@Compendium[pf2e.feat-effects.Stance: Peafowl Stance]{Stance: Peafowl Stance}</p>"
        },
        "featType": {
            "value": "class"
        },
        "level": {
            "value": 4
        },
        "location": "",
        "prerequisites": {
            "value": [
                {
                    "value": "Monastic Weaponry"
                }
            ]
        },
        "rules": [],
        "source": {
            "value": ""
        },
        "traits": {
            "custom": "",
            "rarity": {
                "value": "common"
            },
            "value": [
                "monk",
                "stance"
            ]
        }
    },
    "effects": [],
    "flags": {},
    "img": "systems/pf2e/icons/features/feats/feats.webp",
    "name": "Peafowl Stance",
    "permission": {
        "default": 0
    },
    "type": "feat"
}
