{
    "_id": "lHFz4MmebvPqTb0A",
    "data": {
        "actionCategory": {
            "value": ""
        },
        "actionType": {
            "value": "passive"
        },
        "actions": {
            "value": ""
        },
        "description": {
            "chat": "",
            "unidentified": "",
            "value": "<p>You can predict which consumables you might need in advance. When using Prescient Planner, you can procure a consumable item from your backpack, instead of a piece of adventuring gear. The consumable item must still be common with a level no higher than half your level, and its Bulk must be low enough that carrying it wouldn't have made you encumbered.</p>"
        },
        "featType": {
            "value": "general"
        },
        "level": {
            "value": "7"
        },
        "prerequisites": {
            "value": [
                {
                    "value": "Prescient Planner"
                }
            ]
        },
        "rules": [],
        "source": {
            "value": ""
        },
        "traits": {
            "custom": "",
            "rarity": {
                "value": "common"
            },
            "value": [
                "general"
            ]
        }
    },
    "effects": [],
    "flags": {},
    "img": "systems/pf2e/icons/features/feats/feats.webp",
    "name": "Prescient Consumable",
    "permission": {
        "default": 0
    },
    "type": "feat"
}
