{
    "_id": "Dxac0mgye7EFFVou",
    "data": {
        "actionCategory": {
            "value": ""
        },
        "actionType": {
            "value": "action"
        },
        "actions": {
            "value": "1"
        },
        "description": {
            "value": "<p>Your inherent glory radiates into the world with all the divine power of the celestial planes for 1 minute.</p>\n<p>Any creature that can see you while you Radiate Glory must attempt a Will saving throw against your class DC or spell DC, whichever is higher. The creature then becomes temporarily immune to this effect for 24 hours.</p>\n<hr />\n<p><strong>Critical Success</strong> The creature is unaffected.</p>\n<p><strong>Success</strong> You are @Compendium[pf2e.conditionitems.Concealed]{Concealed} to the creature for 1 round by the shining light, but can’t use this concealment to Hide, as normal for when your location is obvious.</p>\n<p><strong>Failure</strong> As success, except you are concealed to the creature while your glory radiates.</p>\n<p><strong>Critical Failure</strong> You are @Compendium[pf2e.conditionitems.Hidden]{Hidden} to the creature while your glory radiates, lost amid the radiant corona of your presence. Your general position is still obvious, so you can’t use this to Sneak.</p>"
        },
        "featType": {
            "value": "ancestry"
        },
        "level": {
            "value": 17
        },
        "location": "",
        "prerequisites": {
            "value": []
        },
        "rules": [],
        "source": {
            "value": ""
        },
        "traits": {
            "custom": "",
            "rarity": {
                "value": "common"
            },
            "value": [
                "aasimar",
                "divine",
                "evocation",
                "light",
                "visual"
            ]
        }
    },
    "effects": [],
    "flags": {},
    "img": "systems/pf2e/icons/features/feats/feats.webp",
    "name": "Radiate Glory",
    "permission": {
        "default": 0
    },
    "type": "feat"
}
