{
    "_id": "tdtCwmYoBMKzfhEp",
    "data": {
        "actionCategory": {
            "value": ""
        },
        "actionType": {
            "value": "passive"
        },
        "actions": {
            "value": ""
        },
        "description": {
            "chat": "",
            "unidentified": "",
            "value": "<p>You've sworn an oath to put the undead to rest. Add the following tenet to your champion's code after the other tenets: \"You must end the existence of undead you encounter as long as you have a reasonable chance of success; in the unlikely event you find a good undead, you can try to work out a more peaceful way to help it recover from its undead state rather than destroying it in combat, such as helping it complete its unfinished business and find peace.\"</p>\n<p>Your @Compendium[pf2e.actionspf2e.Glimpse of Redemption]{Glimpse of Redemption's} resistance against damage from an undead is 7 + your level.</p>\n<p>You don't consider undead to be legitimate authorities, even in nations ruled by undead.</p>"
        },
        "featType": {
            "value": "class"
        },
        "level": {
            "value": 2
        },
        "location": "",
        "prerequisites": {
            "value": [
                {
                    "value": "tenets of good"
                },
                {
                    "value": "redeemer cause"
                }
            ]
        },
        "rules": [],
        "source": {
            "value": ""
        },
        "traits": {
            "custom": "",
            "rarity": {
                "value": "common"
            },
            "value": [
                "champion",
                "oath"
            ]
        }
    },
    "effects": [],
    "flags": {},
    "img": "systems/pf2e/icons/features/feats/feats.webp",
    "name": "Shining Oath (Redeemer)",
    "permission": {
        "default": 0
    },
    "type": "feat"
}
