{
    "_id": "TW5TY7kSf50uaX71",
    "data": {
        "actionCategory": {
            "value": ""
        },
        "actionType": {
            "value": "passive"
        },
        "actions": {
            "value": ""
        },
        "description": {
            "chat": "",
            "unidentified": "",
            "value": "<p>You are an expert at moving through extremely tight spaces. You gain the @Compendium[pf2e.feats-srd.Quick Squeeze]{Quick Squeeze} skill feat, even if you’re not trained in Acrobatics. When you roll a success on an Acrobatics check to Squeeze, you get a critical success instead.</p>"
        },
        "featType": {
            "value": "ancestry"
        },
        "level": {
            "value": 1
        },
        "location": "",
        "prerequisites": {
            "value": []
        },
        "rules": [],
        "source": {
            "value": ""
        },
        "traits": {
            "custom": "",
            "rarity": {
                "value": "common"
            },
            "value": [
                "kobold"
            ]
        },
        "usage": {
            "value": ""
        }
    },
    "effects": [],
    "flags": {},
    "img": "systems/pf2e/icons/features/feats/feats.webp",
    "name": "Slither",
    "permission": {
        "default": 0
    },
    "type": "feat"
}
