{
    "_id": "WZWSaAwuDgne7Z0c",
    "data": {
        "actionCategory": {
            "value": ""
        },
        "actionType": {
            "value": "passive"
        },
        "actions": {
            "value": ""
        },
        "description": {
            "chat": "",
            "unidentified": "",
            "value": "<p>Sometimes your case splinters into smaller mysteries, but you never lose sight of the big picture. Once per day when you give up on the subject of a lead due to using @Compendium[pf2e.actionspf2e.Pursue a Lead]{Pursue a Lead} again, you can designate the lead you stopped pursuing as your solid lead for the day. Even though you stopped following the solid lead, you can change back to your solid lead any number of times by using a single action, which has the concentrate trait. Doing so ends one of your current leads as normal.</p>\n<p>During your next daily preparations, you can maintain your solid lead or you can remove it; removing it allows you to designate a new solid lead later that day.</p>"
        },
        "featType": {
            "value": "class"
        },
        "level": {
            "value": "2"
        },
        "prerequisites": {
            "value": []
        },
        "rules": [],
        "source": {
            "value": ""
        },
        "traits": {
            "custom": "",
            "rarity": {
                "value": "common"
            },
            "value": [
                "investigator"
            ]
        }
    },
    "effects": [],
    "flags": {},
    "img": "systems/pf2e/icons/features/feats/feats.webp",
    "name": "Solid Lead",
    "permission": {
        "default": 0
    },
    "type": "feat"
}
