{
    "_id": "TGlb3gmSKkJBZt5q",
    "data": {
        "actionCategory": {
            "value": ""
        },
        "actionType": {
            "value": "passive"
        },
        "actions": {
            "value": ""
        },
        "description": {
            "value": "<p>You have an appropriately intense hatred for alghollthus. You gain a +2 circumstance bonus to damage with weapons and unarmed attacks against creatures from the alghollthu family and those that serve alghollthus (the GM determines which creatures serve an alghollthu). In addition, if an alghollthu successfully affects you or one of your allies within 60 feet with an enchantment, your circumstance bonus to damage against that alghollthu increases to +4 for 1 minute.</p>"
        },
        "featType": {
            "value": "ancestry"
        },
        "level": {
            "value": 1
        },
        "location": "",
        "prerequisites": {
            "value": []
        },
        "rules": [],
        "source": {
            "value": ""
        },
        "traits": {
            "custom": "",
            "rarity": {
                "value": "common"
            },
            "value": [
                "azarketi"
            ]
        }
    },
    "effects": [],
    "flags": {},
    "img": "systems/pf2e/icons/default-icons/feats.webp",
    "name": "Striking Retribution",
    "permission": {
        "default": 0
    },
    "type": "feat"
}
