{
    "_id": "H0tffYs7ODMQ3JJj",
    "data": {
        "actionCategory": {
            "value": ""
        },
        "actionType": {
            "value": "passive"
        },
        "actions": {
            "value": ""
        },
        "description": {
            "chat": "",
            "unidentified": "",
            "value": "<p>You are so connected to the wilderness that you can magically jump from place to place within it. You gain the @Compendium[pf2e.spells-srd.Terrain Transposition]{Terrain Transposition} warden spell. Increase the number of Focus Points in your focus pool by 1.</p>"
        },
        "featType": {
            "value": "class"
        },
        "level": {
            "value": "10"
        },
        "prerequisites": {
            "value": [
                {
                    "value": "warden spells"
                }
            ]
        },
        "rules": [],
        "source": {
            "value": ""
        },
        "traits": {
            "custom": "",
            "rarity": {
                "value": "common"
            },
            "value": [
                "ranger"
            ]
        }
    },
    "effects": [],
    "flags": {},
    "img": "systems/pf2e/icons/features/feats/feats.webp",
    "name": "Terrain Transposition",
    "permission": {
        "default": 0
    },
    "type": "feat"
}
