{
    "_id": "iDimfGmQHacwxeh2",
    "data": {
        "actionCategory": {
            "value": ""
        },
        "actionType": {
            "value": "passive"
        },
        "actions": {
            "value": ""
        },
        "description": {
            "chat": "",
            "unidentified": "",
            "value": "<p>The spells of those you have @Compendium[pf2e.actionspf2e.Demoralize]{Demoralize} are less effective on you. If you succeed in Demoralizing a creature, for the next 24 hours you gain a +1 circumstance bonus to saving throws against that creature's spells.</p>"
        },
        "featType": {
            "value": "skill"
        },
        "level": {
            "value": 2
        },
        "location": "",
        "prerequisites": {
            "value": [
                {
                    "value": "expert in Intimidation"
                }
            ]
        },
        "rules": [
            {
                "key": "PF2E.RuleElement.FlatModifier",
                "label": "Terrifying Resistance (vs. spells from demoralized",
                "predicate": {
                    "all": [
                        "demoralized-by-you",
                        "spell"
                    ]
                },
                "selector": "saving-throw",
                "type": "circumstance",
                "value": 1
            }
        ],
        "source": {
            "value": ""
        },
        "traits": {
            "custom": "",
            "rarity": {
                "value": "common"
            },
            "value": [
                "general",
                "skill"
            ]
        }
    },
    "effects": [],
    "flags": {},
    "img": "systems/pf2e/icons/features/feats/feats.webp",
    "name": "Terrifying Resistance",
    "permission": {
        "default": 0
    },
    "type": "feat"
}
