{
    "_id": "A1RzkLCj7mXJI1IY",
    "data": {
        "actionCategory": {
            "value": ""
        },
        "actionType": {
            "value": "passive"
        },
        "actions": {
            "value": ""
        },
        "description": {
            "chat": "",
            "unidentified": "",
            "value": "<p><strong>Access</strong> Uhlam ethnicity<br /></p>\n<hr />\n<p>Your family instilled the values of care and patience into you from a young age. You gain a +1 circumstance bonus to checks to perform a downtime activity.</p>"
        },
        "featType": {
            "value": "ancestry"
        },
        "level": {
            "value": 1
        },
        "location": "",
        "prerequisites": {
            "value": []
        },
        "rules": [],
        "source": {
            "value": ""
        },
        "traits": {
            "custom": "",
            "rarity": {
                "value": "uncommon"
            },
            "value": [
                "halfling"
            ]
        }
    },
    "effects": [],
    "flags": {},
    "img": "systems/pf2e/icons/features/feats/feats.webp",
    "name": "Unassuming Dedication",
    "permission": {
        "default": 0
    },
    "type": "feat"
}
