{
    "_id": "Qjn9ErWY6wuIK9z6",
    "data": {
        "actionCategory": {
            "value": ""
        },
        "actionType": {
            "value": "reaction"
        },
        "actions": {
            "value": ""
        },
        "description": {
            "chat": "",
            "unidentified": "",
            "value": "<p><strong>Trigger</strong> You attempt a flat check for Steady Spellcasting, but you haven't rolled yet.<br /></p>\n<hr />\n<p>You carefully ward your spell by drawing from a mantle of magical energy you prepared to protect your casting, increasing your chance of retaining the spell. You reduce the DC of the flat check for Steady Spellcasting from 15 to 10.</p>"
        },
        "featType": {
            "value": "archetype"
        },
        "level": {
            "value": 10
        },
        "prerequisites": {
            "value": [
                {
                    "value": "Spellmaster Dedication"
                },
                {
                    "value": "Steady Spellcasting"
                }
            ]
        },
        "rules": [],
        "source": {
            "value": ""
        },
        "traits": {
            "custom": "",
            "rarity": {
                "value": "common"
            },
            "value": [
                "archetype"
            ]
        }
    },
    "effects": [],
    "flags": {},
    "img": "systems/pf2e/icons/features/feats/feats.webp",
    "name": "Ward Casting",
    "permission": {
        "default": 0
    },
    "type": "feat"
}
