{
    "_id": "rA7ZM6WGnJNrWTmo",
    "data": {
        "actionCategory": {
            "value": ""
        },
        "actionType": {
            "value": "passive"
        },
        "actions": {
            "value": ""
        },
        "description": {
            "chat": "",
            "unidentified": "",
            "value": "<p><strong>Moderate Curse</strong>: Tactical advantages never seem to work the way you planned. You can't receive a circumstance bonus to your attack rolls, and enemies don't take any circumstance penalties to their AC against your attacks.</p>"
        },
        "featType": {
            "value": "curse"
        },
        "level": {
            "value": "0"
        },
        "prerequisites": {
            "value": []
        },
        "rules": [],
        "source": {
            "value": ""
        },
        "traits": {
            "custom": "",
            "rarity": {
                "value": "common"
            },
            "selected": {},
            "value": []
        }
    },
    "effects": [],
    "flags": {},
    "img": "systems/pf2e/icons/deity/Iomedae.webp",
    "name": "Iomedae - Moderate Curse",
    "permission": {
        "default": 0
    },
    "type": "feat"
}
