{
    "_id": "alyNtkHLNnt98Ewz",
    "data": {
        "description": {
            "value": "<p>Granted by @Compendium[pf2e.spells-srd.Lay on Hands]{Lay on Hands} if you have @Compendium[pf2e.feats-srd.Accelerating Touch]{Accelerating Touch}.</p>\n<p>If the target is one of your allies, they also gain a +2 status bonus to AC and a +10-foot status bonus to Speed for 1 round.</p>"
        },
        "duration": {
            "expiry": "turn-start",
            "sustained": false,
            "unit": "rounds",
            "value": 1
        },
        "level": {
            "value": 1
        },
        "rules": [
            {
                "key": "PF2E.RuleElement.FlatModifier",
                "label": "Lay on Hands",
                "selector": "ac",
                "type": "status",
                "value": 2
            },
            {
                "key": "PF2E.RuleElement.FlatModifier",
                "label": "Accelerating Touch",
                "selector": "speed",
                "type": "status",
                "value": 10
            }
        ],
        "source": {
            "value": ""
        },
        "start": {
            "initiative": null,
            "value": 0
        },
        "target": null,
        "tokenIcon": {
            "show": true
        },
        "traits": {
            "custom": "",
            "rarity": {
                "value": "common"
            },
            "value": []
        }
    },
    "effects": [],
    "flags": {},
    "img": "systems/pf2e/icons/spells/lay-on-hands.webp",
    "name": "Spell Effect: Accelerating Touch",
    "permission": {
        "default": 0
    },
    "type": "effect"
}
