{
    "_id": "XMBoKRRyooKnGkHk",
    "data": {
        "description": {
            "value": "<p>Granted by @Compendium[pf2e.spells-srd.Practice Makes Perfect]{Practice Makes Perfect}.</p>\n<p>The target gains a +2 status bonus to the triggering check, or a +3 bonus if the target has master or better proficiency in the skill.</p>"
        },
        "duration": {
            "expiry": "turn-start",
            "sustained": false,
            "unit": "unlimited",
            "value": -1
        },
        "level": {
            "value": 1
        },
        "rules": [
            {
                "key": "PF2E.RuleElement.FlatModifier",
                "label": "Practise Makes Perfect",
                "predicate": {
                    "not": [
                        "proficiency:master",
                        "proficiency:legendary"
                    ]
                },
                "selector": "skill-check",
                "type": "status",
                "value": 2
            },
            {
                "key": "PF2E.RuleElement.FlatModifier",
                "label": "Practise Makes Perfect (master or legendary)",
                "predicate": {
                    "any": [
                        "proficiency:master",
                        "proficiency:legendary"
                    ]
                },
                "selector": "skill-check",
                "type": "status",
                "value": 3
            }
        ],
        "source": {
            "value": ""
        },
        "start": {
            "initiative": null,
            "value": 0
        },
        "target": null,
        "tokenIcon": {
            "show": true
        },
        "traits": {
            "custom": "",
            "rarity": {
                "value": "common"
            },
            "value": []
        }
    },
    "effects": [],
    "flags": {},
    "img": "systems/pf2e/icons/spells/practice-makes-perfect.webp",
    "name": "Spell Effect: Practise Makes Perfect",
    "permission": {
        "default": 0
    },
    "type": "effect"
}
