{
    "_id": "oaRt210JV4GZIHmJ",
    "data": {
        "description": {
            "value": "<p>Granted by @Compendium[pf2e.spells-srd.Lay on Hands]{Lay on Hands} if you have @Compendium[pf2e.feats-srd.Rejuvenating Touch]{Rejuvenating Touch}.</p>\n<p>An ally that recovers Hit Points from your @Compendium[pf2e.spells-srd.Lay on Hands]{Lay on Hands} gains 10 temporary Hit Points at the start of their turn during each of the next 10 rounds. This effect ends if the ally is knocked @Compendium[pf2e.conditionitems.Unconscious]{Unconscious}.</p>"
        },
        "duration": {
            "expiry": "turn-start",
            "sustained": false,
            "unit": "rounds",
            "value": 10
        },
        "level": {
            "value": 1
        },
        "rules": [
            {
                "key": "PF2E.RuleElement.FlatModifier",
                "label": "Lay on Hands",
                "selector": "ac",
                "type": "status",
                "value": 2
            },
            {
                "key": "PF2E.RuleElement.TempHP",
                "value": 10
            }
        ],
        "source": {
            "value": ""
        },
        "start": {
            "initiative": null,
            "value": 0
        },
        "target": null,
        "tokenIcon": {
            "show": true
        },
        "traits": {
            "custom": "",
            "rarity": {
                "value": "common"
            },
            "value": []
        }
    },
    "effects": [],
    "flags": {},
    "img": "systems/pf2e/icons/spells/lay-on-hands.webp",
    "name": "Spell Effect: Rejuvenating Touch",
    "permission": {
        "default": 0
    },
    "type": "effect"
}
