{
    "_id": "0s6YaL3IjqECmjab",
    "data": {
        "description": {
            "value": "<p>Granted by @Compendium[pf2e.spells-srd.Roar of the Wyrm]{Roar of the Wyrm}.</p>\n<p>You gain a +2 circumstance bonus to Diplomacy checks for 10 minutes against dragons that were in the area at the time of casting.</p>"
        },
        "duration": {
            "expiry": "turn-start",
            "sustained": false,
            "unit": "minutes",
            "value": 10
        },
        "level": {
            "value": 4
        },
        "rules": [
            {
                "key": "PF2E.RuleElement.FlatModifier",
                "label": "Roar of the Wyrm (dragons in area)",
                "predicate": {
                    "all": [
                        "target:dragon"
                    ]
                },
                "selector": "diplomacy",
                "type": "circumstance",
                "value": 2
            }
        ],
        "source": {
            "value": ""
        },
        "start": {
            "initiative": null,
            "value": 0
        },
        "target": null,
        "tokenIcon": {
            "show": true
        },
        "traits": {
            "custom": "",
            "rarity": {
                "value": "common"
            },
            "value": []
        }
    },
    "effects": [],
    "flags": {},
    "img": "systems/pf2e/icons/spells/roar-of-the-wyrm.webp",
    "name": "Spell Effect: Roar of the Wyrm",
    "permission": {
        "default": 0
    },
    "type": "effect"
}
