{
    "_id": "4hfQEMiEOBbqelAh",
    "actorIds": [],
    "author": "uAvrJeywnWLwQIhl",
    "command": "game.pf2e.actions.raiseAShield({ actors: [token.actor ?? actor].filter((actor) => actor !== null) })",
    "flags": {},
    "img": "systems/pf2e/icons/actions/raise-a-shield.webp",
    "name": "Raise a Shield",
    "permission": {
        "default": 0
    },
    "scope": "global",
    "type": "script"
}
