{
    "_id": "SNeVaUBTHwvoO6kr",
    "data": {
        "actionCategory": {
            "value": ""
        },
        "actionType": {
            "value": "passive"
        },
        "actions": {
            "value": ""
        },
        "description": {
            "chat": "",
            "unidentified": "",
            "value": "<p>As a conjurer, you summon creatures and objects from places beyond, and use magic to transport to distant locales. You understand that the true key to victory is strength in numbers. You add one 1st-level conjuration spell (such as @Compendium[pf2e.spells-srd.Summon Animal]{Summon Animal}) to your spellbook. You learn the @Compendium[pf2e.spells-srd.Augment Summoning]{Augment Summoning} school spell.</p>"
        },
        "featType": {
            "value": "classfeature"
        },
        "level": {
            "value": "1"
        },
        "prerequisites": {
            "value": []
        },
        "rules": [],
        "source": {
            "value": ""
        },
        "traits": {
            "custom": "",
            "rarity": {
                "value": "common"
            },
            "value": [
                "wizard"
            ]
        }
    },
    "effects": [],
    "flags": {},
    "img": "systems/pf2e/icons/features/classes/conjuration.webp",
    "name": "Arcane School: Conjuration",
    "permission": {
        "default": 0
    },
    "type": "feat"
}
