{
    "_id": "x5jaCJxsmD5sx3KB",
    "data": {
        "actionCategory": {
            "value": ""
        },
        "actionType": {
            "value": "passive"
        },
        "actions": {
            "value": ""
        },
        "description": {
            "chat": "",
            "unidentified": "",
            "value": "<p>You have spent so much time in armor that you know how to make the most of its protection. Your proficiency ranks for light, medium, and heavy armor, as well as for unarmored defense, increase to expert. You gain the armor specialization effects of medium and heavy armor.</p>"
        },
        "featType": {
            "value": "classfeature"
        },
        "level": {
            "value": 7
        },
        "location": "",
        "prerequisites": {
            "value": []
        },
        "rules": [],
        "source": {
            "value": ""
        },
        "traits": {
            "custom": "",
            "rarity": {
                "value": "common"
            },
            "value": [
                "champion"
            ]
        }
    },
    "effects": [
        {
            "_id": "b7f3lLSXIq7eYFRf",
            "changes": [
                {
                    "key": "data.martial.unarmored.rank",
                    "mode": 4,
                    "value": 2
                },
                {
                    "key": "data.martial.light.rank",
                    "mode": 4,
                    "value": 2
                },
                {
                    "key": "data.martial.medium.rank",
                    "mode": 4,
                    "value": 2
                },
                {
                    "key": "data.martial.heavy.rank",
                    "mode": 4,
                    "value": 2
                }
            ],
            "disabled": false,
            "duration": {
                "rounds": null,
                "seconds": null,
                "startRound": null,
                "startTime": null,
                "startTurn": null,
                "turns": null
            },
            "flags": {},
            "icon": "systems/pf2e/icons/features/classes/armor-expertise.webp",
            "label": "Armor Expertise (Level 7)",
            "origin": "",
            "tint": "",
            "transfer": true
        }
    ],
    "flags": {},
    "img": "systems/pf2e/icons/features/classes/armor-expertise.webp",
    "name": "Armor Expertise (Level 7)",
    "permission": {
        "default": 0
    },
    "type": "feat"
}
