{
    "_id": "ZHabYxSgYK0XbjhM",
    "data": {
        "actionCategory": {
            "value": ""
        },
        "actionType": {
            "value": "passive"
        },
        "actions": {
            "value": ""
        },
        "description": {
            "chat": "",
            "unidentified": "",
            "value": "<p>The blood of dragons flows through your veins. These beasts are both fearsome in combat and skilled at magic</p>\n<p><strong>Spell List</strong> arcane</p>\n<p><strong>Bloodline Skills</strong> Arcana, Intimidation</p>\n<p><strong>Granted Spells</strong> cantrip @Compendium[pf2e.spells-srd.Shield]{Shield}, 1st: @Compendium[pf2e.spells-srd.True Strike]{True Strike}, 2nd: @Compendium[pf2e.spells-srd.Resist Energy]{Resist Energy}, 3rd: @Compendium[pf2e.spells-srd.Haste]{Haste}, 4th: @Compendium[pf2e.spells-srd.Spell Immunity]{Spell Immunity}, 5th: @Compendium[pf2e.spells-srd.Chromatic Wall]{Chromatic Wall}, 6th: @Compendium[pf2e.spells-srd.Dragon Form]{Dragon Form}, 7th: @Compendium[pf2e.spells-srd.Mask of Terror]{Mask of Terror}, 8th: @Compendium[pf2e.spells-srd.Prismatic Wall]{Prismatic Wall}, 9th: @Compendium[pf2e.spells-srd.Overwhelming Presence]{Overwhelming Presence}</p>\n<p><strong>Bloodline Spells</strong> initial: @Compendium[pf2e.spells-srd.Dragon Claws]{Dragon Claws}, advanced: @Compendium[pf2e.spells-srd.Dragon Breath]{Dragon Breath}, greater: @Compendium[pf2e.spells-srd.Dragon Wings]{Dragon Wings}</p>\n<p><strong>Blood Magic</strong> Draconic scales grow briefly on you or one target, granting a +1 status bonus to AC for 1 round.</p>\n<p>@Compendium[pf2e.feature-effects.Effect: Draconic Blood Magic]{Effect: Draconic Blood Magic}</p>\n<h2 class=\"title\">Dragon Type</h2>\n<p>At 1st level, choose the type of dragon that influenced your bloodline. You can't change your dragon type later. This affects how some of your bloodline spells function.</p>\n<p>The good metallic dragons and their damage types are brass (fire), bronze (electricity), copper (acid), gold (fire), and silver (cold).</p>\n<p>The evil chromatic dragons and their damage types are black (acid), blue (electricity), green (poison), red (fire), and white (cold).</p>"
        },
        "featType": {
            "value": "classfeature"
        },
        "level": {
            "value": 1
        },
        "location": "",
        "prerequisites": {
            "value": []
        },
        "rules": [],
        "source": {
            "value": ""
        },
        "traits": {
            "custom": "",
            "rarity": {
                "value": "common"
            },
            "value": [
                "sorcerer"
            ]
        }
    },
    "effects": [
        {
            "_id": "TISs8lGZ9A1ftmsD",
            "changes": [
                {
                    "key": "data.skills.arc.rank",
                    "mode": 4,
                    "value": 1
                },
                {
                    "key": "data.skills.itm.rank",
                    "mode": 4,
                    "value": 1
                }
            ],
            "disabled": false,
            "duration": {
                "rounds": null,
                "seconds": null,
                "startRound": null,
                "startTime": null,
                "startTurn": null,
                "turns": null
            },
            "flags": {},
            "icon": "systems/pf2e/icons/features/classes/draconic.webp",
            "label": "Bloodline: Draconic",
            "origin": "",
            "tint": "",
            "transfer": true
        }
    ],
    "flags": {},
    "img": "systems/pf2e/icons/features/classes/draconic.webp",
    "name": "Bloodline: Draconic",
    "permission": {
        "default": 0
    },
    "type": "feat"
}
