{
    "_id": "KBhwFjdptrKyN5EM",
    "data": {
        "actionCategory": {
            "value": ""
        },
        "actionType": {
            "value": "passive"
        },
        "actions": {
            "value": ""
        },
        "description": {
            "chat": "",
            "unidentified": "",
            "value": "<p>You boast, taunt, and psychologically needle your foes.</p>\n<p>You are trained in Intimidation. You gain @Compendium[pf2e.classfeatures.Panache]{Panache} during an encounter whenever you successfully @Compendium[pf2e.actionspf2e.Demoralize]{Demoralize} a foe.</p>"
        },
        "featType": {
            "value": "classfeature"
        },
        "level": {
            "value": 1
        },
        "location": "",
        "prerequisites": {
            "value": []
        },
        "rules": [
            {
                "key": "PF2E.RuleElement.FlatModifier",
                "predicate": {
                    "all": [
                        "panache"
                    ],
                    "any": [
                        "action:demoralize"
                    ]
                },
                "selector": "intimidation",
                "type": "circumstance",
                "value": 1
            }
        ],
        "source": {
            "value": ""
        },
        "traits": {
            "custom": "",
            "rarity": {
                "value": "common"
            },
            "value": [
                "swashbuckler"
            ]
        }
    },
    "effects": [
        {
            "_id": "Uv6UmXye2r9LdXXf",
            "changes": [
                {
                    "key": "data.skills.itm.rank",
                    "mode": 4,
                    "value": 1
                }
            ],
            "disabled": false,
            "duration": {
                "rounds": null,
                "seconds": null,
                "startRound": null,
                "startTime": null,
                "startTurn": null,
                "turns": null
            },
            "flags": {},
            "icon": "systems/pf2e/icons/features/classes/braggart-style.webp",
            "label": "Braggart Style",
            "origin": "",
            "tint": "",
            "transfer": true
        }
    ],
    "flags": {},
    "img": "systems/pf2e/icons/features/classes/braggart-style.webp",
    "name": "Braggart Style",
    "permission": {
        "default": 0
    },
    "type": "feat"
}
