{
    "_id": "W1FkMHYVDg3yTU5r",
    "data": {
        "actionCategory": {
            "value": ""
        },
        "actionType": {
            "value": "passive"
        },
        "actions": {
            "value": ""
        },
        "description": {
            "chat": "",
            "unidentified": "",
            "value": "<p>Your opportunistic attacks are particularly detrimental. When you use Debilitating Strike, you can apply two debilitations simultaneously; removing one removes both.</p>"
        },
        "featType": {
            "value": "classfeature"
        },
        "level": {
            "value": "15"
        },
        "prerequisites": {
            "value": []
        },
        "rules": [],
        "source": {
            "value": ""
        },
        "traits": {
            "custom": "",
            "rarity": {
                "value": "common"
            },
            "value": [
                "rogue"
            ]
        }
    },
    "effects": [],
    "flags": {},
    "img": "systems/pf2e/icons/features/classes/double-debilitation.webp",
    "name": "Double Debilitation",
    "permission": {
        "default": 0
    },
    "type": "feat"
}
