{
    "_id": "aiwxBj5MjnafCMyn",
    "data": {
        "actionCategory": {
            "value": ""
        },
        "actionType": {
            "value": "passive"
        },
        "actions": {
            "value": ""
        },
        "description": {
            "value": "<p>You gain the @Compendium[pf2e.feats-srd.Domain Initiate]{Domain Initiate} cleric feat.</p>"
        },
        "featType": {
            "value": "classfeature"
        },
        "level": {
            "value": 1
        },
        "location": "",
        "prerequisites": {
            "value": []
        },
        "rules": [],
        "source": {
            "value": ""
        },
        "traits": {
            "custom": "",
            "rarity": {
                "value": "common"
            },
            "value": [
                "cleric"
            ]
        }
    },
    "effects": [],
    "flags": {},
    "img": "systems/pf2e/icons/features/classes/cloistered-cleric.webp",
    "name": "First Doctrine (Cloistered Cleric)",
    "permission": {
        "default": 0
    },
    "type": "feat"
}
