{
    "_id": "o8nHreMyiLi64rZz",
    "data": {
        "actionCategory": {
            "value": ""
        },
        "actionType": {
            "value": "passive"
        },
        "actions": {
            "value": ""
        },
        "description": {
            "value": "<p>You gain the fourth benefit of your doctrine:</p>\n<ul>\n<li>@Compendium[pf2e.classfeatures.Fourth Doctrine (Cloistered Cleric)]{Cloistered Cleric}</li>\n<li>@Compendium[pf2e.classfeatures.Fourth Doctrine (Warpriest)]{Warpriest}</li>\n</ul>"
        },
        "featType": {
            "value": "classfeature"
        },
        "level": {
            "value": 11
        },
        "location": "",
        "prerequisites": {
            "value": []
        },
        "rules": [],
        "source": {
            "value": ""
        },
        "traits": {
            "custom": "",
            "rarity": {
                "value": "common"
            },
            "value": [
                "cleric"
            ]
        }
    },
    "effects": [],
    "flags": {},
    "img": "systems/pf2e/icons/default-icons/feat.svg",
    "name": "Fourth Doctrine",
    "permission": {
        "default": 0
    },
    "type": "feat"
}
