{
    "_id": "rz87RgR1crWTd7j5",
    "data": {
        "actionCategory": {
            "value": ""
        },
        "actionType": {
            "value": "passive"
        },
        "actions": {
            "value": ""
        },
        "description": {
            "chat": "",
            "unidentified": "",
            "value": "<p>Your reflexes are lightning fast. Your proficiency rank for Reflex saves increases to expert.</p>"
        },
        "featType": {
            "value": "classfeature"
        },
        "level": {
            "value": 5
        },
        "location": "",
        "prerequisites": {
            "value": []
        },
        "rules": [],
        "source": {
            "value": ""
        },
        "traits": {
            "custom": "",
            "rarity": {
                "value": "common"
            },
            "value": [
                "druid",
                "wizard"
            ]
        }
    },
    "effects": [
        {
            "_id": "1KBSjaSEqOn5nkj6",
            "changes": [
                {
                    "key": "data.saves.reflex.rank",
                    "mode": 4,
                    "value": 2
                }
            ],
            "disabled": false,
            "duration": {
                "rounds": null,
                "seconds": null,
                "startRound": null,
                "startTime": null,
                "startTurn": null,
                "turns": null
            },
            "flags": {},
            "icon": "systems/pf2e/icons/features/classes/lightning-reflexes.webp",
            "label": "Lightning Reflexes",
            "origin": "",
            "tint": "",
            "transfer": true
        }
    ],
    "flags": {},
    "img": "systems/pf2e/icons/features/classes/lightning-reflexes.webp",
    "name": "Lightning Reflexes (Level 5)",
    "permission": {
        "default": 0
    },
    "type": "feat"
}
