{
    "_id": "cU2ofQLj7pg6wTSi",
    "data": {
        "actionCategory": {
            "value": ""
        },
        "actionType": {
            "value": "passive"
        },
        "actions": {
            "value": ""
        },
        "description": {
            "value": "<p>Your inquiries into the alchemical nature of the universe have led you to focus on a particular field of research. You might have a degree from a scientific institute, correspond with other researchers in your field, or work as a genius loner. Choose a field of research.</p>\n<p>Your research field adds a number of formulas to your formula book; these are your signature items. When using a batch of infused reagents to create your signature items using advanced alchemy, you create three items instead of two. Each time you gain a level, you can swap one of your signature items with another formula in your formula book. This new signature item must be on your research field's list of possible signature items.</p>\n<hr />\n<ul>\n<li>@Compendium[pf2e.classfeatures.Bomber]{Bomber}</li>\n<li>@Compendium[pf2e.classfeatures.Chirurgeon]{Chirurgeon}</li>\n<li>@Compendium[pf2e.classfeatures.Mutagenist]{Mutagenist}</li>\n<li>@Compendium[pf2e.classfeatures.Toxicologist]{Toxicologist}</li>\n</ul>"
        },
        "featType": {
            "value": "classfeature"
        },
        "level": {
            "value": 1
        },
        "location": "",
        "prerequisites": {
            "value": []
        },
        "rules": [],
        "source": {
            "value": ""
        },
        "traits": {
            "custom": "",
            "rarity": {
                "value": "common"
            },
            "value": [
                "alchemist"
            ]
        }
    },
    "effects": [],
    "flags": {},
    "img": "systems/pf2e/icons/default-icons/feat.svg",
    "name": "Research Field",
    "permission": {
        "default": 0
    },
    "type": "feat"
}
