{
    "_id": "uGuCGQvUmioFV2Bd",
    "data": {
        "actionCategory": {
            "value": ""
        },
        "actionType": {
            "value": "passive"
        },
        "actions": {
            "value": ""
        },
        "description": {
            "chat": "",
            "unidentified": "",
            "value": "<p>As you started on the path of the rogue, you began to develop your own style to pursue your illicit activities. Your racket shapes your rogue techniques and the way you approach a job, while building your reputation in the criminal underworld for a certain type of work. A client with deep pockets might even hire a team of rogues for a particular heist, each specializing in a different racket, in order to cover all the bases. Choose a rogue's racket.</p>\n<p>Rackets can be found here:</p>\n<ul>\n<li>@Compendium[pf2e.classfeatures.Eldritch Trickster Racket]{Eldritch Trickster Racket},</li>\n<li>@Compendium[pf2e.classfeatures.Mastermind Racket]{Mastermind Racket},</li>\n<li>@Compendium[pf2e.classfeatures.Ruffian Racket]{Ruffian Racket},</li>\n<li>@Compendium[pf2e.classfeatures.Scoundrel Racket]{Scoundrel Racket}, and</li>\n<li>@Compendium[pf2e.classfeatures.Thief Racket]{Thief Racket}</li>\n</ul>"
        },
        "featType": {
            "value": "classfeature"
        },
        "level": {
            "value": 1
        },
        "location": "",
        "prerequisites": {
            "value": []
        },
        "rules": [],
        "source": {
            "value": ""
        },
        "traits": {
            "custom": "",
            "rarity": {
                "value": "common"
            },
            "value": [
                "rogue"
            ]
        }
    },
    "effects": [],
    "flags": {},
    "img": "systems/pf2e/icons/features/classes/rogues-racket.webp",
    "name": "Rogue's Racket",
    "permission": {
        "default": 0
    },
    "type": "feat"
}
