{
    "_id": "v8UNEJR5IDKi8yqa",
    "data": {
        "actionCategory": {
            "value": ""
        },
        "actionType": {
            "value": "passive"
        },
        "actions": {
            "value": ""
        },
        "description": {
            "chat": "",
            "unidentified": "",
            "value": "<p>You have become thoroughly familiar with the tools of your trade. You gain expert proficiency in simple weapons and unarmed attacks, as well as the rapier, sap, shortbow, and shortsword. When you critically succeed at an attack roll against a flat-footed creature while using an agile or finesse simple weapon or any of the listed weapons, you apply the critical specialization effect for the weapon you're wielding.</p>"
        },
        "featType": {
            "value": "classfeature"
        },
        "level": {
            "value": 5
        },
        "location": "",
        "prerequisites": {
            "value": []
        },
        "rules": [],
        "source": {
            "value": ""
        },
        "traits": {
            "custom": "",
            "rarity": {
                "value": "common"
            },
            "value": [
                "rogue"
            ]
        }
    },
    "effects": [
        {
            "_id": "VdcysN5i0pLoM3uc",
            "changes": [
                {
                    "key": "data.martial.simple.rank",
                    "mode": 4,
                    "value": 2
                },
                {
                    "key": "data.martial.weapon-base-rapier.rank",
                    "mode": 4,
                    "value": 2
                },
                {
                    "key": "data.martial.weapon-base-sap.rank",
                    "mode": 4,
                    "value": 2
                },
                {
                    "key": "data.martial.weapon-base-shortbow.rank",
                    "mode": 4,
                    "value": 2
                },
                {
                    "key": "data.martial.weapon-base-shortsword.rank",
                    "mode": 4,
                    "value": 2
                },
                {
                    "key": "data.martial.unarmed.rank",
                    "mode": 4,
                    "value": 2
                }
            ],
            "disabled": false,
            "duration": {
                "rounds": null,
                "seconds": null,
                "startRound": null,
                "startTime": null,
                "startTurn": null,
                "turns": null
            },
            "flags": {},
            "icon": "systems/pf2e/icons/features/classes/weapon-tricks.webp",
            "label": "Weapon Tricks",
            "origin": "",
            "tint": "",
            "transfer": true
        }
    ],
    "flags": {},
    "img": "systems/pf2e/icons/features/classes/weapon-tricks.webp",
    "name": "Weapon Tricks",
    "permission": {
        "default": 0
    },
    "type": "feat"
}
