{
    "_id": "WqPhJNzLa8vSjrH6",
    "data": {
        "ability": {
            "value": ""
        },
        "area": {
            "areaType": "burst",
            "value": 10
        },
        "areasize": {
            "value": "10-foot burst"
        },
        "category": {
            "value": "spell"
        },
        "components": {
            "value": "somatic, verbal"
        },
        "cost": {
            "value": ""
        },
        "damage": {
            "applyMod": false,
            "value": ""
        },
        "damageType": {
            "value": ""
        },
        "description": {
            "chat": "",
            "unidentified": "",
            "value": "<p>You use your mind to manipulate unattended objects in the area, temporarily animating them to attack. The objects hover in the air, then hurl themselves at nearby creatures in a chaotic flurry of debris. This assault deals [[/r 2d10 #bludgeoning]] bludgeoning damage (basic Reflex save) to each creature in the area. On subsequent rounds, you can @Compendium[pf2e.actionspf2e.Sustain a Spell]{Sustain the Spell}, dealing [[/r 1d10#bludgeoning]] bludgeoning damage (basic Reflex save) to each creature in the area.</p>\n<hr />\n<p><strong>Heightened (+2)</strong> The initial damage increases by [[/r 2d10]] and the subsequent damage increases by [[/r 1d10]].</p>"
        },
        "duration": {
            "value": "sustained up to 1 minute"
        },
        "hasCounteractCheck": {
            "value": false
        },
        "level": {
            "value": 2
        },
        "location": {
            "value": ""
        },
        "materials": {
            "value": ""
        },
        "prepared": {
            "value": false
        },
        "primarycheck": {
            "value": ""
        },
        "range": {
            "value": "120 feet"
        },
        "rules": [],
        "save": {
            "basic": "basic",
            "value": "reflex"
        },
        "scaling": {
            "formula": "",
            "mode": "none"
        },
        "school": {
            "value": "evocation"
        },
        "secondarycasters": {
            "value": ""
        },
        "secondarycheck": {
            "value": ""
        },
        "source": {
            "value": ""
        },
        "spellType": {
            "value": "save"
        },
        "sustained": {
            "value": false
        },
        "target": {
            "value": ""
        },
        "time": {
            "value": "2"
        },
        "traditions": {
            "value": [
                "arcane",
                "occult"
            ]
        },
        "traits": {
            "custom": "",
            "rarity": {
                "value": "common"
            },
            "value": [
                "evocation"
            ]
        }
    },
    "effects": [],
    "flags": {},
    "img": "systems/pf2e/icons/spells/animated-assault.webp",
    "name": "Animated Assault",
    "permission": {
        "default": 0
    },
    "type": "spell"
}
