{
    "_id": "nA0XlPsnMNrQMpio",
    "data": {
        "ability": {
            "value": ""
        },
        "area": {
            "value": ""
        },
        "areasize": {
            "value": "circle centered on you up to 1 mile in radius"
        },
        "category": {
            "value": "ritual"
        },
        "components": {
            "value": ""
        },
        "cost": {
            "value": "mystical paint, elaborate veils, and powdered  minerals worth 20,000 gp total"
        },
        "damage": {
            "applyMod": false,
            "value": ""
        },
        "damageType": {
            "value": ""
        },
        "description": {
            "chat": "",
            "unidentified": "",
            "value": "<p>You draw a permanent series of complex illusions over the target settlement, choosing the look, sound, feel, and smell of the structures, terrain, and creatures within at the time the ritual is cast. You can alter the appearance of existing structures and creatures, and you can add illusory structures or creatures.</p>\n<p>For example, you could cause everything and everyone in the target area to appear green, create an illusory forest with a thick canopy that obscures the settlement from outside view, or make empty ruins seem inhabited and pristine. When you create the facade, you determine which illusory elements remain static (limited to basic natural movement, such as flags blowing in the breeze) and which follow a basic program (for example, a daily parade in the town square, complete with marching band). You're unable to alter the programs after you create the facade.</p>\n<p>You can disguise creatures as you please, with the same effects as a 3rd-level @Compendium[pf2e.spells-srd.Illusory Disguise]{Illusory Disguise}. If a creature affected by the facade leaves the area, any illusions affecting it fade after 1 day. You decide when casting the ritual whether newcomers are disguised by the illusions, and whether the disguise appears immediately or after a set period, up to 1 week.</p>\n<p>A creature that interacts with the target settlement in a way that would suggest or reveal the illusory nature of the facade, such as by trying to paint a building affected by the facade or climbing an illusory structure, can attempt to disbelieve the illusion. The illusions created by the spell are harmless, so an illusory river of lava wouldn't cause damage, nor could thorns on an illusory rose bush prick someone.</p>\n<hr />\n<p><strong>Critical Success</strong> You create the facade as described, and you can alter the programs within your facade by spending 1 day to reprogram them.</p>\n<p><strong>Success</strong> You create the facade as described.</p>\n<p><strong>Failure</strong> Your illusions fail and the ritual has no effect.</p>\n<p><strong>Critical Failure</strong> Your ritual produces unexpected and uncontrolled illusions different from what you had planned, such as unexpected and slowly shifting colors across the buildings, unpleasant smells, and creatures appearing as skeletons. These effects fade after 1 month.</p>\n<hr />\n<p><strong>Heightened (10th)</strong> The cost increases to 100,000 gp and the radius can be up to 5 miles.</p>"
        },
        "duration": {
            "value": "unlimited"
        },
        "hasCounteractCheck": {
            "value": false
        },
        "level": {
            "value": 9
        },
        "location": {
            "value": ""
        },
        "materials": {
            "value": ""
        },
        "prepared": {
            "value": ""
        },
        "primarycheck": {
            "value": "Arcana or Occultism (legendary);"
        },
        "range": {
            "value": ""
        },
        "rules": [],
        "save": {
            "basic": "",
            "value": ""
        },
        "scaling": {
            "formula": "",
            "mode": "none"
        },
        "school": {
            "value": "illusion"
        },
        "secondarycasters": {
            "value": "3"
        },
        "secondarycheck": {
            "value": "Society or Survival; Deception; Stealth"
        },
        "source": {
            "value": ""
        },
        "spellType": {
            "value": "utility"
        },
        "sustained": {
            "value": false
        },
        "target": {
            "value": "1 settlement and its residents"
        },
        "time": {
            "value": "1 week"
        },
        "traditions": {
            "value": []
        },
        "traits": {
            "custom": "",
            "rarity": {
                "value": "rare"
            },
            "value": [
                "illusion"
            ]
        }
    },
    "effects": [],
    "flags": {},
    "img": "systems/pf2e/icons/spells/fantastic-facade.webp",
    "name": "Fantastic Facade",
    "permission": {
        "default": 0
    },
    "type": "spell"
}
