{
    "_id": "vhe9DduqaivMs8FV",
    "data": {
        "ability": {
            "value": ""
        },
        "area": {
            "areaType": "",
            "value": null
        },
        "areasize": {
            "value": ""
        },
        "category": {
            "value": "focus"
        },
        "components": {
            "value": "material, somatic"
        },
        "cost": {
            "value": ""
        },
        "damage": {
            "applyMod": false,
            "value": ""
        },
        "damageType": {
            "value": ""
        },
        "description": {
            "chat": "",
            "unidentified": "",
            "value": "<p><span>Glowing letters assemble in the air, providing a transcription of the target's speech in all languages you speak. For the spell's duration, any words spoken aloud by the target are spelled out in letters in front of them. When you Cast the Spell, you can choose whether these letters are visible to all creatures or only certain creatures you specify. Any words the target mouths silently are similarly spelled out, allowing the target to communicate silently or in areas where sound doesn't carry. This even allows the target to provide verbal casting components in such areas, but only if you choose to make the letters visible to all creatures. Furthermore, any of the target's auditory abilities can affect creatures even in areas where sound does not carry as long as you have made the glyphs visible to them and they have line of sight to the target; in this case, they gain the visual trait. You can Dismiss the spell.</span></p>"
        },
        "duration": {
            "value": "1 minute"
        },
        "hasCounteractCheck": {
            "value": false
        },
        "level": {
            "value": 4
        },
        "location": {
            "value": ""
        },
        "materials": {
            "value": ""
        },
        "prepared": {
            "value": ""
        },
        "primarycheck": {
            "value": ""
        },
        "range": {
            "value": "30 feet"
        },
        "rules": [],
        "save": {
            "basic": "",
            "value": ""
        },
        "scaling": {
            "formula": "",
            "mode": "none"
        },
        "school": {
            "value": "illusion"
        },
        "secondarycasters": {
            "value": ""
        },
        "secondarycheck": {
            "value": ""
        },
        "source": {
            "value": ""
        },
        "spellType": {
            "value": "utility"
        },
        "sustained": {
            "value": false
        },
        "target": {
            "value": "1 creature"
        },
        "time": {
            "value": "2"
        },
        "traditions": {
            "custom": "",
            "value": []
        },
        "traits": {
            "custom": "",
            "rarity": {
                "value": "uncommon"
            },
            "value": [
                "cleric",
                "illusion",
                "visual"
            ]
        }
    },
    "effects": [],
    "flags": {},
    "img": "systems/pf2e/icons/spells/ghostly-transcription.webp",
    "name": "Ghostly Transcription",
    "permission": {
        "default": 0
    },
    "type": "spell"
}
