{
    "_id": "tj86Rnq3QuQnDtG3",
    "data": {
        "ability": {
            "value": ""
        },
        "area": {
            "value": ""
        },
        "areasize": {
            "value": ""
        },
        "category": {
            "value": "focus"
        },
        "components": {
            "value": "verbal"
        },
        "cost": {
            "value": ""
        },
        "damage": {
            "applyMod": false,
            "value": ""
        },
        "damageType": {
            "value": ""
        },
        "description": {
            "chat": "",
            "unidentified": "",
            "value": "<p><span>Your target glows with a magical aura visible only to you and those who follow your lead. Your target is visible to you and others sharing your @Compendium[pf2e.classfeatures.Hunt Prey]{Hunt Prey} benefits even if it wouldn't normally be due to lighting or the @Compendium[pf2e.conditionitems.Concealed]{Concealed} or @Compendium[pf2e.conditionitems.Invisible]{Invisible} conditions, though cover from opaque objects still blocks your sight. You ignore the flat check against the target due to the Concealed condition, and the target isn't automatically @Compendium[pf2e.conditionitems.Hidden]{Hidden} from you due to darkness or being Invisible.</span></p>"
        },
        "duration": {
            "value": "10 minutes"
        },
        "hasCounteractCheck": {
            "value": false
        },
        "level": {
            "value": 5
        },
        "location": {
            "value": ""
        },
        "materials": {
            "value": ""
        },
        "prepared": {
            "value": ""
        },
        "primarycheck": {
            "value": ""
        },
        "range": {
            "value": "30 feet"
        },
        "rules": [],
        "save": {
            "basic": "",
            "value": ""
        },
        "scaling": {
            "formula": "",
            "mode": "none"
        },
        "school": {
            "value": "divination"
        },
        "secondarycasters": {
            "value": ""
        },
        "secondarycheck": {
            "value": ""
        },
        "source": {
            "value": ""
        },
        "spellType": {
            "value": "utility"
        },
        "sustained": {
            "value": false
        },
        "target": {
            "value": "1 hunted prey"
        },
        "time": {
            "value": "1"
        },
        "traditions": {
            "value": []
        },
        "traits": {
            "custom": "",
            "rarity": {
                "value": "uncommon"
            },
            "value": [
                "divination",
                "ranger"
            ]
        }
    },
    "effects": [],
    "flags": {},
    "img": "systems/pf2e/icons/spells/hunters-vision.webp",
    "name": "Hunter's Vision",
    "permission": {
        "default": 0
    },
    "type": "spell"
}
