{
    "_id": "mm3hZ6jgaJaKK16n",
    "data": {
        "ability": {
            "value": ""
        },
        "area": {
            "value": ""
        },
        "areasize": {
            "value": ""
        },
        "category": {
            "value": "focus"
        },
        "components": {
            "value": "verbal"
        },
        "cost": {
            "value": ""
        },
        "damage": {
            "applyMod": false,
            "value": ""
        },
        "damageType": {
            "value": ""
        },
        "description": {
            "chat": "",
            "unidentified": "",
            "value": "<p>You give a speech that fills your target with a drive to improve themself to the exclusion of assisting others. A creature that wants to gain the benefit of this spell and doesn't care about its limitations can voluntarily fail the save. The target then becomes temporarily immune to all your litanies for 1 minute.</p>\n<hr />\n<p><strong>Success</strong> The target is unaffected.</p>\n<p><strong>Failure</strong> The target gains a +2 status bonus to attack rolls, Perception checks, saving throws, and skill checks. The target can't @Compendium[pf2e.actionspf2e.Aid]{Aid} other creatures, consider any creature an ally, or use spells or abilities that directly benefit another creature (as determined by the GM), even if they also benefit the target. Other creatures allied with the spell's target can still consider the target an ally and affect it accordingly.</p>\n<p>@Compendium[pf2e.spell-effects.Spell Effect: Litany of Self-Interest]{Spell Effect: Litany of Self-Interest}</p>\n<hr />\n<p><strong>Heightened (8th)</strong> The status bonus increases to +3.</p>"
        },
        "duration": {
            "value": "1 round"
        },
        "hasCounteractCheck": {
            "value": false
        },
        "level": {
            "value": 5
        },
        "location": {
            "value": ""
        },
        "materials": {
            "value": ""
        },
        "prepared": {
            "value": ""
        },
        "primarycheck": {
            "value": ""
        },
        "range": {
            "value": "30 feet"
        },
        "rules": [],
        "save": {
            "basic": "",
            "value": "will"
        },
        "scaling": {
            "formula": "",
            "mode": "level1"
        },
        "school": {
            "value": "enchantment"
        },
        "secondarycasters": {
            "value": ""
        },
        "secondarycheck": {
            "value": ""
        },
        "source": {
            "value": ""
        },
        "spellType": {
            "value": "utility"
        },
        "sustained": {
            "value": false
        },
        "target": {
            "value": "1 creature"
        },
        "time": {
            "value": "1"
        },
        "traditions": {
            "value": []
        },
        "traits": {
            "custom": "",
            "rarity": {
                "value": "uncommon"
            },
            "value": [
                "champion",
                "enchantment",
                "evil",
                "litany",
                "mental"
            ]
        }
    },
    "effects": [],
    "flags": {},
    "img": "systems/pf2e/icons/spells/litany-of-self-interest.webp",
    "name": "Litany of Self-Interest",
    "permission": {
        "default": 0
    },
    "type": "spell"
}
