{
    "_id": "W6QlRwQLPoBSw6PZ",
    "data": {
        "ability": {
            "value": ""
        },
        "area": {
            "areaType": "",
            "value": null
        },
        "areasize": {
            "value": ""
        },
        "category": {
            "value": "spell"
        },
        "components": {
            "value": "somatic, verbal"
        },
        "cost": {
            "value": ""
        },
        "damage": {
            "applyMod": false,
            "value": "2d4"
        },
        "damageType": {
            "value": "cold"
        },
        "description": {
            "chat": "",
            "unidentified": "",
            "value": "<p>You throw a magically propelled and chilled ball of dense snow. The target takes 2d4 cold damage and potentially other effects, depending on the result of your spell attack roll.</p>\n<hr />\n<p><span><strong>Critical Success</strong> The target takes double damage and a -10-foot status penalty to its Speeds for 1 round.</span></p>\n<p><span><strong>Success</strong> The target takes full damage and a -5-foot status penalty to its Speeds for 1 round.</span></p>\n<p><span><strong>Failure</strong> No effect.</span></p>\n<hr />\n<p><strong>Heightened (+1)</strong> The damage increases by 2d4.</p>"
        },
        "duration": {
            "value": ""
        },
        "hasCounteractCheck": {
            "value": false
        },
        "level": {
            "value": 1
        },
        "location": {
            "value": ""
        },
        "materials": {
            "value": ""
        },
        "prepared": {
            "value": ""
        },
        "primarycheck": {
            "value": ""
        },
        "range": {
            "value": "30 feet"
        },
        "rules": [],
        "save": {
            "basic": "",
            "value": ""
        },
        "scaling": {
            "formula": "2d4",
            "mode": "level1"
        },
        "school": {
            "value": "evocation"
        },
        "secondarycasters": {
            "value": ""
        },
        "secondarycheck": {
            "value": ""
        },
        "source": {
            "value": ""
        },
        "spellType": {
            "value": "attack"
        },
        "sustained": {
            "value": false
        },
        "target": {
            "value": "1 creature"
        },
        "time": {
            "value": "2"
        },
        "traditions": {
            "custom": "",
            "value": [
                "arcane",
                "primal"
            ]
        },
        "traits": {
            "custom": "",
            "rarity": {
                "value": "common"
            },
            "value": [
                "attack",
                "water",
                "cold",
                "evocation"
            ]
        }
    },
    "effects": [],
    "flags": {},
    "img": "systems/pf2e/icons/spells/snowball.webp",
    "name": "Snowball",
    "permission": {
        "default": 0
    },
    "type": "spell"
}
