{
    "_id": "BRtKFk0PKfWIlCAB",
    "data": {
        "ability": {
            "value": ""
        },
        "area": {
            "areaType": "",
            "value": null
        },
        "areasize": {
            "value": ""
        },
        "category": {
            "value": "focus"
        },
        "components": {
            "value": "material, somatic, verbal"
        },
        "cost": {
            "value": ""
        },
        "damage": {
            "applyMod": false,
            "value": ""
        },
        "damageType": {
            "value": ""
        },
        "description": {
            "chat": "",
            "unidentified": "",
            "value": "<p>With soothing song or tales, you lull the target into an enchanting dream. When you cast the spell, the target falls @Compendium[pf2e.conditionitems.Unconscious]{Unconscious} if it wasn't already. While Unconscious, it experiences a dream of your choice.</p>\n<p>If it sleeps for at least 1 minute, it gains the benefit of the dream for the remainder of the spell's duration.</p>\n<ul>\n<li><strong>@Compendium[pf2e.spell-effects.Spell Effect: Sweet Dream (Insight)]{Dream of Insight}</strong> +1 status bonus to Intelligence-based skill checks</li>\n<li><strong>@Compendium[pf2e.spell-effects.Spell Effect: Sweet Dream (Glamour)]{Dream of Glamour}</strong> +1 status bonus to Charisma-based skill checks</li>\n<li><strong>@Compendium[pf2e.spell-effects.Spell Effect: Sweet Dream (Voyaging)]{Dream of Voyaging}</strong> +5-foot status bonus to Speed</li>\n</ul>\n<p>If you Cast this Spell again, the effects of any previous sweet dream you cast end.</p>"
        },
        "duration": {
            "value": "10 minutes"
        },
        "hasCounteractCheck": {
            "value": false
        },
        "level": {
            "value": 1
        },
        "location": {
            "value": ""
        },
        "materials": {
            "value": ""
        },
        "prepared": {
            "value": ""
        },
        "primarycheck": {
            "value": ""
        },
        "range": {
            "value": "30 feet"
        },
        "rules": [],
        "save": {
            "basic": "",
            "value": ""
        },
        "scaling": {
            "formula": "",
            "mode": "none"
        },
        "school": {
            "value": "enchantment"
        },
        "secondarycasters": {
            "value": ""
        },
        "secondarycheck": {
            "value": ""
        },
        "source": {
            "value": ""
        },
        "spellType": {
            "value": "utility"
        },
        "sustained": {
            "value": false
        },
        "target": {
            "value": "1 willing creature"
        },
        "time": {
            "value": "3"
        },
        "traditions": {
            "value": []
        },
        "traits": {
            "custom": "",
            "rarity": {
                "value": "uncommon"
            },
            "value": [
                "auditory",
                "cleric",
                "enchantment",
                "linguistic",
                "mental",
                "sleep"
            ]
        }
    },
    "effects": [],
    "flags": {},
    "img": "systems/pf2e/icons/spells/sweet-dream.webp",
    "name": "Sweet Dream",
    "permission": {
        "default": 0
    },
    "type": "spell"
}
