{
    "_id": "Mmezbef0c1fbJaVV",
    "data": {
        "actionCategory": {
            "value": ""
        },
        "actionType": {
            "value": "passive"
        },
        "actions": {
            "value": ""
        },
        "description": {
            "value": "<p>Your body was augmented with processes and an appearance intended to blend in with humans more easily. You become trained in Deception (or another skill if you’re already trained in Deception). You don’t require a disguise kit when attempting Deception checks to Impersonate a human. In addition, you gain a +4 circumstance bonus to Impersonate checks to pretend that you’re a human version of yourself, rather than an android. This bonus doesn’t apply to other checks to Impersonate humans.</p>"
        },
        "featType": {
            "value": "heritage"
        },
        "level": {
            "value": 1
        },
        "location": "",
        "prerequisites": {
            "value": []
        },
        "rules": [],
        "source": {
            "value": ""
        },
        "traits": {
            "custom": "",
            "rarity": {
                "value": "common"
            },
            "value": [
                "android"
            ]
        }
    },
    "effects": [],
    "flags": {},
    "img": "systems/pf2e/icons/default-icons/feat.svg",
    "name": "Impersonator Android",
    "permission": {
        "default": 0
    },
    "type": "feat"
}
