{
    "_id": "CzOHITB2ihLGqMuJ",
    "data": {
        "actionCategory": {
            "value": ""
        },
        "actionType": {
            "value": "passive"
        },
        "actions": {
            "value": ""
        },
        "description": {
            "chat": "",
            "unidentified": "",
            "value": "<p>You come from a long line of hobgoblins who commanded goblins. You are smaller than other hobgoblins, but goblins still listen to any commands you bellow. You gain the @Compendium[pf2e.feats-srd.Group Coercion]{Group Coercion} skill feat. If you roll a success on an Intimidation check to @Compendium[pf2e.actionspf2e.Coerce]{Coerce} a goblin (but not other creatures with the goblin trait), you get a critical success instead; if you roll a critical failure, you get a failure instead.</p>"
        },
        "featType": {
            "value": "heritage"
        },
        "level": {
            "value": 1
        },
        "location": "",
        "prerequisites": {
            "value": []
        },
        "rules": [
            {
                "key": "PF2E.RuleElement.Note",
                "predicate": {
                    "all": [
                        "action:coerce",
                        "target:goblin"
                    ]
                },
                "selector": "intimidation",
                "text": "<p class='compact-text'><strong>{item|name}</strong> When you roll a success on an Intimidation check to Coerce a goblin, you get a critical success instead; if you roll a critical failure, you get a failure instead.</p>"
            }
        ],
        "source": {
            "value": ""
        },
        "traits": {
            "custom": "",
            "rarity": {
                "value": "common"
            },
            "value": [
                "hobgoblin"
            ]
        }
    },
    "effects": [],
    "flags": {},
    "img": "systems/pf2e/icons/features/ancestry/runtboss-hobgoblin.webp",
    "name": "Runtboss Hobgoblin",
    "permission": {
        "default": 0
    },
    "type": "feat"
}
