{
    "_id": "grkmoNwwHOROKER7",
    "data": {
        "actionCategory": {
            "value": ""
        },
        "actionType": {
            "value": "passive"
        },
        "actions": {
            "value": ""
        },
        "description": {
            "chat": "",
            "unidentified": "",
            "value": "<p>You can make a first-level character with one of the following backgrounds, as found on page 73: @Compendium[pf2e.backgrounds.Aiudara Seeker]{Aiudara Seeker}, @Compendium[pf2e.backgrounds.Hermean Heritor]{Hermean Heritor}, @Compendium[pf2e.backgrounds.Legendary Parents]{Legendary Parents}, @Compendium[pf2e.backgrounds.Touched by Dahak]{Touched by Dahak}</p>"
        },
        "featType": {
            "value": "pfsboon"
        },
        "identified": {
            "value": true
        },
        "level": {
            "value": 0
        },
        "prerequisites": {
            "value": []
        },
        "rules": [],
        "source": {
            "value": ""
        },
        "traits": {
            "custom": "",
            "rarity": {
                "value": "common"
            },
            "selected": {},
            "value": []
        }
    },
    "effects": [],
    "flags": {},
    "img": "systems/pf2e/icons/default-icons/mystery-man.webp",
    "name": "AoA #150: Boon A - Legacy of Ashes",
    "permission": {
        "default": 0
    },
    "type": "feat"
}
