{
    "_id": "WGjcz2mkgGB1qCWw",
    "data": {
        "actionCategory": {
            "value": ""
        },
        "actionType": {
            "value": "passive"
        },
        "actions": {
            "value": ""
        },
        "description": {
            "chat": "",
            "unidentified": "",
            "value": "<p><strong>[Property]</strong></p>\n<p><strong>Prerequisites:</strong> Tier 3 with the Verdant Wheel</p>\n<p><strong>Cost</strong>: 4 Fame</p>\n<p><strong>Effect</strong>: You have claimed a small plot where you can grow, study, or experiment with a wide variety of animals, fungi, and plants, providing you a wealth of healthful reagents. You can purchase antidotes, antiplagues, barkskin potions, elixirs of life, healing potions, potions of flying, and potions of leaping at a 10% discount.</p>"
        },
        "featType": {
            "value": "pfsboon"
        },
        "level": {
            "value": "0"
        },
        "prerequisites": {
            "value": []
        },
        "rules": [],
        "source": {
            "value": ""
        },
        "traits": {
            "custom": "",
            "rarity": {
                "value": "common"
            },
            "selected": {},
            "value": []
        }
    },
    "effects": [],
    "flags": {},
    "img": "systems/pf2e/icons/default-icons/mystery-man.webp",
    "name": "Preserve",
    "permission": {
        "default": 0
    },
    "type": "feat"
}
