{
    "_id": "P1sdPHrbAfqrEAM3",
    "data": {
        "actionCategory": {
            "value": ""
        },
        "actionType": {
            "value": "passive"
        },
        "actions": {
            "value": ""
        },
        "description": {
            "chat": "",
            "unidentified": "",
            "value": "<p><strong>[Slotless]</strong></p>\n<p><strong>Effect</strong>: To celebrate your success as a Pathfinder agent, Janira gave you a compass lid engraved with your name and a Glyph of the Open Road, symbol of the Pathfinder Society. You can attach this lid to any @Compendium[pf2e.equipment-srd.Compass]{Compass}, including a @Compendium[pf2e.equipment-srd.Wayfinder]{Wayfinder}, to personalize it.</p>"
        },
        "featType": {
            "value": "pfsboon"
        },
        "level": {
            "value": "0"
        },
        "prerequisites": {
            "value": []
        },
        "rules": [],
        "source": {
            "value": ""
        },
        "traits": {
            "custom": "",
            "rarity": {
                "value": "common"
            },
            "selected": {},
            "value": []
        }
    },
    "effects": [],
    "flags": {},
    "img": "systems/pf2e/icons/default-icons/mystery-man.webp",
    "name": "S1-01 - Engraved Wayfinder",
    "permission": {
        "default": 0
    },
    "type": "feat"
}
