{
    "_id": "73j0kmPBzSCIOtq1",
    "data": {
        "attributes": {
            "ac": {
                "value": 0
            },
            "hardness": 0,
            "hasHealth": true,
            "hp": {
                "details": "",
                "max": 10,
                "temp": 0,
                "value": 10
            },
            "stealth": {
                "details": "",
                "value": 0
            }
        },
        "creatureType": "",
        "details": {
            "description": "<p>A flawed ritual emits surges of shadowy energy and opens tiny breaches into the Shadow Plane.</p>",
            "disable": "<p>Seven flaws have appeared in the ritual circle, dancing like shadowy flames. Each of Tavvar&rsquo;s three aides keeps one flaw under control as long as they are alive, while Tavvar herself staves off the ritual&rsquo;s implosion as listed in the ritual anchor ability below.</p>\n<p>Each flaw can be repaired with a successful DC 24 Occultism check or DC 20 (trained) check using a skill related to the flaw's original cause (see the table below). Regardless of success or failure, a PC who attempts an Occultism check to disable the hazard learns the cause of the flaws and the skills that can be used to overcome it.</p>\n<p>Each success on a check to repair a flaw using these other skills reduces the DC of the Occultism check to repair a flaw by 2. Instead of using skill checks, the PCs can use force to stabilize the ritual. A PC who defeats a shadow wisp automatically repairs one flaw.</p>\n<table class=\"pf2-table\">\n<thead>\n<tr>\n<th>d4</th>\n<th>Cause of Flaw</th>\n<th>Skills to Overcome</th>\n</tr>\n</thead>\n<tbody>\n<tr>\n<td>1</td>\n<td>Harried (a \"publish or perish\" culture at the College of Mystery led to Tavvar cutting corners in the ritual&rsquo;s execution, so some runes aren&rsquo;t drawn quite right)</td>\n<td>Arcana of Thievery</td>\n</tr>\n<tr>\n<td>2</td>\n<td>Misplaced Affection (Tavvar is from Nidal and subconsciously hopes the ritual will show that there is some good in her homeland; she included some Shadowtongue in the runes and it's enhancing the energy</td>\n<td>Society or Religion</td>\n</tr>\n<tr>\n<td>3</td>\n<td>Cloistered (Tavvar hasn't done much field work and made a dangerous mistake in which mushrooms she used in the ink for the runes)</td>\n<td>Crafting or Nature</td>\n</tr>\n<tr>\n<td>4</td>\n<td>Restrained (Tavvar's own hesitation and self-doubt has led to the ritual slipping out of her control)</td>\n<td>Deception or Diplomacy</td>\n</tr>\n</tbody>\n</table>",
            "isComplex": true,
            "level": 2,
            "reset": "",
            "routine": "<p>(1 action) On each of its turns, the ritual lets out a surge of shadowy energy, dealing [[/r 4d6 #negative]] negative damage (<span data-pf2-saving-throw=\"fortitude\" data-pf2-label=\"Flawed Ritual DC\" data-pf2-dc=\"18\" data-pf2-show-dc=\"gm\">basic Fortitude</span> save) to each character who participated in ritual the past round (including Tavvar and her aides as well as any PC who attempted a skill check to disable the hazard).</p>\n<p>A non-participant can step in front of a participant as a reaction. This blocks the damage from the ritual caster, but the non-participant must then attempt the Fortitude save. In addition to dealing damage, the ritual's surge of energy brings a @Compendium[pf2e.pfs-season-1-bestiary.Greater Shadow Wisp]{Greater Shadow Wisp} into the room.</p>\n<p>Wisps act at the end of the ritual's turn. If there are already two shadow wisps in the room, instead of creating a new wisp, the ritual restores [[/r 10 #Hit Points]] Hit Points to each wisp.</p>"
        },
        "flavourText": "",
        "recallKnowledgeText": "",
        "saves": {
            "fortitude": {
                "rank": 0,
                "saveDetail": "",
                "value": null
            },
            "reflex": {
                "rank": 0,
                "saveDetail": "",
                "value": null
            },
            "will": {
                "rank": 0,
                "saveDetail": "",
                "value": null
            }
        },
        "schema": {
            "version": {
                "value": ""
            }
        },
        "sidebarText": "",
        "source": {
            "value": ""
        },
        "statusEffects": [],
        "traits": {
            "ci": [],
            "di": {
                "custom": "",
                "selected": {},
                "value": []
            },
            "dr": [],
            "dv": [],
            "rarity": {
                "value": "common"
            },
            "size": {
                "value": "med"
            },
            "traits": {
                "custom": "",
                "value": [
                    "magical"
                ]
            }
        }
    },
    "effects": [],
    "flags": {},
    "img": "systems/pf2e/icons/default-icons/hazard.svg",
    "items": [
        {
            "_id": "qItNc16WZT4gqoaJ",
            "data": {
                "actionCategory": {
                    "value": "interaction"
                },
                "actionType": {
                    "value": "passive"
                },
                "actions": {
                    "value": ""
                },
                "description": {
                    "value": "<p>If Tavvar dies, the ritual immediately ends disastrously.</p>\n<p>With a loud pop, it explodes, filling the room with negative energy before dissipating. This deals [[/r 4d6 #negative]] negative damage to all creatures in area <strong>B5</strong> (<span data-pf2-saving-throw=\"fortitude\" data-pf2-label=\"Flawed Ritual DC\" data-pf2-dc=\"18\" data-pf2-show-dc=\"gm\">basic Fortitude</span> save). The NPCs ritualists automatically critically fail their saving throws.</p>\n<p>The explosion ends the ritual but does not remove any @Compendium[pf2e.pfs-season-1-bestiary.Greater Shadow Wisp]{Greater Shadow Wisps} that are already in the room.</p>"
                },
                "requirements": {
                    "value": ""
                },
                "rules": [],
                "slug": null,
                "source": {
                    "value": ""
                },
                "traits": {
                    "custom": "",
                    "rarity": {
                        "value": "common"
                    },
                    "value": []
                },
                "trigger": {
                    "value": ""
                },
                "weapon": {
                    "value": ""
                }
            },
            "effects": [],
            "flags": {},
            "img": "systems/pf2e/icons/actions/Passive.webp",
            "name": "Ritual Anchor",
            "sort": 100000,
            "type": "action"
        }
    ],
    "name": "Deeply Flawed Ritual",
    "permission": {
        "default": 0
    },
    "token": {
        "actorId": "73j0kmPBzSCIOtq1",
        "actorLink": false,
        "bar1": {
            "attribute": "attributes.hp"
        },
        "bar2": {},
        "brightLight": 0,
        "brightSight": 0,
        "dimLight": 0,
        "dimSight": 0,
        "displayBars": 20,
        "displayName": 20,
        "disposition": 0,
        "flags": {},
        "height": 1,
        "img": "systems/pf2e/icons/default-icons/hazard.svg",
        "lightAlpha": 1,
        "lightAngle": 360,
        "lightAnimation": {
            "intensity": 5,
            "speed": 5
        },
        "lockRotation": false,
        "name": "Deeply Flawed Ritual",
        "randomImg": false,
        "rotation": 0,
        "scale": 1,
        "sightAngle": 360,
        "tint": null,
        "vision": false,
        "width": 1
    },
    "type": "hazard"
}
