{
    "_id": "0Fvulq5Zv4BQPvYV",
    "data": {
        "attributes": {
            "ac": {
                "value": 10
            },
            "hardness": 3,
            "hasHealth": true,
            "hp": {
                "details": "",
                "max": 12,
                "temp": 0,
                "tempmax": 0,
                "value": 12
            },
            "stealth": {
                "details": "DC 19 Perception check (or 0 after the hazard is triggered)",
                "value": 9
            }
        },
        "creatureType": "",
        "customModifiers": {},
        "details": {
            "description": "A section of splintery and rotten floorboards drop a creature 6 feet onto uneven rocks and piercing shards of wood.",
            "disable": "DC 15 Crafting (trained) to replace or cover the weak sections of flooring, or DC 15 Survival (trained) to crumble the rotten floorboards from a safe distance.",
            "isComplex": false,
            "level": 1,
            "reset": "Once this section of the porch has collapsed, creatures can still fall through the hole until the porch is Repaired.",
            "routine": ""
        },
        "flavourText": "",
        "recallKnowledgeText": "",
        "saves": {
            "fortitude": {
                "rank": 0,
                "saveDetail": "",
                "value": 1
            },
            "reflex": {
                "rank": 0,
                "saveDetail": "",
                "value": 1
            },
            "will": {
                "rank": 0,
                "saveDetail": "",
                "value": 0
            }
        },
        "schema": {
            "version": {
                "value": ""
            }
        },
        "sidebarText": "",
        "source": {
            "value": ""
        },
        "statusEffects": [],
        "traits": {
            "ci": [],
            "di": {
                "custom": "sneak attack",
                "selected": {},
                "value": [
                    "critical-hits"
                ]
            },
            "dr": [],
            "dv": [],
            "rarity": {
                "value": "common"
            },
            "size": {
                "value": "med"
            },
            "traits": {
                "custom": "",
                "value": [
                    "mechanical"
                ]
            }
        }
    },
    "effects": [],
    "flags": {},
    "img": "systems/pf2e/icons/default-icons/mystery-man.svg",
    "items": [
        {
            "_id": "71j8rIykcKntxLJQ",
            "data": {
                "actionCategory": {
                    "value": ""
                },
                "actionType": {
                    "value": "reaction"
                },
                "actions": {
                    "value": ""
                },
                "description": {
                    "chat": "",
                    "unidentified": "",
                    "value": "<p>If a creature walks on the area marked on the map, it falls through the weakened floorboards onto uneven rocks and sharp shards of wood, taking [[1d4]] piercing damage and [[1d6]] bludgeoning damage. The creature can use the Grab an Edge reaction to avoid the fall and the damage.</p>"
                },
                "requirements": {
                    "value": ""
                },
                "rules": [],
                "slug": null,
                "source": {
                    "value": ""
                },
                "traits": {
                    "custom": "",
                    "rarity": {
                        "value": "common"
                    },
                    "value": []
                },
                "trigger": {
                    "value": ""
                },
                "usage": {
                    "value": "held-in-one-hand"
                },
                "weapon": {
                    "value": ""
                }
            },
            "effects": [],
            "flags": {
                "pdfoundry-pf2e": {
                    "source": ""
                }
            },
            "img": "systems/pf2e/icons/actions/Reaction.webp",
            "name": "Collapse",
            "sort": 100000,
            "type": "action"
        }
    ],
    "name": "Collapsing Porch",
    "permission": {
        "default": 0
    },
    "token": {
        "actorId": "0Fvulq5Zv4BQPvYV",
        "actorLink": false,
        "bar1": {
            "attribute": "attributes.hp"
        },
        "bar2": {},
        "brightLight": 0,
        "brightSight": 0,
        "dimLight": 0,
        "dimSight": 0,
        "displayBars": 20,
        "displayName": 20,
        "disposition": 0,
        "flags": {},
        "height": 1,
        "img": "systems/pf2e/icons/default-icons/hazard.svg",
        "lightAlpha": 1,
        "lightAngle": 360,
        "lightAnimation": {
            "intensity": 5,
            "speed": 5
        },
        "lockRotation": false,
        "name": "Collapsing Porch",
        "randomImg": false,
        "rotation": 0,
        "scale": 1,
        "sightAngle": 360,
        "tint": null,
        "vision": false,
        "width": 1
    },
    "type": "hazard"
}
