{
    "_id": "hv50ovLKV6lu49dF",
    "data": {
        "attributes": {
            "ac": {
                "value": null
            },
            "hardness": null,
            "hasHealth": true,
            "hp": {
                "details": "",
                "max": null,
                "temp": 0,
                "tempmax": 0,
                "value": 0
            },
            "stealth": {
                "details": "DC 22 Perception to detect the subtle magical aura of the land",
                "value": 12
            }
        },
        "creatureType": "",
        "customModifiers": {},
        "details": {
            "description": "What seems like an innocent stretch of land assaults trespassers with terrible illusions.",
            "disable": "Arcana, Nature, Occultism, or Religion DC 22 (by a hero with expert proficiency in that skill) three times to temporarily disrupt the magic, or dispel magic (3rd-level spell, DC 25)",
            "isComplex": true,
            "level": 6,
            "reset": "The terrible visions cease after all creatures have left the affected area, but the hazard is immediately ready to inflict its visions on the next creature to enter.",
            "routine": "(1 action) Terrible visions assail the minds of all creatures who can see within the affected area. Each creature must attempt a DC 24 Will saving throw.\nCritical Success The creature is unaffected.\nSuccess The creature is frightened 2.\nFailure The creature takes 2d8+9 mental damage and is frightened 3.\nCritical Failure The creature takes 4d8+18 mental damage and is frightened 4."
        },
        "flavourText": "",
        "recallKnowledgeText": "",
        "saves": {
            "fortitude": {
                "rank": 0,
                "saveDetail": "",
                "value": null
            },
            "reflex": {
                "rank": 0,
                "saveDetail": "",
                "value": null
            },
            "will": {
                "rank": 0,
                "saveDetail": "",
                "value": 0
            }
        },
        "schema": {
            "version": {
                "value": ""
            }
        },
        "sidebarText": "",
        "source": {
            "value": ""
        },
        "statusEffects": [],
        "traits": {
            "ci": [],
            "di": {
                "custom": "sneak attack",
                "selected": {},
                "value": [
                    "critical-hits"
                ]
            },
            "dr": [],
            "dv": [],
            "rarity": {
                "value": "common"
            },
            "size": {
                "value": "med"
            },
            "traits": {
                "custom": "",
                "value": [
                    "magical"
                ]
            }
        }
    },
    "effects": [],
    "flags": {},
    "img": "systems/pf2e/icons/default-icons/mystery-man.svg",
    "items": [
        {
            "_id": "Fk4R8F6Vr2Lr7mZZ",
            "data": {
                "actionCategory": {
                    "value": ""
                },
                "actionType": {
                    "value": "reaction"
                },
                "actions": {
                    "value": ""
                },
                "description": {
                    "chat": "",
                    "unidentified": "",
                    "value": "<p>(illusion, mental, occult) If a creature that can see moves 10 feet into the affected area, the hazard rolls Stealth (+16) for its initiative.</p>"
                },
                "requirements": {
                    "value": ""
                },
                "rules": [],
                "slug": null,
                "source": {
                    "value": ""
                },
                "traits": {
                    "custom": "",
                    "rarity": {
                        "value": "common"
                    },
                    "value": []
                },
                "trigger": {
                    "value": ""
                },
                "usage": {
                    "value": "held-in-one-hand"
                },
                "weapon": {
                    "value": ""
                }
            },
            "effects": [],
            "flags": {},
            "img": "systems/pf2e/icons/actions/Reaction.webp",
            "name": "Step into Nightmares",
            "sort": 100000,
            "type": "action"
        }
    ],
    "name": "Nightmare Terrain",
    "permission": {
        "default": 0
    },
    "token": {
        "actorId": "hv50ovLKV6lu49dF",
        "actorLink": false,
        "bar1": {
            "attribute": "attributes.hp"
        },
        "bar2": {},
        "brightLight": 0,
        "brightSight": 0,
        "dimLight": 0,
        "dimSight": 0,
        "displayBars": 20,
        "displayName": 20,
        "disposition": 0,
        "flags": {},
        "height": 1,
        "img": "systems/pf2e/icons/default-icons/mystery-man.svg",
        "lightAlpha": 1,
        "lightAngle": 360,
        "lightAnimation": {
            "intensity": 5,
            "speed": 5
        },
        "lockRotation": false,
        "name": "Nightmare Terrain",
        "randomImg": false,
        "rotation": 0,
        "scale": 1,
        "sightAngle": 360,
        "tint": null,
        "vision": false,
        "width": 1
    },
    "type": "hazard"
}
